{
"Level": "Wizard 0",
"Title": "Electric Jolt",
"Casting": "1 standard action",
"Range": "Close (25 ft. + 5 ft./2 levels)",
"Effect": "Ray",
"Duration": "Instantaneous",
"Saving": "None",
"Words": "<p>A white-hot electric spark dances on your fingertip and then bolts toward your target.</p>\n<p>You release a small stroke of electrical energy. You must succeed on a ranged touch attack with the ray to strike a target. The spell deals 1d3 points of electricity damage.</p>"
}