{
"Level": "Cleric 3,Druid 3",
"Title": "Energy Vortex",
"Casting": "1 standard action",
"Range": "20 ft.",
"Duration": "Instantaneous",
"Saving": "Reflex half",
"Words": "<p><em>Energy wells up inside you and explodes outward in a furious burst.</em></p>\n<p>When you cast energy vortex, you choose one of four energy types: acid, cold, electricity, or fire. A blast of that energy type bursts in all directions from you, dealing 1d8 points of damage +1 point per caster level (maximum +20) to nearby creatures other than you. If you are willing to take the damage yourself, you deal twice as much damage. You don't get a Reflex save, but spell resistance applies, as do any resistances and immunities you have to the energy type.</p>\n<p>The descriptor of this spell is the same as the energy type you choose when you cast it.</p>"
}