{
"Level": "Wizard 3,Cleric 4",
"Title": "Sound Lance",
"Casting": "1 standard action",
"Range": "Medium (100 ft. + 10 ft./level)",
"Duration": "Instantaneous",
"Saving": "Fortitude half",
"Words": "<p><em>You unleash a shrill, piercing cry at your target, which takes the barely visible form of a translucent lance hurtling through the air.</em></p>\n<p>This spell causes a projectile of intense sonic energy to leap from you to a target within range. The sound deals 1d8 points of sonic damage per caster level (maximum 10d8). A sound lance cannot penetrate the area of a <a href=\"/spells/players-handbook-v35--6/silence--2704/\">silence</a> spell.</p>"
}