{
"Level": "Wizard 1",
"Title": "Insightful Feint",
"Casting": "1 swift action",
"Range": "Personal",
"Duration": "1 round",
"Words": "<p>With a chuckle you whisper the words that will make your ruse more effective.</p>\n<p>You gain a +10 insight bonus on the next single <a href=\"/skills/bluff/\">Bluff</a> check that you make to feint in combat (if it is made before the start of your next turn). You can make the feint as a move action, or once as a free action if you have the <a href=\"/feats/players-handbook-v35--6/improved-feint--1491/\">Improved Feint feat</a>.</p>"
}