{
"Level": "Cleric 5",
"Title": "Righteous Wrath of the Faithful",
"Casting": "1 standard action",
"Range": "30 ft.",
"Duration": "1 round/level",
"Saving": "None",
"Words": "<p><em>When you cast this spell, you fire your allies and companions with a divine madness or fury that greatly enhances their combat ability.</em></p>\n<p>Allies gain one additional melee attack each round, at their highest attack bonus, when making a full attack. (This additional attack is not cumulative with other effects that grant extra attacks, such as a <a href=\"/spells/players-handbook-v35--6/haste--2823/\"><em>haste</em></a> spell.) They also gain a +3 morale bonus on melee attack rolls and damage rolls. (This bonus on melee attack rolls does stack with the bonus provided by haste.)</p>"
}