{
"Level": "Cleric 2,Paladin 2",
"Title": "Quick March",
"Casting": "1 swift action",
"Range": "Medium (100 ft. + 10 ft./level)",
"Duration": "1 round",
"Saving": "Will negates (harmless)",
"Words": "<p><em>Upon casting this spell, your feet and those of your allies glow with a yellow nimbus of light.</em></p>\n<p>Quick march increases your allies' base land speed by 30 feet. (This adjustment is considered an enhancement bonus.) There is no effect on other modes of movement, such as burrow, climb, fly, or swim. As with any effect that increases a creature's speed, this spell affects maximum jumping distance.</p>"
}