{
"Level": "Wizard 3",
"Title": "Acid Breath",
"Casting": "1 standard action",
"Range": "15 ft",
"Area": "Cone-shaped burst",
"Duration": "Instantaneous",
"Saving": "Reflex half",
"Words": "<p>You breathe forth a cone of acidic droplets. The cone deals 1d6 points of acid damage per caster level (maximum 10d6).</p>\n<p>Material Component: A handful of fire ants (alive or dead).</p>"
}