{
"Level": "Bard 3",
"Title": "Allegro",
"Casting": "1 swift action",
"Range": "20 ft",
"Area": "20-ft.-radius burst centered on you.",
"Duration": "1 minute/level",
"Saving": "Fortitude negates (harmless)",
"Words": "<p><em>With a quick wiggle of your fingers and a few arcane words, you release the feather in your hand to complete the spell. Suddenly, translucent blue motes burst outward from you and collect on yourself and your nearby allies before fading away.</em></p>\n<p>Each creature within the spell's area gains a 30-foot enhancement bonus to its land speed, up to a maximum of double the creature's land speed. Affected creatures retain these effects for the duration of the spell, even if they leave the original area.</p>\n<p>Material Component: A tail feather from a bird of prey.</p>"
}