{
"Level": "Bard 3,Wizard 3",
"Title": "Analyze Portal",
"Casting": "1 minute",
"Range": "60 ft.",
"Area": "Cone-shaped emanation from you to the extreme of the range",
"Duration": "Concentration, up to 1 round/level (D)",
"Saving": "See text",
"Words": "<p><em>Seeing with a magic eye, you sense the portal. Studying it, knowledge about the portal comes into your mind as though it was a memory you could not recall until now.</em></p>\n<p>You can tell whether an area contains a magical portal or the effect of a gate spell. If you study an area for 1 round, you know the sizes and locations of any such portals in the area. Once you find a portal, you can study it. (If you find more than one portal, you can study only one at a time.) Each round you study a portal, you can discover one property of the portal, in this order.</p>\n<p>For each property, you make a caster level check (1d20 + caster level) against DC 17. If fail, you can try again in the next round. Analyze portal has only a limited ability to reveal unusual properties, as follows.</p>\n<p><em>Material Components</em>: A crystal lens and a small mirror.</p>"
}