{
"Level": "Cleric 3",
"Title": "Anarchic Storm",
"Casting": "1 standard action",
"Range": "20 feet",
"Area": "Cylider (20 ft. radius, 20 ft. high)",
"Duration": "1 round/level (D)",
"Saving": "None",
"Words": "<p><em>You call upon the powers of chaos, and a heavy rain begins to fall around you, its drops a rainbow of soft radiances. Above you, a multicolored lightning bolt flashes.</em></p>\n<p>The downpour created by this spell falls in a fixed area once created. The storm reduces hearing and visibility, resulting in a \u20144 penalty on Listen, Spot, and Search checks. It also applies a \u20144 penalty on ranged attacks made into, out of, or through the storm. Finally, it automatically extinguishes any unprotected flames and has a 50% chance to extinguish protected flames (such as those of lanterns).</p>\n<p>The rain damages lawful creatures, dealing 2d6 points of damage per round (lawful outsiders take double damage). In addition, each round, a bolt of lightning strikes a randomly selected lawful outsider within the spell's area, dealing 5d6 points of electricity damage. After the spell's duration expires, the water disappears.</p>\n<p><em>Material Component</em>: A flask of anarchic water (see the anarchic water spell, below).</p>"
}