{
"Level": "Wizard 2",
"Title": "Augment Familiar",
"Casting": "1 standard action",
"Range": "Close (25 ft. + 5 ft./2 levels",
"Duration": "Concentration + 1 round/level",
"Saving": "Fortitude negates (harmless)",
"Words": "<p><em>Reaching out with magic, you empower your familiar, making it quicker and stronger.</em></p>\n<p>This spell grants your familiar a +4 enhancement bonus to Strength, Dexterity, and Constitution, damage reduction 5/magic, and a +2 resistance bonus on saving throws.</p>"
}