{
"Level": "Druid 7",
"Title": "Aura of Vitality",
"Casting": "1 standard action",
"Range": "Close (25 ft. + 5 ft./2 levels",
"Duration": "1 round/level",
"Saving": "Will negates (harmless)",
"Words": "<p><em>One after another, your companions begin to radiate a soft, golden glow. They breathe deeply, suffused with additional mystic power.</em></p>\n<p>All subjects receive a +4 morale bonus to Strength, Dexterity, and Constitution.</p>"
}