{
"Level": "Paladin 2,Cleric 3",
"Title": "Awaken Sin",
"Casting": "1 standard action",
"Range": "Touch",
"Duration": "Instantaneous",
"Saving": "Will negates",
"Words": "<p><em>A command for repentance issues from your mouth, carrying with it the power of the spell. The crushing feeling of guilt that grew within you while you cast the spell lifts as you project the feeling at your target.</em></p>\n<p>The subject immediately takes 1d6 points of nonlethal damage per caster level (maximum 10d6) and is stunned for 1 round. If this knocks the subject unconscious, it also takes 1d6 points of Wisdom damage.</p>"
}