{
"Level": "Cleric 3,Paladin 3",
"Title": "Axiomatic Storm",
"Casting": "1 standard action",
"Area": "Cylinder (20-ft. radius, 20 ft. high)",
"Duration": "1 round/level (D)",
"Saving": "None",
"Words": "<p><em>You call upon the forces of law and a heavy rain begins to fall around you, its raindrops harsh and metallic. Above you, a jet of caustic acid lances down from the heavens.</em></p>\n<p>A driving rain falls around you. It falls in a fixed area once created. The storm reduces hearing and visibility, resulting in a \u20144 penalty on Listen, Spot, and Search checks. It also applies a \u20144 penalty on ranged attacks made into, out of, or through the storm. Finally, it automatically extinguishes any unprotected flames and has a 50% chance to extinguish protected flames (such as those of lanterns).</p>\n<p>The rain damages chaotic creatures, dealing 2d6 points of damage per round (chaotic outsiders take double damage). In addition, each round, a gout of acid strikes a randomly selected chaotic outsider within the spell's area, dealing 5d6 points of acid damage. After the spell's duration expires, the water disappears.</p>\n<p><em>Material Component</em>: A flask of axiomatic water (see the axiomatic water spell, below).</p>"
}