{
"Level": "Cleric 1,Paladin 1",
"Title": "Axiomatic Water",
"Casting": "1 minute",
"Range": "Touch",
"Duration": "Instantaneous",
"Saving": "Will negates (object)",
"Words": "<p><em>You speak the ancient, slippery words as you pour the iron and silver into the flask. Despite the fact that there is more powder than will fit in the container, all of it dissolves, leaving a flask of water dotted with motes of gunmetal gray.</em></p>\n<p>This transmutation imbues a flask (1 pint) of water with the order of law, turning it into axiomatic water. Axiomatic water damages chaotic outsiders the way holy water damages undead and evil outsiders. A flask of axiomatic water can be thrown as a splash weapon. Treat this attack as a ranged touch attack with a range increment of 10 feet. A flask breaks if thrown against the body of a corporeal creature, but to use it against an incorporeal creature, the bearer must open the flask and pout the axiomatic water out onto the target. Thus, a character can douse an incorporeal creature with axiomatic water only if he is adjacent to it. Doing so is a ranged touch attack that does not provoke attacks of opportunity.</p>\n<p>A direct hit by a flask of axiomatic water deals 2d4 points of damage to a chaotic outsider. Each such creature within 5 feet of the point where the flask hits takes 1 point of damage from the splash.</p>\n<p><em>Material Component</em>: 5 pounds of powdered iron and silver (worth 25 gp).</p>"
}