{
"Level": "Wizard 5",
"Title": "Ball Lightning",
"Casting": "1 standard action",
"Range": "Medium (100 ft. + 10 ft./level)",
"Effect": "One lightning ball",
"Duration": "1 round/level",
"Saving": "Reflex negates",
"Words": "<p><em>With a circuitous pass of your hand through the air, a crackling ball of lightning appears before you, accompanied by the smell of ozone.</em></p>\n<p>You create a 5-foot-diameter ball of concentrated electricity that rolls in whichever direction you point, dealing electricity damage to creatures it strikes. It moves 30 feet per round. As part of this movement, it can ascend or jump up to 30 feet to strike a subject. If it enters a space with a creature, it stops moving for the round and deals 1d6 points of electricity damage per caster level (maximum 15d6), though a successful Reflex save negates that damage.</p>\n<p>The ball moves as long as you actively direct it (a move action for you), otherwise it merely stays at rest, damaging any creature in its space. It cannot push aside unwilling creatures or batter down large obstacles. The lightning winks out if it exceeds the spell's range.</p>\n<p><em>Material Component</em>: A handful of copper and iron pellets.</p>"
}