{
"Level": "Wizard 3",
"Title": "Mage Armor, Greater",
"Casting": "1 standard action",
"Range": "Touch",
"Duration": "1 hour/level (D)",
"Saving": "Will negates (harmless)",
"Words": "<p><em>An invisible sheen of armor-shaped force surrounds you.</em></p>\n<p>This spell functions like <a href=\"/spells/players-handbook-v35--6/mage-armor--2405/\"><em>mage armor</em></a> (PH 249), except that it requires no material component and its tangible field of force provides a +6 armor bonus to Armor Class.</p>"
}