{
"Level": "Ranger 4",
"Title": "Implacable Pursuer",
"Casting": "1 minute",
"Range": "Long (400 ft. + 40 ft./level); see text",
"Duration": "1 hour/level (D)",
"Saving": "Will negates; see text",
"Words": "<p><em>With this spell, you become an unerring tracker, instantly aware of your quarry's location whenever it's on the move.</em></p>\n<p>The implacable pursuer spell gives you the direction and distance to the target creature whenever it finishes a turn more than 10 feet away from where it started. If you are a ranger, you apply your favored enemy bonus to the DC of the Will save.<br/>Once you successfully target a creature with implacable pursuer, you know its location as long as the subject is moving, no matter where it goes on the same plane. Even if it leaves the plane, implacable pursuer tells you what plane the subject creature went to. The spell then provides no further information until you and the subject creature are on the same plane, in which case the spell resumes functioning normally.</p>"
}