{
"Level": "Cleric 3",
"Title": "Ghost Touch Weapon",
"Casting": "1 standard action",
"Range": "Close (25 ft. + 5 ft. / 2 levels)",
"Duration": "1 minute / level",
"Saving": "Will negates (harmless, object)",
"Words": "<p><em>With a few words and a gesture, you empower a weapon to strike true against incorporeal foes.</em></p>\n<p>Ghost touch weapon makes a weapon magically capable of dealing damage normally to incorporeal creatures, regardless of its enhancement bonus. (An incorporeal creature's 50% chance to avoid damage does not apply to attacks made with weapons under the effect of this spell.) A ranged weapon affected by this spell does not bestow the ability on its ammunition.<br/>The weapon can be picked up and moved by an incorporeal creature at any time. A manifesting ghost can wield the weapon against corporeal foes. Essentially, a weapon under the effect of this spell counts as either corporeal or incorporeal at any given time, whichever is more beneficial to the wielder.</p>"
}