{
"Level": "Cleric 2,Wizard 2",
"Title": "Infernal Wound",
"Casting": "1 standard action",
"Range": "Touch",
"Duration": "1 round/level",
"Saving": "None",
"Words": "<p><em>You wave your hands over the blade and it takes on a gray pallor. Its attacks will now leave a lingering, painful memory in their wake.</em></p>\n<p>A creature injured by a weapon with infernal wound cast upon it loses 2 additional hit points each round for the duration of the spell (regardless of how many times it is struck during that time). The continuing hit point loss can be stopped by a Heal check (DC 10 + spell level + your relevant ability modifier), a cure spell, or a heal spell.</p>"
}