{
"Level": "Bard 1,Cleric 1,Wizard 1",
"Title": "Inhibit",
"Casting": "1 standard action",
"Range": "Medium (100 ft. + 10 ft./level)",
"Duration": "Instantaneous",
"Saving": "Will negates",
"Words": "<p><em>You cast this spell and a spiral of dark motes surrounds your foe, slowing and distracting him from the task at hand.</em></p>\n<p>You inhibit your foe from acting. The subject is forced to delay until the following round, acting immediately before you on your initiative count.</p>"
}