{
"Level": "Wizard 9",
"Title": "Instant Refuge",
"Casting": "10 minutes",
"Range": "Personal",
"Duration": "Until discharged",
"Words": "<p><em>You set invisible arcane triggers within your mind and body, allowing you to escape great peril in an instant.</em></p>\n<p>This powerful variant of the contingency spell automatically transfers you and everything you carry or touch (except for other creatures or objects that weigh more than 50 pounds) to a locale you name.<br/>When casting instant refuge, you must specify the locale and detail up to six specific conditions that trigger the spell. When any of these situations occurs, you are whisked away to the location. The location can be any place you have visited, even on another plane.</p>\n<p><em>Material Component</em>: A concoction made from demon skin and rare herbs worth 250 gp.<br/><em>XP Cost</em>: 100 XP.</p>"
}