{
"Level": "Bard 2,Cleric 2",
"Title": "Iron Silence",
"Casting": "1 standard action",
"Range": "Touch",
"Duration": "1 hour/level (D)",
"Saving": "Will negates (harmless, object)",
"Words": "<p><em>As you imitate a clanking noise you brush your hand over the armor you wish to silence. The armor glows softly orange for a moment before the glow fades. A closer look reveals what looks like orange grease in the joints of the armor.</em></p>\n<p>While this spell is in effect, the armor check penalty from the affected suit or suits of armor does not apply on Hide and Move Silently checks. Only wearers proficient in the armor's use get this benefit when  wearing the affected armor. The armor check penalty still applies to other skill checks as normal.</p>"
}