{
"Level": "Cleric 6,Wizard 7",
"Title": "Barghest's Feast",
"Casting": "1 round",
"Range": "Touch",
"Duration": "Instantaneous",
"Saving": "Will negates (object)",
"Words": "<p><em>The diamond in your hand turns to coal, and then to dust, which sprinkles down upon the corpse. Where it strikes, ebon flames spring up, and when the flames pass nothing remains, not even grave dust. \"Return from that one,\" you mutter.</em></p>\n<p>Black flames flicker over a corpse, utterly consuming it. You destroy the remains of a dead person or creature, preventing any form of raising or resur- rection that requires part of the corpse. There is a 50% chance that a wish, miracle, or true resurrection spell cannot restore to life a victim consumed by a barghest's feast spell. Check once for each destroyed creature. If the d% roll fails, the creature cannot be brought back to life by mortal magic.</p>\n<p><em>Material Component:</em> A diamond worth 5,000 gp.</p>"
}