{
"Level": "Paladin 1",
"Title": "Bless Weapon, Swift",
"Casting": "1 swift action",
"Duration": "1 round",
"Words": "<p><em>You invoke the holy words quickly, and your weapon flashes a momentary blue-white radiance.</em></p>\n<p>This spell functions like <em>bless weapon</em> (PH 205), except as noted above.</p>"
}