{
"Level": "Cleric 1,Paladin 1",
"Title": "Blessed Aim",
"Casting": "1 standard action",
"Range": "50 ft.",
"Effect": "50-ft.-radius spread centered on you",
"Duration": "1 minute/level",
"Saving": "Will negates (harmless)",
"Words": "<p><em>With the blessing of your deity, you bolster your allies' aim with an exhortation.</em></p>\n<p>This spell grants your allies within the spread a +2 morale bonus on ranged attack rolls.</p>"
}