{
"Level": "Wizard 5",
"Title": "Prismatic Ray",
"Casting": "1 Standard Action",
"Range": "Medium (100 ft. + 10 ft./level)",
"Effect": "Ray",
"Duration": "Instantaneous",
"Saving": "See text",
"Words": "<p><em>You feel within you, as the spell nears completion, various energies locked in a battle within your body. As nausea threatens to overcome you, you croak out the final syllables of arcane power and point your hand. A single beam of brilliantly colored light then shoots from your outstretched hand.</em></p>\n<p>You must succeed on a ranged touch attack with the ray to strike a target. On a successful attack, a creature with 6 Hit Dice or fewer is blinded for 2d4 rounds by the prismatic ray in addition to suffering a randomly determined effect:</p>"
}