{
"Level": "Wizard 4",
"Title": "Blinding Breath",
"Casting": "1 Swift Action",
"Range": "Personal",
"Duration": "1 round",
"Words": "<p><em>You expel your breath weapon, which crackles with eye-splitting intensity.</em></p>\n<p>This spell functions like <a href=\"/spells/spell-compendium--86/breath-flare--3966/\">breath flare</a> (page 38), except that targets that fail their saving throws against your breath weapon are permanently blinded, rather than dazzled.</p>"
}