{
"Level": "",
"Title": "Breath Flare",
"Casting": "1 Swift Action",
"Range": "Personal",
"Duration": "1 round",
"Words": "<p><em>You exhale your breath weapon, and it flashes brilliantly, surprising your foes.</em></p>\n<p>For this spell to function, you must have a breath weapon that uses fire or electricity, either as a supernatural ability or as the result of casting a spell such as <a href=\"/spells/spell-compendium--86/dragon-breath--3967/\">dragon breath</a> (page 73). When you successfully cast this spell, your breath weapon is suffused with bright light. In addition to taking the normal fire or electricity damage, creatures that fail their saving throws against the breath weapon are dazzled for 1 minute per caster level. Sightless creatures are not affected by breath flare.</p>"
}