{
"Level": "Cleric 2",
"Title": "Body Blades",
"Casting": "1 Standard Action",
"Range": "Personal",
"Duration": "1 minute/level",
"Words": "<p><em>You finish the spell's casting and shudder as slender, sharp-tipped spikes erupt from your body, limbs, and clothing.</em></p>\n<p>You sprout daggerlike blades from all the surfaces of your body and clothing. The blades appear metallic but are not actually metal, and never harm you or interfere with your movement or actions. You are proficient with your blades, and they allow you to deal piercing damage equal to 1d6 + your caster level (maximum 1d6+5) with a successful grapple attack. You can also make a regular melee attack (or offhand attack) with the spikes, and they count as a light weapon in this case. If a creature initiates a grapple with you, it takes the same damage, and you gain a bonus on grapple checks to resist the grapple equal to the damage dealt. You get a +4 bonus on Escape Artist checks to escape from a net, rope, grappler, or spell that entangles.</p>"
}