{
"Level": "Cleric 4,Paladin 4",
"Title": "Castigate",
"Casting": "1 standard action",
"Range": "10 ft.",
"Area": "10-ft.-radius burst centered on you",
"Duration": "Instantaneous",
"Saving": "Fortitude half",
"Words": "<p><em>Shouting your deity's teachings, you rebuke your foes with the magic of your sacred words.</em></p>\n<p>This spell has no effect on creatures that cannot hear. All creatures whose alignment differs from yours on both the law\u2014chaos and the good\u2014evil axes take 1d4 points of damage per caster level (maximum 10d4). All creatures whose alignment differs from yours on one component take half damage, and this spell does not deal damage to those who share your alignment. For example, a lawful good cleric who casts this spell deals full damage to any creature that is not lawful and not good, half damage to any creature that is lawful or good (but not both), and no damage to lawful good creatures.</p>\n<p>A Fortitude saving throw reduces damage by half.</p>"
}