{
"Level": "",
"Title": "Cloak of Dark Power",
"Casting": "1 standard action",
"Range": "Touch",
"Duration": "1 minute/level",
"Saving": "Will negates (harmless)",
"Words": "<p><em>A dim gray haze appears around the creature. Light bends around this haze, leaving the creature in a patch of strange and shifting darkness.</em></p>\n<p><em>Cloak of dark power</em> creates a dusky haze around the subject. The haze does not interfere with vision, but the subject and anything it wears or carries is protected from the effects of full sunlight, even under the open, daytime sky of the surface world. A drow subject suffers no blindness or bright illumination combat penalties while under the effect of <em>cloak of dark power</em>.</p>\n<p>The subject also gains a +4 resistance bonus on saves against <a href=\"/spells/descriptors/light/\">light</a> or <a href=\"/spells/descriptors/darkness/\">darkness</a> spells or effects.</p>"
}