{
"Level": "Druid 5,Wizard 6",
"Title": "Cloak of the Sea",
"Casting": "1 standard action",
"Range": "Touch",
"Duration": "1 hour/level (D)",
"Saving": "Will negates (harmless)",
"Words": "<p><em>A blue-green glow surrounds your hand as you complete the spell. With a touch you release it into your intended target, which then turns the same shade of blue-green.</em></p>\n<p>While underwater, the subject functions as if affected by <a href=\"/spells/players-handbook-v35--6/blur--2664/\"><em>blur</em></a> (<em>PH</em> 206), <a href=\"/spells/players-handbook-v35--6/freedom-of-movement--2322/\"><em>freedom of movement</em></a> (<em>PH</em> 233), and <a href=\"/spells/players-handbook-v35--6/water-breathing--2893/\"><em>water breathing</em></a> (<em>PH</em> 300),and doesn't take nonlethal damage for the duration of the spell. When out of the water (or even partially out), the subject gains none of these advantages except water breathing. The subject can leave and reenter water without ending the spell.</p>"
}