{
"Level": "Bard 2,Wizard 2",
"Title": "Cloud of Bewilderment",
"Casting": "1 standard action",
"Range": "Close (25 ft. + 5 ft./2 levels)",
"Area": "10-ft. cube",
"Duration": "1 round/level",
"Saving": "Fortitude negates; see text",
"Words": "<p><em>As you exhale the last syllables of the incantation, your breath forms an invisible spray of noxious air.</em></p>\n<p>This spell creates a small cloud of nauseating vapors. Any living creature in the area becomes nauseated. This condition lasts as long as the creature is in the cloud and for 1d4+1 rounds after it leaves. Any creature that succeeds on its save but remains in the cloud must continue to save each round on your turn.</p>\n<p>The cloud obscures sight, including darkvision, providing concealment to creatures within the area or against attacks made through the cloud.</p>\n<p><em>Material Component:</em> A rotten egg.</p>"
}