{
"Level": "Druid 8",
"Title": "Cocoon",
"Casting": "1 round",
"Range": "Close (25 ft. + 5 ft./2 levels)",
"Duration": "Instantaneous",
"Saving": "Fortitude negates",
"Words": "<p><em>The silkworm cocoon disappears from your palm, and silk threads coalesce from thin air around your target, quickly wrapping about the body until it is fully encased.</em></p>\n<p>When cast upon a deceased creature (whose death can be no less recent than 1 round per caster level), this spell preserves the body and begins a slow process of rebirth. If the corpse is <a href=\"/spells/players-handbook-v35--6/raise-dead--2424/\"><em>raised</em></a>, <br/><a href=\"/spells/players-handbook-v35--6/resurrection--2433/\"><em>resurrected</em></a>, or <a href=\"/spells/players-handbook-v35--6/reincarnate--2862/\"><em>reincarnated</em></a> at any point during the next week, the creature takes no level loss or Constitution loss normally associated with such spells.</p>\n<p>At the conclusion of the week, if the subject has not been returned to life, the creature is automatically <a href=\"/spells/players-handbook-v35--6/reincarnate--2862/\"><em>reincarnated</em></a>, as the spell, with no loss of level or Constitution.</p>\n<p><em>Material Component:</em> A silkworm cocoon.</p>\n<p><em>XP Cost:</em> 250 XP</p>"
}