{
"Level": "Cleric 4",
"Title": "Consumptive Field",
"Casting": "1 standard action",
"Range": "30 ft.",
"Area": "30-ft.-radius emanation centered on you",
"Duration": "1 round/level",
"Saving": "Will negates",
"Words": "<p><em>Sweeping your arm about and clutching it to your chest, you draw the last breaths of fallen foes from their choking mouths and inhale them to fuel your own power.</em></p>\n<p>All creatures in the area with fewer than 0 hit points that fail their saving throws die, and you gain 1d8 temporary hit points and a +2 bonus to Strength for each death caused by this spell and until the spell's duration expires.</p>\n<p>Additionally, your effective caster level increases by one per death caused by this spell, to a maximum increase of half your original caster level, improving spell effects that are dependent on caster level. (This increase in effective caster level does not grant you access to more spells, and it does not increase the duration of this spell.)</p>\n<p>Creatures that fall to \u20141 hit points or lower in the area after the spell is cast are likewise subject to its effect.</p>\n<p>No creature can be affected by this spell more than once per casting, regardless of the number of times that the area of the spell passes over them.</p>"
}