{
"Level": "Druid 4",
"Title": "Contagious Touch",
"Casting": "1 standard action",
"Range": "Touch",
"Duration": "1 round/level",
"Saving": "Fortitude negates",
"Words": "<p><em>Holding out your hand like it's dead, you croak out magic words and imbue your limb with a terrible disease.</em></p>\n<p>Upon casting this spell, you choose one disease from this list: blinding sickness, cackle fever, filth fever, mindfire, red ache, the shakes, or slimy doom (<em>DMG</em> 292). Any living creature you hit with a melee touch attack during the spell's duration is affected as though by the <a href=\"/spells/players-handbook-v35--6/contagion--2721/\"><em>contagion</em></a> spell, immediately contracting the disease you have selected unless it makes a successful Fortitude save. You cannot infect more than one creature per round.</p>"
}