{
"Level": "Cleric 1",
"Title": "Conviction",
"Casting": "1 standard action",
"Range": "Touch",
"Duration": "10 minutes/level",
"Saving": "Will negates (harmless)",
"Words": "<p><em>You hold the holy passage in your hand and touch your ally, intoning the spell. A sea-blue nimbus of light blossoms about his head and shoulders, strengthening his resolve.</em></p>\n<p>This spell bolsters the mental, physical, and spiritual strength of the creature touched. The spell grants the subject a +2 morale bonus on saving throws, with an additional +1 to the bonus for every six caster levels you have (maximum +5 morale bonus at 18th level).</p>\n<p><em>Material Component:</em> A small parchment with a bit of holy text written upon it.</p>"
}