{
"Level": "Cleric 3",
"Title": "Conviction, Mass",
"Casting": "1 standard action",
"Range": "Medium (100 ft. + 10 ft./level)",
"Duration": "10 minutes/level",
"Saving": "Will negates (harmless)",
"Words": "<p><em>You hold the holy passage aloft and invoke the power of its words. Around you, your friends are bathed in a sea-blue nimbus of light.</em></p>\n<p>This spell functions like <a href=\"/spells/spell-compendium--86/conviction--4048/\"><em>conviction</em></a>, except that it affects multiple allies at a distance.</p>"
}