{
"Level": "Cleric 3,Druid 3",
"Title": "Corona of Cold",
"Casting": "1 standard action",
"Range": "10 ft.",
"Area": "10-ft.-radius emanation centered on you",
"Duration": "1 round/level (D)",
"Saving": "Fortitude negates",
"Words": "<p><em>As you complete the spell you feel your extremities turn ice cold, numb, and sluggish. The feeling subsides as the cold drains away from your body into the air around you, causing your breath to emerge as white puffs in the now-chill air.</em></p>\n<p>You are surrounded by a protective aura of cold that also causes damage to others within its radius. You gain resistance to fire 10.</p>\n<p>Starting in the round you cast the spell, <em>corona of cold</em> also deals 1d12 points of cold damage each round at the beginning of your turn to all other creatures within the area. A successful save prevents the damage caused by the spell in that round, but does not prevent damage in future rounds. Creatures damaged by the spell shiver uncontrollably, taking a \u20142 penalty to their Strength and Dexterity and moving at half speed for as long as they remain within the area; these penalties do not stack with consecutive rounds of damage or additional <em>corona of cold</em> spells.</p>"
}