{
"Level": "Wizard 7,Cleric 7",
"Title": "Radiant Assault",
"Casting": "1 standard action",
"Range": "Long (400 ft. + 40 ft./level)",
"Area": "20-ft.- radius burst",
"Duration": "Instantaneous",
"Saving": "Will partial",
"Words": "<p><em>With outstretched hand, you gesture toward the area where the spell will come into effect. An instant later a blast of multicolored light fills that area.</em></p>\n<p>This spell releases energy in the form of a multitude of rainbow-colored beams that erupt in every direction within the area designated by you. This kaleidoscopic burst of energy deals 1d6 points of damage per caster level (maximum 15d6), and all creatures within the burst are dazed for 1d6 rounds. Those that succeed on a Will save take only half normal damage and are dazzled for 1d6 rounds instead.</p>\n<p>Sightless creatures are unaffected by this spell.</p>\n<p>Focus: An eye from any outsider that has 4 or more Hit Dice.</p>"
}