{
"Level": "Wizard 4",
"Title": "Ray of Deanimation",
"Casting": "1 standard action",
"Range": "Close (25 ft. + 5 ft./2 levels)",
"Effect": "Ray",
"Duration": "Instantaneous",
"Saving": "None",
"Words": "<p><em>A copper-red ray bursts from your outstretched hand. The sound of grinding gears and breaking metal accompanies the ray's flight.</em></p>\n<p>This ray interferes with magical animation, degenerating the magic bound within constructs and  effectively causing damage. You must succeed on a ranged touch attack with the ray to strike a target.  The ray deals 1d6 points of damage per caster level to the subject (maximum 15d6).</p>"
}