{
"Level": "Wizard 5",
"Title": "Reduce Person, Greater",
"Casting": "1 round",
"Range": "Close (25 ft. + 5 ft./2 levels)",
"Duration": "10 minutes/level",
"Saving": "Fortitude negates",
"Words": "<p><em>The creature shrinks rapidly before your eyes.</em></p>\n<p>This spell functions like <a href=\"/spells/players-handbook-v35--6/reduce-person--2860/\"><em>reduce person</em></a> (PH 269), except as noted above.</p>"
}