{
"Level": "Bard 1,Druid 1,Ranger 1,Wizard 1",
"Title": "Remove Scent",
"Casting": "1 standard action",
"Range": "Touch",
"Duration": "10 minutes/level",
"Saving": "Will negates",
"Words": "<p><em>With a touch of a wax-covered finger to the subject, you inhale deeply and smell nothing.</em></p>\n<p>This spells hides the scent of the creature or object touched for the duration of the spell. The scent ability (MM 314) cannot detect a creature under the effect of a remove scent spell. It also negates the harmful effects of the noxious stench exuded by certain creatures, such as ghasts, for the duration of the spell.</p>\n<p>Material Component: A pinch of unscented candle wax.</p>"
}