{
"Level": "Bard 6,Cleric 6,Druid 6,Wizard 6",
"Title": "Resistance, Superior",
"Casting": "1 standard action",
"Range": "Touch",
"Duration": "24 hours",
"Saving": "Will negates (harmless)",
"Words": "<p><em>As you finish casting the spell, you feel imbued with the feeling that something greater than yourself is protecting you. When you touch your intended subject and release the spell, the feeling disappears.</em></p>\n<p>This spell functions like <a href=\"/spells/players-handbook-v35--6/resistance--2358/\"><em>resistance</em></a> (PH 272), except as noted here. You grant the subject a +6 resistance bonus on saves.</p>"
}