{
"Level": "Cleric 3,Paladin 3",
"Title": "Resurgence, Mass",
"Casting": "1 standard action",
"Range": "Close (25 ft. + 5 ft./2 levels)",
"Duration": "Instantaneous",
"Saving": "Will negates (harmless)",
"Words": "<p><em>Throwing out your hand and calling upon your deity for favor, you give your allies a chance to free themselves of the baleful magic.</em></p>\n<p>This spell functions like <a href=\"/spells/spell-compendium--86/resurgence--4102/\"><em>resurgence</em></a>, except as noted here. The spell grants a second save attempt against a single spell or ability chosen by you. For instance, if three of your allies have been mind blasted by mind flayers and two others have been turned into toads by baleful polymorph spells, you must choose to affect  either the mind blast (granting three new save attempts) or the baleful polymorphs (granting two new save attempts).</p>"
}