{
"Level": "Wizard 6",
"Title": "Ruby Ray of Reversal",
"Casting": "1 standard action",
"Range": "Medium (100 ft. + 10 ft./level)",
"Duration": "Instantaneous",
"Saving": "None",
"Words": "<p><em>From your fingertips springs a thin line of bright red light to negate the hazard before you.</em></p>\n<p>Each version of this spell can target one of the hazards described below and \"correct\" it in the manner described. Unless specifically stated otherwise, this spell affects magical and mundane hazards of the indicated type equally. For example, a ruby ray of reversal can eliminate the webs of a monstrous spider or the effect of a web spell.</p>\n<p>Focus: A ruby worth at least 500 gp.</p>"
}