{
"Level": "Paladin 4",
"Title": "Sacred Haven",
"Casting": "1 standard action",
"Range": "30 ft.",
"Duration": "1 minute/level",
"Saving": "Will negates (harmless)",
"Words": "<p><em>A rosy glow passes from your hand and briefly spreads around you.</em></p>\n<p>You and affected allies gain a +2 sacred bonus to Armor Class. In addition, while protected by this spell, an affected creature retains its Dexterity bonus to Armor Class when flat-footed or when struck by an invisible attacker.</p>\n<p>For the duration of the spell, you gain awareness of the health of all affected creatures, as with the <a href=\"/spells/players-handbook-v35--6/status--2517/\"><em>status</em></a> spell (PH 284), and you need not be able to touch the affected creatures to heal them with your lay on hands ability. Use of the lay on hands ability still requires a standard action, but it can be done at any range, as long as you and your target are on the same plane.</p>"
}