{
"Level": "Cleric 6",
"Title": "Sarcophagus of Stone",
"Casting": "1 standard action",
"Range": "Close (25 ft. + 5 ft./2 levels)",
"Duration": "Instantaneous",
"Saving": "Reflex negates",
"Words": "<p><em>The ground quakes as native stone erupts from the ground. This sharply rising stone takes the form of a sarcophagus.</em></p>\n<p>This spell creates an airtight stone coffin that forms around the target. The stone is 1 inch thick, has hardness 8, and requires 15 points of damage to break through. Decreasing its size does not change the thickness of the walls; the coffin is always just large enough to hold the subject. This coffin is sealed upon formation and completely impervious to air and gas. A creature trapped within a  sarcophagus of stone has 1 hour worth of air, and after that time must hold its breath or begin to suffocate (<span class=\"caps\">DMG</span> 304). A creature that has no need to breathe (such as a construct, elemental, or undead) needs not fear suffocation, but it remains trapped within the sarcophagus until it breaks free or is freed.</p>\n<p>A creature within the coffin can attack the stone with a natural weapon or light melee weapon. A creature can attempt a DC 26 Strength check to break free of the stone, and allies can also help to break the trapped creature free.</p>\n<p>Material Component: A fragment of a sarcophagus.</p>"
}