{
"Level": "Ranger 1,Druid 2",
"Title": "Scent",
"Casting": "1 standard action",
"Range": "Touch",
"Duration": "10 minutes/level",
"Saving": "None",
"Words": "<p><em>At your touch, the creature inhales deeply, experiencing a new world of sensory input.</em></p>\n<p>You give the creature touched the scent ability (MM 314).</p>\n<p>Material Component: A sprinkle of mustard and pepper.</p>"
}