{
"Level": "Druid 2",
"Title": "Share Husk",
"Casting": "1 standard action",
"Range": "Touch",
"Duration": "1 minute/level",
"Saving": "Will negates (harmless)",
"Words": "<p><em>As the bit of dried food vanishes from your hand, you gain a wolf's-eye view of the world\u2014and a wolf's-nose view as well.</em></p>\n<p>You sense through an animal's senses, seeing through its eyes and hearing through its ears. While doing so, you use either your Listen or Spot modifiers or the animal's, whichever is better. This spell gives you no special ability to understand what you sense.</p>\n<p>You can switch your perceptions between the animal's and your own on your turn as a free action. You and the animal must be on the same plane for the spell to function.</p>\n<p>Material Component: An edible treat that would appeal to the animal (vegetable or meat).</p>"
}