{
"Level": "Wizard 3",
"Title": "Shatterfloor",
"Casting": "1 standard action",
"Range": "Medium (100 ft. + 10 ft./level)",
"Area": "15-ft.-radius spread",
"Duration": "Instantaneous",
"Saving": "Reflex half",
"Words": "<p><em>You strike the bell with the hammer and evoke a loud thrumming vibration. It quickly builds to a painful crescendo, then fades. In its wake it leaves a circle of crushed stone and rubble.</em></p>\n<p>Creatures and objects in the area take 1d4 points of sonic damage per caster level (maximum 10d4), and can make a saving throw to take half damage. If the floor of the area is made of stone, wood, ice, or material with hardness less than those, the floor is pulverized, resulting in an area of difficult terrain composed of soft dust, wood fragments, or loose crushed ice, as appropriate.</p>\n<p>Focus: A miniature hammer and bell worth at least 10 gp.</p>"
}