{
"Level": "Wizard 5",
"Title": "Shroud of Flame",
"Casting": "1 standard action",
"Range": "Medium (100 ft. + 10 ft./level)",
"Duration": "1 round/level",
"Saving": "None",
"Words": "<p><em>You snap your fingers, and a small explosion of black smoke results. Nearby, one of your foes bursts into flames.</em></p>\n<p>This spell causes a creature to take 2d6 points of fire damage in each round of the spell's duration. The shroud of flame around the creature sheds bright illumination out to 40 feet and negates any concealment the creature might have.</p>\n<p>Immersing the subject creature in a nonflammable liquid ends the spell.</p>\n<p>Material Component: A pinch of saltpeter, a small piece of phosphorus, and a scrap of lace cloth or a spiderweb.</p>"
}