{
"Level": "Cleric 1",
"Title": "Sign",
"Casting": "1 standard action",
"Range": "Personal",
"Duration": "10 minutes/level or until discharged",
"Words": "<p><em>The tea leaves burst into flames between your fingers, and for a brief moment you see the future in the billowing smoke.</em></p>\n<p>You get a +4 bonus on your next initiative check.</p>\n<p>Material Component: A small piece of dried goat intestine or some tea leaves.</p>"
}