{
"Level": "Wizard 2",
"Title": "Slapping Hand",
"Casting": "1 standard action",
"Range": "Medium (100 ft. + 10 ft./level)",
"Effect": "One Tiny hand",
"Duration": "Instantaneous",
"Saving": "None; see text",
"Words": "<p><em>You complete the spell and blow into the leather glove. Immediately a blue-white, translucent hand appears next to the enemy and smacks it across the side of the head\u2014not enough to hurt it, but hard enough to give others nearby a chance to attack.</em></p>\n<p>This spell distracts the subject, causing it to immediately provoke attacks of opportunity from creatures threatening its space. The spell allows no saving throw, but a slapped creature can negate the effect with a DC 20 Concentration check.</p>\n<p>Focus: A leather glove.</p>"
}