{
"Level": "Druid 2,Wizard 3",
"Title": "Snake's Swiftness, Mass",
"Casting": "1 standard action",
"Range": "Medium (100 ft. + 10 ft./level)",
"Duration": "Instantaneous",
"Saving": "Will negates (harmless)",
"Words": "<p><em>You hold the snake scales high overhead, and they evaporate in a flash of light. That radiance carries to every ally in your command\u2014and as one, they unleash a volley of attacks.</em></p>\n<p>This spell functions like <a href=\"/spells/spell-compendium--86/snakes-swiftness--4182/\"><em>snake's swiftness</em></a>, except that it affects multiple allies out to medium range.</p>"
}