{
"Level": "",
"Title": "Sniper's Eye",
"Casting": "1 standard action",
"Range": "Personal",
"Duration": "1 round/level (D)",
"Words": "<p><em>Holding the glass lens before you, you take a series of slow, deep breaths. Whispered words of arcane power seep past your lips with each exhalation. As you complete the spell you feel infused with deadly ability.</em></p>\n<p>When you cast sniper's eye, you gain the following benefits:</p>\n<p>This spell doesn't grant you the ability to make a sneak attack or death attack if you don't already have that ability.</p>\n<p>Sniper's eye attunes you completely to the vantage point you had when you cast the spell. You understand the nuances of the breeze and every angle and shadow\u2014from that spot. If you move even 5 feet from the place where you cast the spell, you lose the benefits of sniper's eye until you return to that spot.</p>\n<p>Focus: A magnifying glass lens.</p>"
}