{
"Level": "Wizard 9",
"Title": "Spell Matrix, Greater",
"Casting": "1 standard action",
"Range": "Personal",
"Effect": "Matrix that holds three of your spells",
"Duration": "10 minutes/level (D)",
"Words": "<p>This spell functions like <a href=\"/spells/spell-compendium--86/spell-matrix-lesser--4207/\"><em>lesser spell matrix</em></a>, except that you can store up to three spells of up to 3rd level, and you take 3d6 points of damage instead of 1d6 upon casting. The matrix closes after 3 rounds and no more spells can be added, even if it is not full.</p>\n<p>In addition, you can designate one spell or one spell sequence held in the matrix to come into effect under a condition you dictate when casting greater spell matrix. The spell (or sequence of spells) to be activated by the triggering condition must be of a type that affects your own person, such as levitate or feather fall. The conditions required to bring the desired spell or spells into effect must be clear, although they can be general. In all cases, greater spell matrix immediately brings into effect the designated spell or sequence of spells, which is cast instantaneously when the designated circumstances occur. You cannot choose to have the spell or spells not activate when the triggering event occurs.</p>\n<p>Focus: A diamond with a minimum value of 1,500 gp.</p>"
}