{
"Level": "Cleric 6",
"Title": "Spider Plague",
"Casting": "1 round",
"Range": "Close (25 ft. + 5 ft./2 levels)",
"Effect": "Five summoned spiders",
"Duration": "1 round/level",
"Saving": "None",
"Words": "<p><em>Your eyes rolling wildly in their sockets, you cackle the last few words to call upon your deity's power. A number of massive spiders spring up from the earth in the location you indicate.</em></p>\n<p>This spell summons five celestial or fiendish Large monstrous spiders (MM 289). They appear where you designate and act immediately, on your turn. They attack your opponents to the best of their ability. If you can communicate with the spiders, you can direct them not to attack, to attack particular enemies, or to perform other actions.</p>\n<p>A celestial spider summoned by this spell has damage reduction 5/magic; resistance to acid 5, cold 5, and electricity 5; spell resistance 9; and a smite evil attack that provides a +4 bonus on one damage roll.</p>\n<p>A fiendish creature (MM 107) summoned by this spell has damage reduction 5/magic; resistance to acid 5 and fire 5; spell resistance 9; and a smite good attack that provides a +4 bonus on one damage roll.</p>\n<p>When you use a summoning spell to summon an evil or good creature, it is a spell of that type.</p>"
}