{
"Level": "Paladin 2",
"Title": "Spiritual Chariot",
"Casting": "1 standard action",
"Range": "Close (25 ft. + 5 ft./2 levels)",
"Duration": "1 hour/level",
"Saving": "None",
"Words": "<p><em>You cast this spell, and a large and ornate chariot made of transparent, faintly glowing azure energy forms behind your special mount.</em></p>\n<p>You conjure a chariot of force. When the chariot appears, your special mount is correctly harnessed to it. The chariot can hold one Medium creature or two small creatures plus the driver (usually the paladin).</p>\n<p>Although the chariot seems large and sturdy, it and its occupants have no weight for the purpose of the mount's load, so the mount can travel at full speed. If the chariot is ever unhitched from the special mount, it disappears. The driver of the spiritual chariot gains a +4 sacred bonus on Handle Animal checks. The chariot is made of magical force and has immunity to most types of damage. It interacts with other spells just as a <a href=\"/spells/players-handbook-v35--6/wall-of-force--2659/\"><em>wall of force</em></a> (PH 298) does. Those in the chariot have cover based on their size and the position of their attackers. In most situations, Medium creatures inside the chariot gain cover.</p>"
}