{
"Level": "Bard 4",
"Title": "Stone Shatter",
"Casting": "1 standard action",
"Range": "Close (25 ft. + 5 ft./2 levels)",
"Duration": "Instantaneous",
"Saving": "None or Fortitude half; see text",
"Words": "<p><em>You call up energies from deep within you and utter a perfect note. The stone rocks as it is struck, and cracks appear in its form.</em></p>\n<p>You aim a single note of perfect pitch toward an unattended stone object weighing no more than 2 pounds per caster level, or toward a stone creature, causing it to shatter. A stone object is destroyed, whereas a stone creature (of any weight) takes 1d6 points of damage per caster level (maximum 15d6), with a Fortitude save for half damage.</p>"
}