{
"Level": "",
"Title": "Stone Spiders",
"Casting": "1 round",
"Range": "Close (25 ft. + 5 ft./2 levels)",
"Duration": "1 round/level (D)",
"Saving": "None",
"Words": "<p><em>You imbue three small stones with magical power, causing them to twist and grow into large stone spiders.</em></p>\n<p>This spell transforms three pebbles into stone constructs that resemble monstrous spiders. The constructs can be any size from Tiny to Huge as you decide, but all the constructs you create must be the same size. The constructs have the same statistics as monstrous spiders (MM 288) of the appropriate size, except as noted here.</p>\n<p>If the constructs can hear your commands, you can direct them not to attack, to attack particular enemies, or to perform other actions. Otherwise, they simply attack your enemies to the best of their ability.</p>"
}