{
"Level": "",
"Title": "Crown of Glory",
"Casting": "1 round",
"Range": "20 ft.",
"Duration": "1 minute/level",
"Saving": "Will negates (harmless)",
"Words": "<p><em>When you cast this spell, you crown yourself with your deity's favor and draw all eyes towards you.</em></p>\n<p>You are imbued with an aura of celestial authority, inspiring awe in all lesser creatures that behold your terrible perfection and righteousness. You gain +4 enhancement bonus to Charisma for the duration of the spell.</p>\n<p>In addition, the subject creatures gain a +4 morale bonus on attack rolls, saves, and skill checks, immunity to fear effects, and temporary hit points equal to your caster level (maximum 20).</p>"
}