{
"Level": "Ranger 1",
"Title": "Surefoot",
"Casting": "1 standard action",
"Range": "Personal",
"Duration": "10 minutes/level",
"Words": "<p><em>You speak a few words and motion toward your feet, which begin to glow with a green hue.</em></p>\n<p>Your steps are sure and true, even on the narrowest ledges. You gain a +10 competence bonus on Balance, Climb, Jump, and Tumble checks. In addition, you do not lose your Dexterity bonus to AC when balancing or climbing.</p>"
}