{
"Level": "Bard 1,Wizard 1",
"Title": "Targeting Ray",
"Casting": "1 standard action",
"Range": "Medium (100 ft. + 10 ft./level)",
"Effect": "Ray",
"Duration": "1 round/level",
"Saving": "None",
"Words": "<p><em>From your clenched fist you produce a luminous ray. The ray pulsates between the target creature and you.</em></p>\n<p>The ray acts as a rangefinder for you and any allies. You must succeed on a ranged touch attack with the ray to strike a target. It provides a +1 insight bonus per three caster levels on ranged attacks directed at the subject for the duration of the spell. Your allies need not see you, but they must be able to see the ray. You can otherwise act normally for the duration of the spell. Allies who can see the target of the ray receive the bonus even if you lose line of sight to the target.</p>\n<p>Focus: A small metal or stone tube.</p>"
}