{
"Level": "Paladin 4",
"Title": "Telepathic Aura",
"Casting": "1 standard action",
"Range": "100 ft.",
"Area": "100-ft.-radius emanation centered on you",
"Duration": "10 minutes/level (D)",
"Saving": "None",
"Words": "<p><em>You make a silent gesture with your holy symbol and think about your fellowship with your companions. In a moment, they all look up as if someone called their names.</em></p>\n<p>You can mentally communicate with all allies within range, though this is one-way communication. (You can send thoughts, but you cannot receive thoughts in response.) Anything you choose to send is received by all creatures you perceive as allies within the emanation (you cannot send thoughts only to certain allies), and they all understand you regardless of language. Allies with Intelligence scores lower than 3 understand basic commands but not complex information (\"Attack\" is understood, but \"Ignore the foot soldiers and attack the spellcasters\" gets the same reaction as \"Attack\").</p>"
}