{
"Level": "",
"Title": "Touch of Madness",
"Casting": "1 standard action",
"Range": "Touch",
"Duration": "1 round/level",
"Saving": "Will negates",
"Words": "<p><em>Your hand glows with roiling purple light as you reach out to deliver lunacy with your touch.</em></p>\n<p>You can cause one living creature to become dazed by making a successful touch attack. If the target creature does not make a successful Will save, its mind is clouded and it takes no actions for 1 round per caster level.</p>"
}