{
"Level": "Druid 8",
"Title": "Deadfall",
"Casting": "1 standard action",
"Range": "Long (400 ft. + 40 ft./level)",
"Effect": "Mass of dead wood forming in a cylinder (20-ft. radius, 40 ft. high); see text",
"Duration": "Instantaneous; see text",
"Saving": "Reflex partial; see text",
"Words": "<p><em>With the final word of the spell you call into being a huge tower of logs and branches. It collapses to the ground with a roar, crushing creatures beneath its weight.</em></p>\n<p>Pick a point on the ground as the center of the radius and bottom of the cylinder. <em>Deadfall</em> creates a tangled mass of huge branches, logs, and fallen trees on the ground. The deadfall immediately collapses in on itself with terrific force and noise. Creatures and objects in the area take 1d6 points of damage per caster level (maximum 20d6). In addition, creatures in the area must succed on a Reflex save or be knocked prone.</p>\n<p>Once you cast the spell, a considerable volume of dead wood remains behind. This pile of brush is 5 feet high, with a 20 foot radius, and it counts as dense rubble (<em>DMG</em> 90).</p>"
}