{
"Level": "Cleric 7",
"Title": "Death Dragon",
"Casting": "1 round",
"Range": "Personal",
"Effect": "Dragon-shaped armor of energy and bones",
"Duration": "1 round/level (D)",
"Words": "<p><em>You summon unholy power to gird yourself in a dragon-shaped cocoon of bones and negative energy.</em></p>\n<p>The cocoon created by this spell gives you a +4 deflection bonus to Armor Class. You are treated as armed when you make unarmed attacks, and you deal damage as if your limbs were short swords of an appropriate size. You can use your off hand to attack, incurring the standard two-weapon fighting penalties (<em>PH</em> 160). The cocoon prevents you from casting spells with somatic, material or focus, (but not divine focus) components, but does not otherwise hinder your actions or movement.</p>\n<p>As a standard action, you can project a cone of fear or make a melee touch attack to use inflict critical wounds on the creature touched (the caster level of these effects equals your own). These effects are otherwise identical to the spells of the same names, but have saving throw DC equal to what this spell's save DC would be if the spell allowed a save.</p>"
}