{
"Level": "Cleric 3,Wizard 3",
"Title": "Devil Blight",
"Casting": "1 standard action",
"Range": "Close (25 ft. + 5 ft./2 levels)",
"Duration": "1d6 rounds",
"Saving": "None or Fortitude partial; see text",
"Words": "<p><em>You cry out the ancient words and make the prescribed motions, and your foe lets out a shriek of agony as it stumbles under the force of the spell.</em></p>\n<p>This spell deals 2d6 points of damage per round for the duration of the spell to creatures that have both the lawful and evil subtypes (such as a barghest or a devil). No saving throw is allowed against this damage.</p>\n<p>If the target creature also possesses the baatezu subtype (<em>MM</em> 306), it must succeed on a Fortitude save or be stunned for the duration of the spell.</p>"
}