{
"Level": "Paladin 3,Wizard 3",
"Title": "Diamondsteel",
"Casting": "1 standard action",
"Range": "Touch",
"Duration": "1 round/level",
"Saving": "Will negates (object)",
"Words": "<p>_You pass your hand over the suit of armor several times before finally touching it. As you do so, you feel a warmth grow in the palm of your hand. The warmth passes into the armor and manifests as a <br/>sparkling shine._</p>\n<p><em>Diamondsteel</em> enhances the strength of one suit of metal armor. The armor provides damage reduction equal to half the AC bonus of the armor. This damage reduction can be overcome only by adamantine weapons. For example, a suit of full plate would provide damage reduction 4/adamantine, and a <em>+1 breastplate</em> (+6 AC) would provide damage reduction 3/adamantine.</p>\n<p><em>Material Component:</em> Diamond dust worth at least 50 gp.</p>"
}