{
"Level": "Bard 2,Wizard 2",
"Title": "Lively Step",
"Casting": "1 standard action",
"Range": "30 ft.",
"Area": "30-ft.-radius emanation centered on you",
"Duration": "Up to 12 hours",
"Saving": "Will negates (harmless)",
"Words": "<p><em>Beating a small drum and singing a marching tune, you exhort your allies to struggle on.</em></p>\n<p>Once you cast this spell, the speed of you and all allies within 30 feet of you increases by 10 feet.</p>\n<p>You and other affected creatures can only benefit from this spell by refraining from taking any actions other than move actions. When one of the affected creatures takes any other kind of action, this spell ends.</p>\n<p>Focus: A small drum.</p>"
}