{
"Level": "Druid 5",
"Title": "Dire Hunger",
"Casting": "1 standard action",
"Range": "Close (25 ft. + 5 ft./2 levels)",
"Duration": "1 round/level",
"Saving": "Fortitude negates",
"Words": "<p><em>You feel pangs of hunger well up within your abdomen as you complete the spell. A blood-red glow of energy radiates from your intended target and the hunger you felt subsides. The target creature's face elongates into a toothy, dinosaurlike snout filled with serrated teeth, and its belly distends as if the creature were undernourished.</em></p>\n<p>The spell's subject becomes maddened by terrible pangs of hunger, viewing all creatures as food sources.</p>\n<p>The subject creature gains a new bite attack that does damage according to the creature's size:</p>\n<p>The subject creature adds 1-1/2 times its Strength bonus to this damage. If the creature already has a bite attack that deals more damage, use that damage value instead.</p>\n<p>The subject creature eschews all other attacks or actions except for its new bite attack, but it defends itself normally. It moves to attack the nearest living creature it can get to and attacks this creature until it is dead or until another living creature is closer. The subject creature attacks whatever living creature is nearest, regardless of former allegiance or personal connection. If moving toward the nearest living creature would move the creature into a dangerous area (precarious footing, a huge fire, or a deadly trap is in the way) the subject creature moves around the hazard if it can or moves to attack another creature if moving around the hazard isn't possible. If such movement brings the subject creature closer to another living creature, it attacks that creature instead. If the subject of the spell cannot detect or get to a living creature nearby, it goes looking for one to attack.</p>"
}