{
"Level": "Druid 6",
"Title": "Drown",
"Casting": "1 standard action",
"Range": "Close (25 ft. + 5 ft./2 levels)",
"Duration": "Instantaneous",
"Saving": "Fortitude negates",
"Words": "<p><em>You speak the words and make the sign of the wave. Your foe sputters, water gushing from his mouth, them collapses.</em></p>\n<p>You create water in the lungs of the subject, causing it to begin drowning (<em>DMG</em> 304) as if it had failed to continue holding its breath. The subject's hit points immediately drop to 0, and it falls unconscious. In the next round, it loses another hitpoint (bringing its hit points to -1) and is dying. In the following round, it dies.</p>\n<p>Coughing and other attempts by the subject to physically expel the water from its lungs are useless. However, another creature can stabilize the subject by making a DC 15 Heal check on the creature before it dies.</p>\n<p>Undead, constructs, creatures that do not need to breathe, and creatures that can breathe water are unaffected by this spell.</p>"
}