{
"Level": "Wizard 5",
"Title": "Enlarge Person, Greater",
"Casting": "1 round",
"Range": "Touch",
"Duration": "1 hour/level (D)",
"Saving": "Fortitude negates",
"Words": "<p><em>Your intended subject begins to grow rapidly as you complete the spell.</em></p>\n<p>This spell functions like <a href=\"/spells/players-handbook-v35--6/enlarge-person--2805/\"><em>enlarge person</em></a> (<em>PH</em> 226), except as noted above.</p>"
}