{
"Level": "Bard 1,Wizard 1",
"Title": "Expeditious Retreat, Swift",
"Casting": "1 swift action",
"Duration": "1 round",
"Words": "<p>_This spell functions like <em>expeditious retreat</em> (<em>PH</em> 228), except as noted above.</p>"
}