{
"Level": "Wizard 9",
"Title": "Eye of Power",
"Casting": "10 minutes",
"Range": "Unlimited",
"Effect": "Magical sensor",
"Duration": "1 minute/level",
"Saving": "None",
"Words": "<p><em>Your invocation creates a miniature floating eye of faintly glowing blue energy. Spying your enemy from the safety of your magical sensor, you unleash your spell.</em></p>\n<p>This spell functions like <em>arcane eye</em> (PH 200), except as noted here. You can cast any spell of 3rd level or lower that has a range other tan personal through the eye. Any spell so cast functions as though it had been cast from the eye's location rather than yours. Casting any spell of higher than 3rd level through the eye not only produces no effect (though the spell is still expended), but it destroys the <em>eye of power</em> and ends the spell.</p>\n<p>Unlike an <em>arcane eye</em>, an <em>eye of power</em> is visible and corporeal, so it can be destroyed. The eye is a Fine object with AC 18 and 77 hit points. It usues your save bonuses for saving throws.</p>\n<p><em>Material Component:</em> A bit of bat fur.</p>"
}