{
"Level": "Ranger 2",
"Title": "Easy Climb",
"Casting": "1 Standard Action",
"Range": "Medium (100 ft. + 10 ft./level)",
"Area": "Vertical path 10 ft. wide and 20 ft. tall/level",
"Duration": "10 minutes/level (D)",
"Saving": "None (object)",
"Words": "<p><em>By pushing upward with your hand and speaking in a commanding voice, you cause indentations to form in the surface you designate.</em></p>\n<p>You create a path of handholds and footholds up the surface of a cliff face, tree trunk, wall, or other vertical obstacle. This effect changes the surface to the equivalent of a very rough wall (Climb DC 10).</p>"
}