{
"Level": "Wizard 5",
"Title": "Fire Shield, Mass",
"Casting": "1 round",
"Range": "Close (25 ft. + 5 ft./2 levels)",
"Duration": "1 round/level (D)",
"Saving": "Will negates (harmless)",
"Words": "<p><em>With a few frenzied motions you complete the spell, bathing your allies in halos of magical flame.</em></p>\n<p>This spell functions like <em>fire shield</em> (PH 230), except as noted above.</p>"
}