{
"Level": "Paladin 2,Cleric 3",
"Title": "Flame of Faith",
"Casting": "1 standard action",
"Range": "Touch",
"Duration": "1 round/level",
"Saving": "None",
"Words": "<p><em>Using your faith as a guide for your magic, you touch the weapon and it bursts into flame.</em></p>\n<p>You can temporarily turn any single normal or masterwork melee weapon into a magic, flaming one. For the duration of the spell, the weapon acts as a +1 <em>flaming burst weapon</em>.</p>\n<p><em>Material Component:</em> A lump of phosphorus, touched to the target weapon.</p>"
}