{
"Level": "Wizard 9",
"Title": "Magic Miasma",
"Casting": "1 standard action",
"Range": "Medium (100 ft. + 10 ft./level)",
"Area": "30-ft.-radius emanation centered on a point in space",
"Duration": "1 round/level",
"Saving": "None; see text",
"Words": "<p><em>A thick, sparkling cloud of billowing mist rolls into being from the point you indicate.</em></p>\n<p>This potent spell conjures a cloud of mist that functions as a <a href=\"/spells/players-handbook-v35--6/solid-fog--2437/\"><em>solid fog</em></a> spell (PH 281). In addition, any spells cast within the fog have a -4 penalty to the spellcaster's caster level, and the save DC of any such spell is reduced by 2. Creatures within the fog, or that enter the fog, must succeed on a Will save or suffer the reduction in caster level and DC even after they leave the fog, for the duration of the spell.</p>\n<p>Material Component: A small piece of quilted cloth, which must be soaked in water while the spell is cast.</p>"
}