{
"Level": "Wizard 2",
"Title": "Malevolent Miasma",
"Casting": "1 standard action",
"Range": "Close (25 ft. + 5 ft./2 levels)",
"Area": "15-ft.-radius burst",
"Duration": "Instantaneous",
"Saving": "Fortitude negates",
"Words": "<p><em>You click the stones together in your hand and a gray fog, tinged with darker, malevolent streaks, springs up in the midst of your enemies.</em></p>\n<p>The spell produces a toxic fog that deals 1d4 points of nonlethal damage per level (maximum 5d4). Creatures in the area that hold their breath are still subject to the effect. Creatures that are immune to poison are not affected by this spell.</p>\n<p>Focus: Three polished gray stones.</p>"
}