{
"Level": "Wizard 8",
"Title": "Flensing",
"Casting": "1 standard action",
"Range": "Close (25 ft. + 5 ft./2 levels)",
"Duration": "4 rounds",
"Saving": "Fortitude partial; see text",
"Words": "<p><em>With a cruel utterance, you complete the spell an unleash its terrible energy. A sickeningly wet ripping sound accompanies the sight of strips of flesh being torn away, as if some invisible hand was attempting to peel your target like an onion.</em></p>\n<p>When you cast this spell, you literally strip the flesh from a corporeal creature's body, inflicting incredible pain and psychological trauma. Each round, the subject takes 2d6 points of damage, and 1d6 points of Charisma. A successful Fortitude save negates the ability damage and reduces the hit point damage by half for that round, but does not end the spell.</p>\n<p><em>Flensing</em> has no effect on creatures in gaseous form.</p>\n<p><em>Material Component:</em> An onion.</p>"
}