{
"Level": "Cleric 6,Wizard 8",
"Title": "Make Manifest, Mass",
"Casting": "1 standard action",
"Range": "Close (25 ft. + 5 ft./2 levels)",
"Area": "25-ft.-radius emanation centered on a point in space",
"Duration": "1 round/level",
"Saving": "None",
"Words": "<p><em>You toss a handful of copper dust into the air, and it clings to creatures invisible to you. Suddenly they're visible and in your presence.</em></p>\n<p>This spell functions like <a href=\"/spells/spell-compendium--86/make-manifest--4516/\"><em>make manifest</em></a>, except that all creatures and unattended objects on coterminous and coexistent planes within the area of this spell are instantly brought onto your plane.</p>\n<p>For the duration of the spell, the target creatures retain all their abilities except for those that allow them to enter other planes. At the end of mass make manifest's duration, objects and creatures return to their plane of origin, even if they have left the spell's area.</p>\n<p>Material Component: A handful of copper dust.</p>"
}