{
"Level": "Wizard 4",
"Title": "Forcewave",
"Casting": "1 swift action",
"Range": "10 ft.",
"Effect": "10-ft. burst of force centered on you",
"Duration": "Instantaneous",
"Saving": "None",
"Words": "<p><em>You catch the drop of water on the string and snap it at your target. The waterdrop swells and becomes a blue-green wave of magical force, tumbling toward your opponents.</em></p>\n<p>This spell initiates a bull rush against all creatures within 10 feet. The <em>forcewave</em> has a +10 bonus on the bull rush attempt. All creatures are pushed to the extend of the bull rush result, and the result of the bull rush can push creatures beyond the spell's normal range.</p>\n<p><em>Focus:</em> A small piece of string and a drop of water.</p>"
}