{
"Level": "Bard 4",
"Title": "Fugue",
"Casting": "1 standard action",
"Range": "Medium (100 ft. + 10 ft./level)",
"Area": "30-ft.-radius spread",
"Duration": "Concentration, up to 1 round/level",
"Saving": "Will negates",
"Words": "<p><em>Upon completing the spell, a discordant cacophony of haunting and alien music rises up in the area you designate. Although the strange music reaches your ears, you feel no effect from it.</em></p>\n<p>Creatures that fail their save become affected by the haunting fugue in semirandom ways. On each affected creature's turn (as long as it remains in the affected area), you make a Perform check. The check result determines how the victim's mind and body are affected by the spell. You can select any of the effects for Which your Perform check equals or exceeds the required DC.</p>\n<p>All creatures that succeed on their saves against the spell are disoriented and take a -2 penalty on attack rolls and skill checks as long as they remain in te affected area.</p>\n<p><em>Focus:</em> A miniature violin bow made of platinum worth 250 gp.</p>"
}