{
"Level": "Bard 1,Wizard 1",
"Title": "Master's Touch",
"Casting": "1 swift action",
"Range": "Personal",
"Duration": "1 minute/level (D)",
"Words": "<p><em>Holding aloft an item you wish to use effectively, you address it directly with a command to obey your desire to wield it.</em></p>\n<p>You gain proficiency with a single weapon or shield you hold in your hands when the spell is cast. The lack of a somatic component means the spell can be cast in the middle of a fight while you keep ready whatever items stand between you and danger.</p>\n<p>Proficiency is granted for only a single, specific item, although multiple castings allow for multiple proficiencies. For example, if you hold a short sword and a rapier, with a buckler strapped to your off hand, you could cast the spell three times, once for each weapon and once for the shield.</p>\n<p>This spell does not grant proficiency for a kind or category of item (such as short swords) but only for the one specific item held in your hand at the time the spell is cast (this short sword). Should you set that item down or otherwise lose your grip on it, the proficiency does not transfer to a different item of the same kind you might pick up. However, if you recover the original item before the spell's effect runs out, you are still proficient with that specific weapon or shield for the duration.</p>\n<p>Focus: The item in whose use you wish to be proficient.</p>"
}