{
"Level": "Wizard 9",
"Title": "Maw of Chaos",
"Casting": "1 standard action",
"Range": "Medium (100 ft. + 10 ft./level)",
"Area": "15-ft.-radius emanation centered on a point in space",
"Duration": "1 round/level",
"Saving": "Will partial",
"Words": "<p><em>At the culmination of casting the spell you open your mouth wide as if to yawn. In imitation, the air cracks and splits, opening into a yawning area of roiling blue-green energy resembling a great mouth.</em></p>\n<p>All creatures in the area take 1d6 points of damage per caster level in the round when you cast the spell and each round thereafter at the start of your turn. Those damaged must also make a Will saving throw or be dazed for 1 round.<br/>Second, the chaotic energy makes it difficult to concentrate. Any activity that involves concentration (such as casting a spell or using a spell-like ability) requires a Concentration check (DC 25 + spell level) to succeed.</p>\n<p>Creatures with the chaotic subtype are unaffected by this spell.</p>\n<p>Material Component: A jawbone with teeth.</p>"
}