{
"Level": "Ranger 1,Wizard 1",
"Title": "Guided Shot",
"Casting": "1 swift action",
"Range": "Personal",
"Duration": "1 round",
"Words": "<p><em>With a guttural utterance made with unmoving lips, you magically focus your attention on a distant foe. Upon aiming your weapon, you note how clearly defined your intended target is.</em></p>\n<p>While this spell is in effect, your ranged attacks do not take a penalty due to distance. In addition, your ranged attacks ignore the AC bonus granted to targets by anything less than total cover, and also ignore the miss chance granted to targets by anything less than total concealment.</p>\n<p>This spell does not provide any ability to exceed the maximum range of the weapon with which you are attacking, nor does it confer any ability to attack targets protected by total cover.</p>"
}