{
"Level": "Bard 1,Cleric 1,Wizard 1",
"Title": "Guiding Light",
"Casting": "1 standard action",
"Range": "Long (400 ft. + 40 ft./level)",
"Duration": "1 minute/level (D)",
"Saving": "None",
"Words": "<p><em>Across the murky plain, a beam of radiance shoots down, highlighting your foes.</em></p>\n<p>Bright lights shine at the targets. The lights grant a +2 circumstance bonus on ranged attack rolls against any highlighted target. If a creature gains total cover or total concealment relative to you, or if it leaves the area, the spell ends for that target.</p>"
}