{
"Level": "Cleric 4,Druid 4",
"Title": "Moon Bolt",
"Casting": "1 standard action",
"Range": "Long (400 ft. + 40 ft./level)",
"Duration": "Instantaneous",
"Saving": "Fortitude half (living target) or Will negates (undead target)",
"Words": "<p><em>Picturing a full moon in your mind you call upon the cyclical energies of the celestial body. You create a bolt of shimmering moonlight that streaks from your outstretched hand.</em></p>\n<p>A moon bolt strikes unerringly against any living or undead creature in range.</p>\n<p>A living creature struck by a moon bolt takes 1d4 points of Strength damage per three caster levels (maximum 5d4). If the subject makes a successful Fortitude saving throw, the Strength damage is halved.</p>\n<p>An undead creature struck by a moon bolt must make a Will save or fall helpless for 1d4 rounds, after which time it is no longer helpless and can stand upright, but it takes a -2 penalty on attack rolls and Will saving throws for the next minute.</p>"
}