{
"Level": "Druid 2,Ranger 2",
"Title": "Nature's Favor",
"Casting": "1 swift action",
"Range": "Touch",
"Duration": "1 minute",
"Saving": "Will negates (harmless)",
"Words": "<p><em>Rubbing the animal's side, you whisper the final bit of the spell's ritual. The animal glances at you before turning its attention to your foes, bristling as it does so.</em></p>\n<p>You grant the subject animal a +1 luck bonus on attack rolls and damage rolls for every three caster levels you possess (maximum +5).</p>"
}