{
"Level": "Wizard 1",
"Title": "Nerveskitter",
"Casting": "1 immediate action",
"Range": "Close (25 ft. + 5 ft./2 levels)",
"Duration": "1 round",
"Saving": "None (harmless)",
"Words": "<p><em>You suffuse your ally with a brief, blue glow. He jerks away from you, as if he can anticipate your next action.</em></p>\n<p>You cast this spell when you and your party roll for initiative. Unlike other immediate actions, you can cast this spell while flat-footed. You enhance the subject's reactions in combat, granting it a +5 bonus on its initiative check for the current encounter. If the subject does not make an initiative check within 1 round, this spell has no effect.</p>"
}