{
"Level": "Wizard 1",
"Title": "Net of Shadows",
"Casting": "1 standard action",
"Range": "Close (25 ft. + 5 ft./2 levels)",
"Duration": "1d6 rounds",
"Saving": "Will negates",
"Words": "<p><em>You cast the spell, and the surrounding shadows shift at your command, flying toward your targets and wrapping themselves around them.</em></p>\n<p>This spell gives the subjects concealment, but the shifting magic shadows also inhibit the subjects' ability to ascertain their surroundings. The subjects can see only 5 feet through the shadows that coat them, and foes within that range have concealment from the subjects. Darkvision does not penetrate a net of shadows.</p>"
}