{
"Level": "Wizard 4",
"Title": "Orb of Acid",
"Casting": "1 standard action",
"Range": "Close (25 ft. + 5 ft./2 levels)",
"Effect": "One orb of acid",
"Duration": "Instantaneous",
"Saving": "Fortitude partial; see text",
"Words": "<p>An orb of acid about 3 inches across shoots from your palm at its target, dealing 1d6 points of acid damage per caster level (maximum 15d6). You must succeed on a ranged touch attack to hit your target.</p>\n<p>A creature struck by the orb takes damage and becomes sickened by the acid's noxious fumes for 1 round. A successful Fortitude save negates the sickened effect but does not reduce the damage.</p>"
}