{
"Level": "Wizard 1",
"Title": "Orb of Electricity, Lesser",
"Casting": "1 standard action",
"Range": "Close (25 ft. + 5 ft./2 levels)",
"Effect": "One orb of electricity",
"Duration": "Instantaneous",
"Saving": "None",
"Words": "<p><em>The air crackles around your outstretched hand and the smell of ozone assaults your nostrils as a ball of electrical energy, its surface crackling with bolts of lightning, streaks from your open palm.</em></p>\n<p>This spell functions like <a href=\"/spells/spell-compendium--86/orb-of-acid-lesser--4608/\"><em>lesser orb of acid</em></a>, except that it deals electricity damage.</p>"
}