{
"Level": "Druid 5",
"Title": "Owl's Insight",
"Casting": "1 standard action",
"Range": "Touch",
"Duration": "1 hour",
"Saving": "Fortitude negates (harmless)",
"Words": "<p><em>As you cast this spell, your face is overlaid with the image of a snow owl. The image fades as you bestow your ally with comprehension.</em></p>\n<p>The subject gains an insight bonus to Wisdom equal to 1/2 your caster level.</p>"
}