{
"Level": "Cleric 7,Wizard 8",
"Title": "Plane Shift, Greater",
"Casting": "1 standard action",
"Range": "Touch",
"Duration": "Instantaneous",
"Saving": "Will negates",
"Words": "<p><em>You and the others link hands, and you concentrate on the forked copper rod. You rap the fork against your thigh and speak the words of the spell. You know where you're going, and as the landscape around you fades, a new plane takes shape around you.</em></p>\n<p>This spell functions like <a href=\"/spells/players-handbook-v35--6/plane-shift--2423/\"><em>plane shift</em></a> (PH 262), except that if you have visited the desired location, the spell takes you to the precise location (rather than 5 to 500 miles distant).</p>"
}