{
"Level": "Druid 9,Wizard 9",
"Title": "Undermaster",
"Casting": "1 Standard Action",
"Range": "Personal",
"Duration": "5 rounds",
"Words": "<p><em>You invoke the mighty powers of the earth and it rises about you, limning you from below with brilliant green radiance. The power surges within your hands as you are invested with its might, and you bend that might to your own will.</em></p>\n<p>You take up the mantle of the earth, gaining power over it as long as you stand upon or beneath its surface. While energized with the awesome power of this spell, you can choose a spell from those listed below once per round and use it as a spelllike ability. Using a spell in this way requires a standard action, even if the spell would normally have a longer casting time (such as move earth).</p>\n<p>The spells granted by undermaster are earth lock, earthquake, excavate, flesh to stone, meld into stone, move earth, reverse gravity, soften earth and stone, statue, stone shape, stone tell, stone to flesh, transmute mud to rock, transmute rock to mud, tunnel swallow, wall of stone, and xorn movement.</p>\n<p>Material Component: A deep blue spinel worth 500 gp.</p>"
}