{
"Level": "Bard 4,Wizard 4",
"Title": "Portal Alarm, Improved",
"Casting": "1 standard action",
"Range": "Close (25 ft. + 5 ft./2 levels)",
"Duration": "8 hours/level (D)",
"Saving": "None",
"Words": "<p>This spell functions like <a href=\"/spells/spell-compendium--86/portal-alarm--4649/\"><em>portal alarm</em></a>, with the following additions:</p>\n<p>Focus: A small leather pouch containing three brass bells.</p>"
}