{
"Level": "Cleric 2",
"Title": "Protection from Negative Energy",
"Casting": "1 standard action",
"Range": "Touch",
"Duration": "10 minutes/level",
"Saving": "Will negates (harmless)",
"Words": "<p><em>Swaddling your ally in a protective field drawn by your hand like a blanket, you guard him against negative energy attacks.</em></p>\n<p>The warded creature gains partial protection against negative energy effects. For as long as the spell lasts, it subtracts 10 from the hit point damage dealt by any negative energy effect (such as an <em>inflict</em> spell) that adversely affects it.</p>\n<p>Negative energy effects that don't deal hit point damage to the subject, such as an energy drain spell, affect the subject normally.</p>"
}