{
"Level": "Cleric 2",
"Title": "Protection from Positive Energy",
"Casting": "1 standard action",
"Range": "Touch",
"Duration": "10 minutes/level",
"Saving": "Will negates",
"Words": "<p><em>A black seed of magic floats above your finger, and you implant it in the creature before you, guarding it against positive energy.</em></p>\n<p>The warded creature gains partial protection against positive energy effects. For as long as the spell lasts, it subtracts 10 from the hit point damage dealt by any positive energy effect (such as a <em>cure</em> spell) that adversely affects it.</p>\n<p>Positive energy effects that don't deal hit point damage to the subject, such as turning attempts, affect the subject normally.</p>"
}