{
"Level": "Bard 3",
"Title": "Puppeteer",
"Casting": "1 standard action",
"Range": "Medium (100 ft. + 10 ft./level)",
"Duration": "1 round/level (D)",
"Saving": "Will negates",
"Words": "<p><em>In casting this spell, you see what others do not\u2014strings of silver energy running from your hands and feet to your target's wrists and ankles. You wave, and she waves back, in an awkward, resisting fashion. You start walking toward the edge of the cliff. . . .</em></p>\n<p>You force the subject to mimic your actions. The subject matches your motions exactly, though it takes a -4 penalty to Dexterity and Strength. Its movements look awkward, and its actions aren't as effective as if it were actually doing them itself. You can try to make the subject commit a suicidal act, but it receives another Will save to break the spell. If that save is successful, the subject collapses, helpless and in a comatose state, for 1d4 rounds.</p>\n<p>Anyone observing the subject of this spell can determine that the subject's actions are being controlled by making a DC 15 Sense Motive check (or DC 10 if the controlling bard is also visible).</p>\n<p>This spell doesn't grant the subject extraordinary, supernatural, spell-like abilities, or spellcasting abilities, even if you have and use such abilities during the spell's duration.</p>"
}