{
"Level": "Druid 3",
"Title": "Quillfire",
"Casting": "1 standard action",
"Range": "Personal",
"Duration": "1 round/level",
"Words": "<p><em>You evoke the power of nature, and the back of your hand bristles with a spikelike growth of quills.</em></p>\n<p>Your hand sprouts poisonous quills that you can use in melee or as a ranged attack.</p>\n<p>The quills deal 1d8 points of damage. They can be thrown (range increment 10 feet). The quills are poisonous (injury DC equal DC of quillfire, 1d6 Str/1d6 Str).</p>"
}