{
"Level": "Ranger 2,Druid 3",
"Title": "Jagged Tooth",
"Casting": "1 standard action",
"Range": "Close (25 ft. + 5 ft./2 levels)",
"Duration": "10 minutes/level",
"Saving": "Will negates (harmless)",
"Words": "<p><em>You feel your own teeth sharpen momentarily as you complete this spell. As the magical energy surrounds your intended target, it flexes its muscles in appreciation of its weapon's deadlier capabilities.</em></p>\n<p>This spell doubles the critical threat range of one natural weapon that deals either slashing or piercing damage. Multiple effects that increase a weapon's threat range don't stack.</p>"
}