{
"Level": "Bard 6,Wizard 9",
"Title": "Hindsight",
"Casting": "1 hour",
"Range": "60 ft.",
"Area": "60-ft.-radius emanation centered on you",
"Duration": "Instantaneous",
"Saving": "None",
"Words": "<p><em>The rigorous ritual of the spell finally draws to a close. You breathe a sigh of relief even as phantom images appear before your eyes, moving in reverse. Suddenly they cease their movements and seem more real. You watch as the phantom images play out their parts in quick succession, showing you the knowledge of the past you seek.</em></p>\n<p>You can see and hear into the past, getting a look at events that happened previously at your current location. The level of detail you see and hear by means of this spell depends on the span of time you wish to observe; concentrating on a span of days renders a more detailed perspective than a span of centuries, for example. You can view only one span of time per casting, chosen from the following options:</p>\n<p><strong>Days:</strong> You sense the events of the past, stretching back one day per caster level. You gain detailed knowledge of the people, conversations, and events that transpired.</p>\n<p><strong>Weeks:</strong> You gain a summary of the events of the past, stretching back one week per caster level. Exact wording and details are lost, but you know all the participants and the highlights of the conversations and events that took place.</p>\n<p><strong>Years:</strong> You gain a general idea of the events of the past, stretching back one year per caster level. You notice only noteworthy events such as deaths, battles, scenes of great emotion, important discoveries, and significant happenings.</p>\n<p><strong>Centuries:</strong> You gain a general idea of the events of the past, stretching back one century plus an additional century for every four caster levels beyond 1st. For instance, a 16th-level caster would gain insight into the events of four centuries in the past, and a 17th-level caster would see back across five centuries. You notice only the most remarkable of events: coronations, deaths of important personages, major battles, and other truly historic happenings.</p>\n<p>Material Component: An hourglass-shaped diamond worth at least 1,000 gp.</p>"
}