{
"Level": "Paladin 1",
"Title": "Holy Spurs",
"Casting": "1 swift action",
"Range": "Close (25 ft. + 5 ft./2 levels)",
"Duration": "1 round",
"Saving": "Will negates (harmless)",
"Words": "<p><em>You invoke the holy powers and your mount's legs glow with a brilliant yellow radiance.</em></p>\n<p>This spell increases your special mount's base land speed by 40 feet. This adjustment is treated as an enhancement bonus.</p>"
}