{
"Level": "Druid 1,Ranger 1,Wizard 1",
"Title": "Horrible Taste",
"Casting": "1 standard action",
"Range": "Touch",
"Duration": "10 minutes/level",
"Saving": "Fortitude negates; see text",
"Words": "<p><em>After a few mystic words, you touch a piece of rotten meat to the subject and it sinks inside the creature's body.</em></p>\n<p>Any creature that bites the spell's subject must succeed on a Fortitude saving throw or be nauseated until the end of its next turn.</p>\n<p>If a creature of animal Intelligence (2 or lower) fails its saving throw, it will not willingly bite the subject a second time; someone trying to direct the creature to bite the subject again must make a Handle Animal check as if he was trying to \"push\" the creature. This check must be made every time he tries to make the creature bite.</p>\n<p>Creatures that are immune to poison or that lack the ability to taste are unaffected by this spell.</p>\n<p>Material Component: A pinch of rotten meat.</p>"
}