{
"Level": "Druid 3,Cleric 4",
"Title": "Hypothermia",
"Casting": "1 standard action",
"Range": "Close (25 ft. + 5 ft./2 levels)",
"Duration": "Instantaneous",
"Saving": "Fortitude partial",
"Words": "<p><em>The fighter drops to her knees, her face pale and a bluish cast to her lips and fingers. A cloud of frosted breath escapes her lips as she whispers, \"So . . . c-c-cold . . .\"</em></p>\n<p>The subject takes 1d6 points of cold damage per caster level (maximum 10d6) and becomes fatigued. A successful Fortitude save halves the damage and negates the fatigue.</p>"
}