{
"Level": "",
"Title": "Valiant Fury",
"Casting": "1 standard action",
"Range": "Close (25 ft. + 5 ft./2 levels)",
"Duration": "1 round/level",
"Saving": "Will negates (harmless)",
"Words": "<p><em>Pointing your holy symbol at your ally as you chant, you imbue him with fighting spirit.</em></p>\n<p>The affected creature gains a +4 morale bonus to Strength and Constitution, and a +2 morale bonus on Will saves.</p>\n<p>In addition, when making a full attack, the affected creature can make one additional attack with any weapon it is holding. The attack is made using the creature's full base attack bonus, plus any modifiers appropriate to the situation. This effect is not cumulative with similar effects, such as that provided by the <a href=\"/spells/players-handbook-v35--6/haste--2823/\"><em>haste</em></a> spell.</p>"
}