{
"Level": "Cleric 2,Wizard 2",
"Title": "Veil of Shadow",
"Casting": "1 standard action",
"Range": "Personal",
"Duration": "1 minute/level",
"Words": "<p><em>You speak the words of this spell, and tendrils of purple darkness rise from the ground, surrounding you and concealing you from your foes.</em></p>\n<p>Swirling wisps of darkness obscure your form, granting you concealment. The 20% miss chance is in effect even if the attacker has darkvision.</p>\n<p>This spell effect is dispelled in daylight or in the area of a <a href=\"/spells/descriptors/light/\">light</a> spell of 3rd level or higher.</p>\n<p><a href=\"/spells/players-handbook-v35--6/see-invisibility--2514/\"><em>See invisibility</em></a> does not counter a <em>veil of shadow</em>'s concealment effect, but a <a href=\"/spells/players-handbook-v35--6/true-seeing--2520/\"><em>true seeing</em></a> spell does.</p>"
}