{
"Level": "Cleric 8,Wizard 8",
"Title": "Veil of Undeath",
"Casting": "1 standard action",
"Range": "Personal",
"Duration": "10 minutes/level",
"Words": "<p><em>Upon completion of the spell, you exhale your last breath and accept a brief embrace from death.</em></p>\n<p>You gain many of the traits common to undead creatures. While the spell lasts, you have immunity to mind-affecting spells and abilities, poison, sleep, paralysis, stunning, disease, death, extra damage from critical hits, non-lethal damage, death from massive damage, ability drain, energy drain, fatigue, exhaustion, damage to physical ability scores, and any effect requiring a Fortitude save unless it is harmless or affects objects. You need not breathe, eat, or sleep.</p>\n<p>Like an undead creature, you are damaged by cure spells and healed by inflict spells.</p>\n<p>You don't actually gain the undead type from casting this spell.</p>\n<p><em>Material Component:</em> A finger from a zombie.</p>"
}