{
"Level": "Druid 1,Ranger 1",
"Title": "Vine Strike",
"Casting": "1 swift action",
"Range": "Personal",
"Duration": "1 round",
"Words": "<p><em>As you intone the sounds of the spell, your sight temporarily dims under a green gloom. An eyeblink later, the dimness disappears, and you feel a new connection with the natural order, as if it were directing where to land your blow.</em></p>\n<p>While this spell is in effect, you have a special connection to the forces of nature that allows you to deliver sneak attacks on plant creatures as if they were not immune to sneak attacks. To attack a plant creature in this manner, you must still meet the other requirements for making a sneak attack.</p>\n<p>This spell applies only to sneak attack damage. It gives you no ability to affect plant creatures with critical hits, nor does it confer any special ability to overcome the damage reduction or other defenses of plant creatures.</p>"
}