{
"Level": "Paladin 1",
"Title": "Warning Shout",
"Casting": "1 immediate action",
"Range": "30 ft.",
"Duration": "Instantaneous",
"Saving": "None",
"Words": "<p><em>You shout a few words imbued with power by your faith, and your next words ring out clear and far despite other noise or intervening barriers.</em></p>\n<p>All allies within range are no longer considered flat-footed, even if they have not yet acted in the current combat.</p>\n<p>Anyone sleeping naturally (as opposed to magically induced sleep, such as from a sleep spell) within the area is woken by a warning shout.</p>"
}