{
"Level": "Druid 4,Wizard 4",
"Title": "Vortex of Teeth",
"Casting": "1 standard action",
"Range": "Medium (100 ft. + 10 ft./level)",
"Area": "Hollow cylinder (40-ft. radius, 20 ft. high, with a 5-ft.-radius safe zone at the center)",
"Duration": "1 round/level (D)",
"Saving": "None",
"Words": "<p><em>A huge school of transparent piranhas swims rapidly through the air in the area you indicate. These magic fish are made of force and tear into the bodies of creatures as though ravenous.</em></p>\n<p>Creatures in the area take 3d8 points of damage per round at the beginning of your turn. Because this spell is a force effect, it harms incorporeal creatures.</p>\n<p><em>Material Component:</em> A fish tooth.</p>"
}