{
"Level": "Cleric 3,Wizard 3",
"Title": "Weapon of Energy",
"Casting": "1 standard action",
"Range": "Touch",
"Duration": "1 round/level",
"Saving": "Fortitude negates (object, harmless)",
"Words": "<p><em>Your hand glows slightly. With a touch, you transfer the glow from your hand onto the intended weapon.</em></p>\n<p>You cause a weapon to gain the ability to deal energy damage in addition to its other abilities, similar to how a flaming burst weapon deals extra fire damage on a hit or a critical hit. The weapon can deal acid, cold, electricity, or fire damage, chosen by you at the time of casting. The weapon deals an extra 1d6 points of damage of that energy type on a successful hit. On a critical hit, the weapon deals an additional 1d10 points of energy damage. If the weapon's critical multiplier is \u00c3\u20143, add 2d10 points of energy damage instead, and if the multiplier is \u00c3\u20144, add 3d10 points of energy damage.</p>\n<p>This spell can be cast on a weapon that already deals energy damage, and if the weapon already creates the same type of damage as the spell, the effects stack. For example, if cast on a +1 flaming longsword to give it additional fire damage, the weapon now deals an extra 2d6 points of fire damage per hit.</p>\n<p>This spell has a descriptor that is the same as the energy created by the target weapon. For example, weapon of energy is a fire spell when used to give a weapon bonus fire damage.</p>"
}