{
"Level": "",
"Title": "Weighed in the Balance",
"Casting": "1 standard action",
"Range": "30 ft.",
"Area": "Creatures in a 30-ft.-radius spread centered on you",
"Duration": "Instantaneous",
"Saving": "Will negates",
"Words": "<p><em>You speak the words of power, and a warm orange fire radiates from you, aiding those that believe in the true balance, and harming all others.</em></p>\n<p>This spell harms or heals creatures within its area based on their alignments and life status. The effect does the most harm to those creatures most extreme in alignment and most out of balance with the natural world.</p>\n<p>For living creatures that have an alignment with no neutral component (LG, CG, LE, or CE), this spell acts as an <a href=\"/spells/players-handbook-v35--6/inflict-critical-wounds--2743/\"><em>inflict critical wounds</em></a> spell (PH 244).</p>\n<p>For living creatures that have an alignment with a neutral component and one other (NG, LN, CN, or NE), this spell acts as an <a href=\"/spells/players-handbook-v35--6/inflict-moderate-wounds--2748/\"><em>inflict moderate wounds</em></a> spell (PH 244).</p>\n<p>For living creatures that have a neutral alignment (N) and all undead creatures, this spell acts as a <a href=\"/spells/players-handbook-v35--6/heal--2398/\"><em>heal</em></a> spell (PH 239), dealing damage to undead but acting as a beneficial spell to neutral creatures.</p>"
}