{
"Level": "Paladin 4",
"Title": "Winged Mount",
"Casting": "1 standard action",
"Range": "Touch",
"Duration": "10 minutes/level",
"Saving": "Fortitude negates (harmless)",
"Words": "<p><em>You touch your special mount and it sprouts giant, feathery white wings.</em></p>\n<p>This spell grants your special mount a fly speed of 60 feet (good). The mount is slowed as normal because of weight carried, barding worn, and environmental factors.</p>"
}