{
"Level": "Cleric 6,Druid 6,Wizard 7",
"Title": "Energy Immunity",
"Casting": "1 standard action",
"Range": "Touch",
"Duration": "24 hours",
"Saving": "None",
"Words": "<p>This abjuration grants a creature and its equipment complete protection against damage from one of the five energy types\u2014acid, cold, electricity, fire, or sonic.<br/>Energy immunity absorbs only damage, so the recipient could still suffer side effects such as drowning in acid, being deafened by a sonic attack, or becoming immobilized in ice.<br/>Note: Energy immunity overlaps protection from energy and resist energy.<br/>So long as energy immunity is in effect, the other spells absorb no damage.</p>"
}