{
"Level": "",
"Title": "Finding the Center",
"Duration": "10 minutes (D)",
"Words": "<p>As aiming at the target (see page 96), except that you no longer need to maintain conscious concentration on the spell you cast before casting this one.<br/>Your unconscious mind maintains the required concentration, allowing you to take other actions (including movement, attacks, and even casting more spells) as normal.<br/>Short of dying, only mind-affecting spells and conditions (such as feeblemind and confusion) can affect your concentration on the other spell, though you might be convinced to willingly dismiss finding the center (and the previous spell with it) under the effect of a charm or suggestion.</p>"
}