{
"Level": "",
"Title": "Body Outside Body",
"Casting": "1 standard action",
"Range": "10 ft.",
"Effect": "One duplicate/5 levels",
"Duration": "1 minute",
"Saving": "None",
"Words": "<p>This spell creates one or more indistinguishable duplicates of you, all of which share your ability scores, personality, class levels, skills, feats, and memories.<br/>They carry the same arms, armor, and equipment as you do (but only have mundane versions of any magic gear), and they cannot cast spells or use any spell completion or spell trigger items.<br/>They are friendly toward each other and your companions and will follow any order you give them (even actions that you wouldn't normally do yourself, such as charging a dragon or jumping off a cliff).<br/>The duplicates you create each have one-quarter of your hit point total at the time of casting and take damage as normal in combat.<br/>If a duplicate is slain, it disappears and you take 10 points of damage.<br/>At the end of the spell's duration, all remaining duplicates (and any equipment created with them) disappear without dealing damage to you.<br/>Material Component: A few of your hairs, fingernail parings, or flakes of skin.</p>"
}