{
"Level": "",
"Title": "Ice Knife",
"Casting": "1 standard action",
"Range": "Long (400 ft. + 40 ft./level)",
"Effect": "One icy missile",
"Duration": "Instantaneous",
"Saving": "See text",
"Words": "<p>A magical shard of ice blasts from your hand and speeds to its target.<br/>You must succeed on a normal ranged attack to hit (with a +2 bonus on the attack roll for every two caster levels).<br/>If it hits, an ice knife deals 2d8 points of cold damage plus 2 points of Dexterity damage (no Dexterity damage on a successful Fortitude save).<br/>Creatures that have immunity to cold damage also take no Dexterity damage automatically.<br/>A knife that misses creates a shower of ice crystals in a 10-foot-radius burst (see Missing with a Thrown Weapon, page 158 of the Player's Handbook, to determine where the shard hits).<br/>The icy burst deals 1d8 points of cold damage to all creatures within the area of the effect (Reflex half).<br/>Material Component: A drop of water or piece of ice.</p>"
}