{
"Level": "Wizard 4",
"Title": "Orb of Cold",
"Casting": "1 standard action",
"Range": "Close (25 ft. + 5 ft./2 levels)",
"Effect": "One orb of cold",
"Duration": "Instantaneous",
"Saving": "Fortitude partial",
"Words": "<p>This spell functions like orb of acid, except that it deals cold damage.<br/>In addition, a creature struck by an orb of cold must make a Fortitude save or be blinded for 1 round instead of being sickened.</p>"
}