{
"Level": "Wizard 1",
"Title": "Orb of Sound, Lesser",
"Effect": "One orb of sonic energy",
"Words": "<p>This spell functions like lesser orb of acid, except it deals 1d6 points of sonic damage, plus an additional 1d6 points of damage per two caster levels beyond 1st: 2d6 at 3rd level, 3d6 at 5th level, 4d6 at 7th level, and the maximum of 5d6 at 9th level or higher.</p>"
}