{
"Level": "Wizard 5",
"Title": "Servant Horde",
"Casting": "1 standard action",
"Range": "Close (25 ft. + 5 ft./2 levels)",
"Effect": "Invisible, mindless, shapeless servants",
"Duration": "1 hour/level",
"Saving": "None",
"Words": "<p>This spell creates a number of unseen servants (see page 297 of the Player's Handbook), up to a maximum of 2d6 +1 servant per level (maximum +15).<br/>Material Component: A small stick crossbar to which many lengths of knotted thread are attached.</p>"
}