{
"Level": "",
"Title": "Spirit Binding, Greater",
"Words": "<p>As lesser spirit binding, except you can attempt to call and trap one or more spirit creatures of the same type whose Hit Dice total no more than 24.<br/>If you call multiple spirits, each gets its own saving throw, makes independent attempts to escape, and must be individually persuaded to aid you.</p>"
}