{
"Level": "",
"Title": "Creeping Darkness",
"Casting": "1 standard action",
"Range": "Medium (100 ft. + 10 ft./level)",
"Effect": "Cloud spreads in a 20-ft.-radius, 20 ft. high (S)",
"Duration": "3 rounds/level",
"Saving": "None",
"Words": "<p>This spell creates an amorphous cloud of inky blackness that you can shape and move as desired.<br/>While you concentrate on it, the darkness can move up to 20 feet per round, either floating through air or seeping through the smallest cracks.<br/>The cloud stops all light and sound, so creatures within it (or creatures whose sensory organs and vocal apparatus are within it) are treated as being deafened and blinded (including creatures with darkvision), in addition to being unable to speak or cast spells with verbal components.<br/>As well, creatures entirely within the cloud have total concealment.<br/>A moderate wind (11+ mph) disperses the cloud in 5 rounds; a strong wind (21+ mph) disperses it in 2 rounds.<br/>Material Component: A whisker from a black cat and a tiny bottle of smoke captured on a moonless night.</p>"
}