{
"Level": "",
"Title": "Fire Shuriken",
"Casting": "1 standard action",
"Range": "0 ft.",
"Effect": "One magical shuriken/3 levels",
"Duration": "Instantaneous",
"Saving": "None",
"Words": "<p>This spell creates shuriken formed of magic fire that you can throw as a normal ranged attack at any target within range.<br/>You are automatically considered proficient with the fire shuriken, which have a range increment of 10 feet, threaten a critical hit on a roll of 19-20, and deal 3d6 points of fire damage each on a successful hit (though you and your possessions take no damage as the shuriken are thrown).<br/>Any additional damage dealt by the fire shuriken (including Strength and sneak attack bonuses) is also fire damage.<br/>The shuriken disappear when they hit, so they cannot set fire to combustibles or damage objects.<br/>You can create one fire shuriken per three caster levels, up to a maximum of six at 18th level.<br/>Material Component: A shuriken coated with pine sap and sulfur.</p>"
}