{
"Level": "Wizard 2",
"Title": "Phantasmal Assailants",
"Casting": "1 standard action",
"Range": "Close (25 ft. + 5 ft./2 levels)",
"Duration": "Instantaneous",
"Saving": "Will disbelief (if interacted with), then Fortitude half; see text",
"Words": "<p>You create phantasmal images of nightmare creatures in the target's mind, visible only as shadowy shapes to you and unseen by all others. If the target succeeds on an initial Will save, it recognizes that  the images are not real, and the spell fails. If not, the phantasms strike the target, dealing 4 points of Wisdom damage and 4 points of Dexterity damage (2 points each on a successful Fortitude save). If the subject of a <em>phantasmal assailant</em> succeeds in disbelieving and is wearing a <em>helm of telepathy</em>, the spell  can be turned back upon you with the same effect.</p>"
}