{
"Level": "Wizard 7",
"Title": "Sword of Darkness",
"Effect": "Black blade of negative energy",
"Words": "<p>This spell functions as sword of deception, except you cause a black blade of pure negative energy to appear and attack opponents at a distance, as directed by you.<br/>A sword of darkness bestows one negative level on each successful hit against a living creature, threatens a critical hit on a roll of 19-20, and bestows an additional negative level on a critical hit.<br/>Negative levels usually have a chance of permanently draining the subject's levels, but the negative levels from sword of darkness don't last long enough to do so.<br/>However, if the subject gains at least as many negative levels as it has Hit Dice, it dies.<br/>If the sword strikes an undead creature, it grants that creature 5 temporary hit points per two caster levels (maximum 25 temporary hit points) that last for up to 1 hour.<br/>Material Component: A katana, bastard sword, or longsword, which is shattered against a stone while casting the spell.</p>"
}