{
"Level": "Wizard 6,Cleric 8",
"Title": "Brilliant Blade",
"Casting": "1 standard action",
"Range": "Close (25 ft. + 5 ft./2 levels)",
"Duration": "1 min./level",
"Saving": "Will negates (harmless, object)",
"Words": "<p>You transform a single melee weapon, thrown weapon, or group of projectiles into a weapon of brilliant energy.<br/>A brilliant energy weapon sheds light as a torch (20-foot radius) and ignore nonliving matter.<br/>Armor bonuses to AC (including any enhancement bonuses to that armor) do not count against it because the weapon passes through armor.<br/>(Dexterity, deflection, dodge, natural armor, and other such bonuses still apply).<br/>A brilliant energy weapon cannot harm undead, constructs, or objects.<br/>If this spell is cast on arrows or crossbow bolts, the effect on a particular projectile ends after one use, whether or not the missile strikes its intended target.<br/>Treat shuriken as arrows, rather than as thrown weapons, for the purpose of this spell.</p>"
}