{
"Level": "",
"Title": "Decapitating Scarf",
"Casting": "1 standard action",
"Range": "Close (25 ft. + 5 ft./2 levels)",
"Duration": "Instantaneous",
"Saving": "Fortitude partial; see text",
"Words": "<p>When you cast this spell, you flick a silk scarf at one creature within range, magically propelling it toward the target.<br/>The scarf assumes an ironlike hardness on the way, and then wraps around the creature's neck.<br/>You must have line of sight to the target and hit with a normal ranged attack.<br/>If you hit, the target must make a Fortitude saving throw; failure indicates that the scarf has decapitated the victim.<br/>A target creature that makes its save takes 1d4 points of damage per caster level (maximum 20d4) before freeing itself from the decapitating scarf.<br/>Constructs and most undead (except vampires) are not immediately killed by decapitation, and take only 6d4 points of damage whether they make their save or not.<br/>Oozes, aberrations, and other creatures without a head are immune to the spell's effects.<br/>Focus: The silk scarf.</p>"
}