{
"Level": "",
"Title": "Entangling Scarf",
"Casting": "1 standard action",
"Range": "Close (25 ft. + 5 ft./2 levels)",
"Duration": "1 round/level",
"Saving": "Reflex negates",
"Words": "<p>When you cast this spell, you flick a silk scarf at one creature within range, magically propelling it toward the target.<br/>The scarf assumes an ironlike hardness on its way and then wraps around the target creature.<br/>You must have line of sight to the target and hit with a ranged touch attack.<br/>If you hit, the target must make a successful Reflex save or become entangled.<br/>Focus: The silk scarf.</p>"
}