{
"Level": "Wizard 3",
"Title": "Stony Grasp",
"Effect": "Animated stone arm",
"Duration": "1 round/level",
"Words": "<p>As earthen grasp (see page 104), except the stony arm can appear from any natural surface, including unworked rock, earth, mud, grass, or sand.<br/>The stone arm has AC 18, hardness 8, and 4 hit points per caster level.<br/>Material Component: A miniature hand sculpted from stone.</p>"
}