{
"Level": "Wizard 2",
"Title": "Familiar Pocket",
"Casting": "1 standard action",
"Range": "Touch",
"Duration": "1 hour/level (D)",
"Saving": "None",
"Words": "<p>When you cast this spell, a garment or container becomes a safe haven for a Tiny or smaller familiar.<br/>The spell turns the target item or pocket into a comfortable extradimensional space (about 1 cubic foot).<br/>The familiar can fit inside the space without creating any noticeable bulge in the item.<br/>Whenever the familiar is touching you, you can whisk it inside the space as a free action by speaking a command word chosen by you when the spell is cast.<br/>If the familiar can speak, it can command itself inside.<br/>As a free action, you can call the familiar forth or it can leave the space on its own.<br/>Once inside, the familiar has total cover (+4 AC) and concealment (20% miss chance), and as a free action, you or the familiar can further seal the space to make it airtight and waterproof.<br/>The air supply inside the sealed space lasts for 1 hour, but with the pocket unsealed, the familiar can remain inside indefinitely.<br/>The familiar cannot attack or cast spells from within the space, but can use supernatural or spell-like abilities as normal (provided they don't require line of sight, which the pocket blocks).<br/>The spell ends if the familiar pocket is placed within or taken into another extradimensional space (such as a portable hole).<br/>If your familiar is within the pocket when the spell duration expires or if the spell ends abnormally (as above), it appears in your space unharmed.<br/>Material Component: A tiny golden needle and a strip of fine cloth given a half twist and fastened at the ends.</p>"
}