{
    "Abilities": {
        "CHA": {
            "base": 8,
            "temp": 0
        },
        "CON": {
            "base": 13,
            "temp": 0
        },
        "DEX": {
            "base": 16,
            "temp": 0
        },
        "INT": {
            "base": 14,
            "temp": 0
        },
        "STR": {
            "base": 17,
            "temp": 0
        },
        "WIS": {
            "base": 15,
            "temp": 0
        }
    },
    "Combat": {
        "all_attacks": [
            7,
            2
        ],
        "base_attack": 7,
        "damage": 2,
        "grapple": 0,
        "init_bonus": 2,
        "max_hp": 53
    },
    "Feats": [
        {
            "name": "Favoured Enemy",
            "notes": "Karai"
        },
        {
            "name": "Track",
            "notes": "Lorum<br>Ipsum"
        },
        {
            "name": "Combat Style",
            "notes": "(Ranged)"
        },
        {
            "name": "Endurance",
            "notes": "Lorum Ipsum"
        },
        {
            "name": "Animal Companion",
            "notes": "Lorum Ipsum"
        },
        {
            "name": "Improved Combat Style",
            "notes": "Lorum Ipsum"
        },
        {
            "name": "Weapon Focus",
            "notes": "Blade"
        },
        {
            "name": "Two-Weapon Fighting",
            "notes": "-4/-4"
        },
        {
            "name": "Rapid Shot",
            "notes": ""
        },
        {
            "name": "Many Shot",
            "notes": ""
        },
        {
            "name": "Precise Shot",
            "notes": ""
        },
        {
            "name": "Point Blank Shot",
            "notes": ""
        }
    ],
    "Inventory": [
        {
            "bonus": 0,
            "in_use": false,
            "magical": false,
            "name": "Dagger",
            "notes": "Well, lar-dee dah",
            "prefix": "",
            "qty": 1,
            "suffix": "",
            "type": "Weapon"
        },
        {
            "bonus": 0,
            "in_use": true,
            "magical": false,
            "name": "Crossbow, Heavy",
            "notes": "Rapid shot = -2, Many shot = -4",
            "prefix": "",
            "qty": 1,
            "suffix": "(Repeating)",
            "type": "Weapon"
        },
        {
            "bonus": 0,
            "in_use": true,
            "magical": false,
            "name": "Longbow",
            "notes": "Rapid shot = -2, Many shot = -4",
            "prefix": "",
            "qty": 1,
            "suffix": ", Composite",
            "type": "Weapon"
        },
        {
            "bonus": 3,
            "in_use": true,
            "magical": true,
            "name": "Great Sword",
            "notes": "",
            "prefix": "",
            "qty": 1,
            "suffix": "",
            "type": "Weapon"
        },
        {
            "bonus": 0,
            "in_use": true,
            "magical": false,
            "name": "Dwarven Axe",
            "notes": "Well, lar-dee dah",
            "prefix": "",
            "qty": 1,
            "suffix": "",
            "type": "Weapon"
        },
        {
            "bonus": 0,
            "in_use": true,
            "magical": false,
            "name": "Short Sword",
            "notes": "",
            "prefix": "",
            "qty": 1,
            "suffix": "(Karai)",
            "type": "Weapon"
        },
        {
            "bonus": 2,
            "in_use": true,
            "magical": true,
            "name": "Dagger",
            "notes": "Doses = 6+6+1, Can throw",
            "prefix": "Poison",
            "qty": 2,
            "suffix": "",
            "type": "Weapon"
        },
        {
            "bonus": 0,
            "in_use": true,
            "magical": true,
            "name": "Chain Shirt",
            "notes": "Ho Hum",
            "prefix": "",
            "qty": 1,
            "suffix": "",
            "type": "Armour"
        },
        {
            "bonus": 0,
            "in_use": true,
            "magical": false,
            "name": "Heavy Wooden Shield",
            "notes": "Well, lar-dee dah",
            "qty": 1,
            "type": "Armour"
        },
        {
            "bonus": 2,
            "in_use": true,
            "magical": true,
            "name": "Bracers of Protection",
            "notes": "Well, lar-dee dah",
            "qty": 1,
            "type": "Armour"
        },
        {
            "bonus": 1,
            "in_use": true,
            "magical": true,
            "name": "Ring of Protection",
            "notes": "Well, lar-dee dah",
            "qty": 1,
            "type": "Armour"
        },
        {
            "bonus": 0,
            "in_use": false,
            "magical": true,
            "name": "Crown of Aquatic Animals",
            "notes": "Well, lar-dee dah",
            "prefix": "",
            "qty": 1,
            "suffix": "",
            "type": "General"
        },
        {
            "bonus": 0,
            "in_use": true,
            "magical": false,
            "name": "Quill Crab Poison",
            "notes": "Save versus ??",
            "prefix": "",
            "qty": 10,
            "suffix": "",
            "type": "Consumable"
        },
        {
            "bonus": 0,
            "in_use": false,
            "magical": false,
            "name": "New Item 3",
            "notes": "",
            "prefix": "",
            "qty": 1,
            "suffix": "",
            "type": "Scroll"
        }
    ],
    "Money": {
        "currency": [
            {
                "factor": 100,
                "name": "Gems",
                "qty": 50
            },
            {
                "factor": 10,
                "name": "Platinum",
                "qty": 250
            },
            {
                "factor": 1,
                "name": "Gold",
                "qty": 2300
            },
            {
                "factor": 0.1,
                "name": "Silver",
                "qty": 0
            },
            {
                "factor": 0.01,
                "name": "Copper",
                "qty": 1
            }
        ],
        "notes": "Was 7500 in the Bank of Lorvett"
    },
    "Physical": {
        "alignment": "NG",
        "class": "Ranger",
        "gender": "Male",
        "height": "5' 10\"",
        "race": "Human / Dwarf"
    },
    "Saving": [
        {
            "ability": "CON",
            "base": 5,
            "name": "Fortitude"
        },
        {
            "ability": "DEX",
            "base": 5,
            "name": "Reflex"
        },
        {
            "ability": "WIS",
            "base": 2,
            "name": "Will"
        },
        {
            "base": 2,
            "name": "Poison"
        },
        {
            "base": 2,
            "name": "Spells"
        }
    ],
    "Skills": [
        {
            "misc": 0,
            "name": "Appraise",
            "score": 0
        },
        {
            "misc": 0,
            "name": "Balance",
            "score": 0
        },
        {
            "misc": 0,
            "name": "Bluff",
            "score": 0
        },
        {
            "misc": 0,
            "name": "Climb",
            "score": 2
        },
        {
            "misc": 0,
            "name": "Concentration",
            "score": 0
        },
        {
            "misc": 0,
            "name": "Craft",
            "score": 0
        },
        {
            "misc": 0,
            "name": "Craft",
            "score": 0
        },
        {
            "misc": 0,
            "name": "Craft",
            "score": 0
        },
        {
            "misc": 0,
            "name": "Decipher Script",
            "score": 0
        },
        {
            "misc": 0,
            "name": "Diplomacy",
            "score": 0
        },
        {
            "misc": 0,
            "name": "Disable Device",
            "score": 0
        },
        {
            "misc": 0,
            "name": "Disguise",
            "score": 0
        },
        {
            "misc": 0,
            "name": "Escape Artist",
            "score": 0
        },
        {
            "misc": 0,
            "name": "Forgery",
            "score": 0
        },
        {
            "misc": 0,
            "name": "Gather Information",
            "score": 0
        },
        {
            "misc": 0,
            "name": "Handle Animal",
            "score": 7
        },
        {
            "misc": 0,
            "name": "Heal",
            "score": 7
        },
        {
            "misc": 0,
            "name": "Hide",
            "score": 3
        },
        {
            "misc": 0,
            "name": "Intimidate",
            "score": 0
        },
        {
            "misc": 0,
            "name": "Jump",
            "score": 2
        },
        {
            "misc": 0,
            "name": "Knowledge",
            "score": 2,
            "suffix": "Geography"
        },
        {
            "misc": 0,
            "name": "Knowledge",
            "score": 0,
            "suffix": "Nature"
        },
        {
            "misc": 0,
            "name": "Knowledge",
            "score": 4
        },
        {
            "misc": 0,
            "name": "Knowledge",
            "score": 0
        },
        {
            "misc": 0,
            "name": "Listen",
            "score": 4
        },
        {
            "misc": 0,
            "name": "Move Silently",
            "score": 3
        },
        {
            "misc": 0,
            "name": "Open Lock",
            "score": 0
        },
        {
            "misc": 0,
            "name": "Perform",
            "score": 0
        },
        {
            "misc": 0,
            "name": "Perform",
            "score": 0
        },
        {
            "misc": 0,
            "name": "Perform",
            "score": 0
        },
        {
            "misc": 0,
            "name": "Profession",
            "score": 2,
            "suffix": "Herbalist"
        },
        {
            "misc": 0,
            "name": "Profession",
            "score": 0
        },
        {
            "misc": 0,
            "name": "Ride",
            "score": 4
        },
        {
            "misc": 0,
            "name": "Search",
            "score": 3
        },
        {
            "misc": 0,
            "name": "Sense Motive",
            "score": 0
        },
        {
            "misc": 0,
            "name": "Sleight of Hand",
            "score": 0
        },
        {
            "misc": 0,
            "name": "SpellCraft",
            "score": 0
        },
        {
            "misc": 0,
            "name": "Spot",
            "score": 2
        },
        {
            "misc": 0,
            "name": "Survival",
            "score": 4
        },
        {
            "misc": 0,
            "name": "Swim",
            "score": 0
        },
        {
            "misc": 0,
            "name": "Tumble",
            "score": 3
        },
        {
            "misc": 0,
            "name": "Use Magic Device",
            "score": 0
        },
        {
            "misc": 0,
            "name": "Use Rope",
            "score": 0
        },
        {
            "misc": 0,
            "name": "",
            "score": 5,
            "suffix": "Sailing"
        },
        {
            "misc": 0,
            "name": "",
            "score": 0
        },
        {
            "misc": 0,
            "name": "",
            "score": 0
        }
    ],
    "avatar": "https://upload.wikimedia.org/wikipedia/en/1/1f/Green_Arrow_%28circa_2021%29.jpg",
    "boot_header": "secondary",
    "bootswatch": "flatly",
    "campaign": "EMON",
    "level": 7,
    "name": "Paolo",
    "notes": [],
    "show_in_use": false,
    "title": "Baron",
    "xp": 41897
}