{
"Level": "Paladin 3,Cleric 4",
"Title": "Resurgence, Mass",
"Range": "Close (25 ft. + 5 ft./2 levels)",
"Words": "<p>This spell functions like resurgence, except that it affects multiple creatures.<br/>The spell grants a second save attempt against a single spell or ability chosen by the caster.<br/>If three of the your allies have been mind blasted by mind flayers and two others have been turned into toads by baleful polymorph spells, you must choose either the mind blast (granting three new save attempts) or the baleful polymorphs (granting two new save attempts).</p>"
}