{
"Level": "Cleric 4",
"Title": "Recitation",
"Casting": "1 standard action",
"Range": "60 ft.",
"Area": "All allies within a 60-ft.-radius burst centered on you",
"Duration": "1 round/level",
"Saving": "None",
"Words": "<p><em>By reciting a sacred passage or declaration, you invoke your deity's blessing upon yourself and your allies while causing confusion and weakness among your enemies.</em></p>\n<p>The spell affects all allies and foes within the spell's area at the moment you cast it. Your allies gain a +2 luck bonus on attack rolls and saving throws, or a +3 luck bonus if they worship the same patron deity as you.</p>\n<p>Divine Focus: In addition to your holy symbol, this spell requires a sacred text as a divine focus.</p>"
}