{
"Level": "Cleric 1,Druid 1",
"Title": "Vigor, Lesser",
"Casting": "1 standard action",
"Range": "Touch",
"Duration": "10 rounds + 1 round/level (max 15 rounds)",
"Saving": "Will negates (harmless)",
"Words": "<p>With a touch of your hand, you boost the subject's life energy, granting him or her the fast healing ability for the duration of the spell.<br/>The subject heals 1 hit point per round of such damage until the spell ends and is automatically stabilized if he or she begins dying from hit point loss during that time.<br/>Lesser vigor does not restore hit points lost fromstarvation, thirst, or suffocation, nor does it allow a creature to regrow or attach lost body parts.<br/>The effects of multiple vigor spells do not stack; only the highest-level effect applies.<br/>Applying a second vigor spell of equal level extends the first spell's duration by the full duration of the second spell.</p>"
}