{
"Level": "Paladin 2,Cleric 3",
"Title": "Blessed Aim",
"Casting": "1 standard action",
"Range": "60 ft.",
"Effect": "60-ft. spread, centered on you",
"Duration": "Concentration",
"Saving": "Will negates (harmless)",
"Words": "<p>This spell grants a +2 morale bonus on all ranged attacks for your allies within the spread.</p>"
}