{
"Level": "Ranger 3",
"Title": "Mark of the Hunter",
"Casting": "1 standard action",
"Range": "Medium (100 ft. + 10 ft./level)",
"Duration": "10 min./level",
"Saving": "Will negates",
"Words": "<p>By pointing your figure at a favored enemy of yours, you mark it with a glowing rune that only you can see.<br/>Your favored enemy bonuses against a foe with a mark of the hunter are +4 higher than they would otherwise be.<br/>Furthermore, the rune limns your enemy, making him easier for you to attack.<br/>The subject of a mark of the hunter gains no bonus to Armor Class against your attacks from any cover less than total cover, nor does it gain a miss chance against your attacks from any concealment less than total concealment.<br/>Other effects that grant a miss chance (such as incorporealness) work normally.<br/>Material Component: A bit of skin or bone from the relevant favored enemy type.</p>"
}