{
"Level": "Druid 1",
"Title": "Sandblast",
"Casting": "1 standard action",
"Range": "10 ft.",
"Area": "Semicircular burst of sand 10 ft. long, centered on your hands",
"Duration": "Instantaneous",
"Saving": "Reflex half",
"Words": "<p>You fire a hail of hot sand from your fingers, dealing 1d6 points of nonlethal damage to creatures in the arc.<br/>Any creature that fails its Reflex save is also stunned for 1 round.</p>"
}