{
"Level": "Druid 6",
"Title": "Tidal Surge",
"Casting": "1 standard action",
"Range": "Medium (100 ft. + 10 ft./level)",
"Duration": "Instantaneous",
"Saving": "Reflex half",
"Words": "<p>When you cast this spell, you create a huge wave of water that slams into one or more targets within range. If there is no large, natural source of water (a river, lake, or ocean) within the spell range, you can affect only one target. If such a source of water exists within the range of the spell, the spell creates a burst centered on a location you designate. In either case, the water deals 1d8 points of damage per two caster levels (maximum 7d8) to the target or to creatures within the area.</p>\n<p>In addition, all affected creatures suffer a bull rush attack, forcing them to make opposed Strength checks against the wave of water. The water has an effective Strength of 16 and is considered Medium size (or Strength 20 and Large if cast near a source of water). You designate the direction the wave pushes when you cast the spell; creatures who lose the opposed Strength check are pushed back 5 feet, plus an additional 5 feet for every 5 points by which the wave beats their Strength checks, in that direction. It is possible for a wave arising from a body of water to push characters into the water.</p>\n<p>The wave puts out torches, campfires, exposed lanterns, and other open flames if they are carried by the target or located within the area and they are Large size or smaller. If the wave hits a magical fire, those flames are targeted by a <a href=\"/spells/players-handbook-v35--6/dispel-magic--2315/\"><em>dispel magic</em></a> effect as if you had cast the spell.</p>"
}