{
"Level": "Cleric 6",
"Title": "Zealot Pact",
"Casting": "10 minutes",
"Range": "Touch",
"Duration": "Permanent until triggered, then 1 round/level",
"Saving": "Will negates (harmless)",
"Words": "<p>This spell creates a binding agreement between a deity and the target that grants the target a measure of divine power to crush the deity's enemies.<br/>Once this spell is cast, the pact remains dormant until the target successfully hits a foe whose alignment is exactly opposite that of the deity.<br/>The target's subsequent melee attacks gain a +4 bonus, deal double damage, and automatically confirm critical hits for the spell's duration.<br/>Furthermore, the target's melee attacks have alignment descriptors that match the deity with whom you've made the pact.<br/>The target is compelled to attack foes of opposite alignment every round if able to do so.<br/>The target knows which creatures within 60 feet are of opposite alignment (as if the relevant detect spells had been cast).<br/>If you create a zealot pact with a completely neutral deity such as Obad-Hai, choose one alignment from the following list that triggers the zealot pact: lawful good, lawful evil, chaotic evil, or chaotic good.<br/>A creature can be subject to only one zealot pact at a time.<br/>Casting zealot pact on a target who already has an untriggered zealot pact voids the earlier pact.<br/>XP Cost: 500 XP.</p>"
}