{
"Level": "Cleric 8",
"Title": "Death Pact",
"Casting": "10 minutes",
"Range": "Touch",
"Duration": "Permanent until triggered",
"Saving": "None",
"Words": "<p>This spell allows the target to enter into a binding agreement with your deity that brings the target back to life if she is slain.<br/>When this spell is cast, the target's Constitution is permanently lowered by 2 points.<br/>In exchange for this, if she ever dies, several spells are brought into effect.<br/>First, she is teleported to a safe location designated by you at the time of casting as if with a word of recall spell.<br/>Second, the target is brought back from the dead with a raise dead spell with the standard loss of a level.<br/>Finally, the target is healed with a heal spell.<br/>She does not regain the 2 Constitution points when returned to life.<br/>If a raise dead spell could not return the target to life (for example, if she was disintegrated or died of old age), the death pact cannot restore her to life.<br/>If the spell is dispelled before the target dies, she does not regain her 2 lost Constitution points.<br/>Material Component: A diamond worth at least 500 gp.<br/>XP cost: 250 XP.</p>"
}