{
"Level": "Druid 8",
"Title": "Awaken, Mass",
"Casting": "24 hours",
"Range": "Medium (100 ft. + 10 ft./level)",
"Duration": "Instantaneous",
"Saving": "See text",
"Words": "<p>You awaken one or more trees or animals to humanlike sentience.<br/>All awakened creatures must be of the same kind.<br/>To succeed, you must make a successful Will save (DC 10 + the HD of the highest-HD target, or the HD the highest target tree has once awakened, whichever is greater).<br/>Failure indicates that the spell fails for all targets.<br/>The awakened animal or tree is friendly toward you.<br/>You have no special empathy or connection with it, but it serves you in specific tasks or endeavors if you communicate your desires to it.<br/>An awakened tree has characteristics as if it were an animated object (see the Monster Manual), except that its Intelligence, Wisdom, and Charisma scores are all 3d6.<br/>Awakened plants gain the ability to move their limbs, roots, vines, creepers, and so forth, and they have senses similar to a human's.<br/>An awakened animal has 3d6 Intelligence, a +1d3 bonus to Charisma, and +2 HD.<br/>An awakened tree or animal can speak one language that you know, plus one additional language that you know per point of Intelligence bonus (if any).<br/>XP Cost: 250 XP per creature awakened.</p>"
}