{
"Level": "Bard 5,Wizard 5",
"Title": "Blink, Improved",
"Casting": "1 standard action",
"Range": "Personal",
"Duration": "1 round/level (D)",
"Words": "<p>Like the 3rd-level arcane spell blink, you flicker back and forth between the Material and Ethereal planes.<br/>However, you are capable of controlling the timing of you blinks and therefore make better use of them.<br/>Blinking by means of this spell has several effects: Physical attacks against you have a 50% miss chance, and the Blind-Fight feat doesn't help the attacker.<br/>If the attack is capable of striking invisible or incorporeal creatures, the miss chance is only 20%.<br/>An attacker who can both see and strike ethereal creatures takes no penalty.<br/>You have no chance of interfering with your own attacks.<br/>Individually targeted spells have a 50% chance to fail against you while blinking, unless your attacker can target invisible, ethereal creatures.<br/>You have no chance of interfering with your own spells.<br/>You take only half damage from area attacks (or full damage from those that extend onto the Ethereal Plane).<br/>While blinking, you strike as an invisible creature (+2 bonus on attack rolls), denying your target any Dexterity bonus to AC.<br/>You take only half damage from falling, since you are subject to gravity only while you are on the Material Plane.<br/>You can ready an action to blink away from a specific enemy attack, physical or magical.<br/>If you do so, the attack misses automatically unless it can also affect ethereal targets.<br/>You move at three-quarters speed, since movement on the Ethereal Plane is at half speed and you spend about half your time there and half your time material.<br/>While blinking, you can step through (but not see through) solid objects.<br/>You do not risk materializing inside a solid object unless you actually end your move inside one, in which case you materialize and are shunted off to the nearest open space.<br/>You take 1d6 points of damage per 5 feet traveled in his manner.<br/>Since you spend about half your time on the Ethereal Plane, you can see and even attack ethereal creatures.<br/>You interact with ethereal creatures in roughly the same way you interact with material ones (their attacks have a 50% miss chance against you, and so on).</p>"
}