{
"Level": "Druid 7",
"Title": "Brilliant Aura",
"Casting": "1 standard action",
"Range": "Close (25 ft. + 5 ft./2 levels)",
"Duration": "1 round/level",
"Saving": "Will negates (harmless)",
"Words": "<p>You limn your allies in a glowing nimbus, transforming their attacks into brilliant energy.<br/>Each person affected by this aura gives off light as a torch (20-foot radius).<br/>Their weapon attacks (melee or ranged) function as if their weapons were brilliant energy weapons: they ignore nonliving matter, and armor and enhancement AC bonuses do not count against them.<br/>The attacks cannot harm undead, constructs, or objects.<br/>In addition, all attacks gain an enhancement bonus on damage equal to one-half the caster's level (maximum +10).</p>"
}