{
"Level": "Cleric 5",
"Title": "Divine Agility",
"Casting": "1 standard action",
"Range": "Touch",
"Duration": "1 round/level",
"Saving": "Will negates (harmless)",
"Words": "<p>Calling on the divine power of your patron, you imbue a living creature with agility and skill in combat.<br/>You confer the base Reflex save bonus of a rogue of your total character level, a +4 enhancement bonus to Dexterity, and the Spring Attack feat on the target for the duration of the spell.</p>"
}