{
"Level": "Druid 4",
"Title": "Antiplant Shell",
"Casting": "1 standard action",
"Range": "10 ft.",
"Area": "10-ft.-radius emanation, centered on you",
"Duration": "10 min./level (D)",
"Saving": "None",
"Words": "<p>The <em>antiplant shell</em> spell creates an invisible, mobile barrier that keeps all creatures within the shell protected from attacks by plant creatures or animated plants.  As with many abjuration spells, forcing the barrier against creatures that the spell keeps at bay strains and collapses the field (see Abjuration, page 172).</p>"
}