{
"Level": "Paladin 4,Cleric 5",
"Title": "Dispel Chaos",
"Words": "<p>This spell functions like dispel evil, except that you are surrounded by constant, blue, lawful energy, and the spell affects chaotic creatures and spells rather than evil ones.</p>"
}