{
"Level": "Cleric 1",
"Title": "Entropic Shield",
"Casting": "1 standard action",
"Range": "Personal",
"Duration": "1 min./level (D)",
"Words": "<p>A magical field appears around you, glowing with a chaotic blast of multicolored hues.<br/>This field deflects incoming arrows, rays, and other ranged attacks.<br/>Each ranged attack directed at you for which the attacker must make an attack roll (including arrows, magic arrows, Melf's acid arrow, ray of enfeeblement, and so forth) has a 20% miss chance (similar to the effects of concealment).<br/>Other attacks that simply work at a distance, such as a dragon's breath weapon, are not affected.</p>"
}