{
"Level": "Druid 2,Wizard 4",
"Title": "Fire Trap",
"Casting": "10 minutes",
"Range": "Touch",
"Duration": "Permanent until discharged (D)",
"Saving": "Reflex half; see text",
"Words": "<p>Fire trap creates a fiery explosion when an intruder opens the item that the trap protects.<br/>A fire trap can ward any object that can be opened and closed (book, box, bottle, chest, coffer, coffin, door, drawer, and so forth).<br/>When casting fire trap, you select a point on the object as the spell's center.<br/>When someone other than you opens the object, a fiery explosion fills the area within a 5-foot radius around the spell's center.<br/>The flames deal 1d4 points of fire damage +1 point per caster level (maximum +20).<br/>The item protected by the trap is not harmed by this explosion.<br/>A fire trapped item cannot have a second closure or warding spell placed on it.<br/>A knock spell does not bypass a fire trap.<br/>An unsuccessful dispel magic spell does not detonate the spell.<br/>Underwater, this ward deals half damage and creates a large cloud of steam.<br/>You can use the fire trapped object without discharging it, as can any individual to whom the object was specifically attuned when cast.<br/>Attuning a fire trapped object to an individual usually involves setting a password that you can share with friends.<br/>Note:Magic traps such as fire trap are hard to detect and disable.<br/>A rogue (only) can use the Search skill to find a fire trap and Disable Device to thwart it.<br/>The DC in each case is 25 + spell level (DC 27 for a druid's fire trap or DC 29 for the arcane version).<br/>Material Component: A half-pound of gold dust (cost 25 gp) sprinkled on the warded object.</p>"
}