{
"Level": "Wizard 6",
"Title": "Globe of Invulnerability",
"Words": "<p>This spell functions like lesser globe of invulnerability, except that it also excludes 4th-level spells and spell-like effects.</p>"
}