{
"Level": "Wizard 8",
"Title": "Protection from Spells",
"Casting": "1 standard action",
"Range": "Touch",
"Duration": "10 min./level",
"Saving": "Will negates (harmless)",
"Words": "<p>The subject gains a +8 resistance bonus on saving throws against spells and spell-like abilities (but not against supernatural and extraordinary abilities).<br/>Material Component: A diamond of at least 500 gp value, which must be crushed and sprinkled over the targets.<br/>Focus:One 1,000 gp diamond per creature to be granted the protection.<br/>Each subject must carry one such gem for the duration of the spell.<br/>If a subject loses the gem, the spell ceases to affect him.</p>"
}