{
"Level": "Bard 3,Paladin 3,Cleric 3,Wizard 4",
"Title": "Remove Curse",
"Casting": "1 standard action",
"Range": "Touch",
"Duration": "Instantaneous",
"Saving": "Will negates (harmless)",
"Words": "<p>Remove curse instantaneously removes all curses on an object or a creature.<br/>Remove curse does not remove the curse from a cursed shield, weapon, or suit of armor, although the spell typically enables the creature afflicted with any such cursed item to remove and get rid of it.<br/>Certain special curses may not be countered by this spell or may be countered only by a caster of a certain level or higher.<br/>Remove curse counters and dispels bestow curse.</p>"
}