{
"Level": "Druid 8",
"Title": "Repel Metal Or Stone",
"Casting": "1 standard action",
"Range": "60 ft.",
"Area": "60-ft. line from you",
"Duration": "1 round/level (D)",
"Saving": "None",
"Words": "<p>Like repel wood, this spell creates waves of invisible and intangible energy that roll forth from you.<br/>All metal or stone objects in the path of the spell are pushed away from you to the limit of the range.<br/>Fixed metal or stone objects larger than 3 inches in diameter and loose objects weighing more than 500 pounds are not affected.<br/>Anything else, including animated objects, small boulders, and creatures in metal armor, moves back.<br/>Fixed objects 3 inches in diameter or smaller bend or break, and the pieces move with the wave of energy.<br/>Objects affected by the spell are repelled at the rate of 40 feet per round.<br/>Objects such as metal armor, swords, and the like are pushed back, dragging their bearers with them.<br/>Even magic items with metal components are repelled, although an antimagic field blocks the effects.<br/>The waves of energy continue to sweep down the set path for the spell's duration.<br/>After you cast the spell, the path is set, and you can then do other things or go elsewhere without affecting the spell's<br/>power.</p>"
}