{
"Level": "Cleric 5",
"Title": "Spell Resistance",
"Casting": "1 standard action",
"Range": "Touch",
"Duration": "1 min./level",
"Saving": "Will negates (harmless)",
"Words": "<p>The creature gains spell resistance equal to 12 + your caster level.</p>"
}