{
"Level": "Wizard 7",
"Title": "Spell Turning",
"Casting": "1 standard action",
"Range": "Personal",
"Duration": "Until expended or 10 min./level",
"Words": "<p>Spells and spell-like effects targeted on you are turned back upon the original caster. The abjuration turns only spells that have you as a target. Effect and area spells are not affected. Spell turning also fails to stop touch range spells. Thus, a <a href=\"/spells/players-handbook-v35--6/charm-person--2535/\"><em>charm person</em></a> spell cast at you could be turned back upon the caster and possibly enable you to use the charm effect on that individual, but a <a href=\"/spells/players-handbook-v35--6/fireball--2612/\"><em>fireball</em></a> could not be turned back, and neither could inflict critical wounds.</p>\n<p>From seven to ten (1d4+6) spell levels are affected by the turning. The DM secretly rolls the exact number. When a spell is turned, the DM subtracts its level from the amount of spell turning left. </p>\n<p>When you are targeted by a spell of higher level than the amount of spell turning you have left, that spell is partially turned. The subtract the amount of spell turning left from the spell level of the incoming spell, then divide the result by the spell level of the incoming spell to see what fraction of the effect gets through. For damaging spells, you and the caster each take a fraction of the damage. For nondamaging spells, each of you has a proportional chance to be affected. </p>\n<p>For example, if you had three levels of spell turning left and were targeted by a <a href=\"/spells/players-handbook-v35--6/magic-missile--2631/\"><em>magic missile</em></a> spell heightened to 4th level, you  would turn three-fourths of the spell back at the caster. You would take one-forth of the damage, while the caster takes three-fourths of the damage. If you were targeted by a wizard's <a href=\"/spells/players-handbook-v35--6/fear--2736/\"><em>fear</em></a> spell (also a 4th-level spell) in the same situation, you would have a one in four (25%) chance to be affected by the spell, while the caster would have a three in four (75%) chance to be affected.</p>\n<p>If you and a spellcasting attacker are both warded by <em>spell turning</em> effects in operation, a resonating field is created.</p>\n<p>Roll randomly to determine the result.</p>\n<p>Arcane Material Component: A small silver mirror.</p>"
}