{
"Level": "Bard 2,Cleric 2,Ranger 3,Paladin 3,Druid 3",
"Title": "Cure Moderate Wounds",
"Words": "<p>This spell functions like <a href=\"/spells/players-handbook-v35--6/cure-light-wounds--2380/\">cure light wounds</a>, except that it cures 2d8 points of damage +1 point per caster level (maximum +10).</p>"
}