{
"Level": "Cleric 7,Druid 8",
"Title": "Cure Serious Wounds, Mass",
"Words": "<p>This spell functions like <a href=\"/spells/players-handbook-v35--6/cure-light-wounds-mass--2381/\"><em>mass cure light wounds</em></a>, except that it cures 3d8 points of damage +1 point per caster level (maximum +35).</p>"
}