{
"Level": "Paladin 3",
"Title": "Heal Mount",
"Casting": "1 standard action",
"Range": "Touch",
"Duration": "Instantaneous",
"Saving": "Will negates (harmless)",
"Words": "<p>This spell functions like <a href=\"/spells/players-handbook-v35--6/heal--2398/\"><em>heal</em></a>, but it affects only the paladin's special mount (typically a warhorse).</p>"
}