{
"Level": "Wizard 8",
"Title": "Incendiary Cloud",
"Casting": "1 standard action",
"Range": "Medium (100 ft. + 10 ft./level)",
"Effect": "Cloud spreads in 20-ft. radius, 20 ft. high",
"Duration": "1 round/level",
"Saving": "Reflex half; see text",
"Words": "<p>An incendiary cloud spell creates a cloud of roiling smoke shot through with white-hot embers.<br/>The smoke obscures all sight as a fog cloud does.<br/>In addition, the white-hot embers within the cloud deal 4d6 points of fire damage to everything within the cloud on your turn each round.<br/>All targets can make Reflex saves each round to take half damage.<br/>As with a cloudkill spell, the smoke moves away from you at 10 feet per round.<br/>Figure out the smoke's new spread each round based on its new point of origin, which is 10 feet farther away from where you were when you cast the spell.<br/>By concentrating, you can make the cloud (actually its point of origin) move as much as 60 feet each round.<br/>Any portion of the cloud that would extend beyond your maximum range dissipates harmlessly, reducing the remainder's spread thereafter.<br/>As with fog cloud, wind disperses the smoke, and the spell can't be cast underwater.</p>"
}