{
"Level": "Wizard 5",
"Title": "Major Creation",
"Casting": "10 minutes",
"Range": "Close (25 ft. + 5 ft./2 levels)",
"Duration": "See text",
"Words": "<p>This spell functions like <a href=\"/spells/players-handbook-v35--6/minor-creation--2409/\"><em>minor creation</em></a>, except that you can also create an object of mineral nature: stone, crystal, metal, or the like.</p>\n<p>The duration of the created item varies with its relative hardness and rarity, as indicated on the following table.</p>"
}