{
"Level": "Wizard 8",
"Title": "Maze",
"Casting": "1 standard action",
"Range": "Close (25 ft. + 5 ft./2 levels)",
"Duration": "See text",
"Saving": "None",
"Words": "<p>You banish the subject into an extradimensional labyrinth of force planes. Each round on its turn, it may attempt a DC 20 Intelligence check to escape the labyrinth as a full-round action. If the subject doesn't escape, the maze disappears after 10 minutes, forcing the subject to leave.</p>\n<p>On escaping or leaving the maze, the subject reappears where it had been when the <em>maze</em> spell was cast. If this location is filled with a solid object, the subject appears in the nearest open space.</p>\n<p>Spells and abilities that move a creature within a plane, such as <a href=\"/spells/players-handbook-v35--6/teleport--2461/\"><em>teleport</em></a> and <a href=\"/spells/players-handbook-v35--6/dimension-door--2388/\"><em>dimension door</em></a>, do not help a creature escape a <em>maze</em> spell, although a <a href=\"/spells/players-handbook-v35--6/plane-shift--2423/\"><em>plane shift</em></a> spell allows it to exit to whatever plane is designated in that spell. <a href=\"/monsters/monster-manual-v35--5/minotaur--1/\">Minotaurs</a> are not affected by this spell.</p>"
}