{
"Level": "Wizard 1",
"Title": "Mount",
"Casting": "1 round",
"Range": "Close (25 ft. + 5 ft./2 levels)",
"Effect": "One mount",
"Duration": "2 hours/level (D)",
"Saving": "None",
"Words": "<p>You summon a light horse or a pony (your choice) to serve you as a mount.<br/>The steed serves willingly and well.<br/>The mount comes with a bit and bridle and a riding saddle.<br/>Material Component: A bit of horse hair.</p>"
}