{
"Level": "Druid 3,Ranger 3,Bard 4,Paladin 4,Cleric 4",
"Title": "Neutralize Poison",
"Casting": "1 standard action",
"Range": "Touch",
"Duration": "10 min./level",
"Saving": "Will negates (harmless, object)",
"Words": "<p>You detoxify any sort of venom in the creature or object touched. A poisoned creature suffers no additional effects from the poison, and any temporary effects are ended, but the spell does not reverse instantaneous effects, such as hit point damage, temporary ability damage, or effects that don't go away on their own. For example, if a poison has dealt 3 points of Constitution damage to a character and threatens to deal more damage later, this spell prevents the future damage but does not repair the damage already done.</p>\n<p>The creature is immune to any poison it is exposed to during the duration of the spell. Unlike with delay poison, such effects aren't postponed until after the duration\u2014the creature need not make any saves against poison effects applied to it during the length of the spell.</p>\n<p>This spell can instead neutralize the poison in a poisonous creature or object for the duration of the spell, at the caster's option.</p>\n<p>Arcane Material Component: A bit of charcoal.</p>"
}