{
"Level": "Wizard 5",
"Title": "Planar Binding, Lesser",
"Casting": "10 minutes",
"Range": "Close (25 ft. + 5 ft./2 levels); see text",
"Duration": "Instantaneous",
"Saving": "Will negates",
"Words": "<p>Casting this spell attempts a dangerous act: to lure a creature from another plane to a specifically prepared trap, which must lie within the spell's range.<br/>The called creature is held in the trap until it agrees to perform one service in return for its freedom.<br/>To create the trap, you must use a magic circle spell, focused inward.<br/>The kind of creature to be bound must be known and stated.<br/>If you wish to call a specific individual, you must use that individual's proper name in casting the spell.<br/>The target creature is allowed a Will saving throw.<br/>If the saving throw succeeds, the creature resists the spell.<br/>If the saving throw fails, the creature is immediately drawn to the trap (spell resistance does not keep it from being called).<br/>The creature can escape from the trap with by successfully pitting its spell resistance against your caster level check, by dimensional travel, or with a successful Charisma check (DC 15 + 1/2 your caster level + your Cha modifier).<br/>It can try each method once per day.<br/>If it breaks loose, it can flee or attack you.<br/>A dimensional anchor cast on the creature prevents its escape via dimensional travel.<br/>You can also employ a calling diagram (see magic circle against evil, page 246) to make the trap more secure.<br/>If the creature does not break free of the trap, you can keep it bound for as long as you dare.<br/>You can attempt to compel the creature to perform a service by describing the service and perhaps offering some sort of reward.<br/>You make a Charisma check opposed by the creature's Charisma check.<br/>The DM assigns your check a bonus of +0 to +6 based on the nature of the service and the reward.<br/>If the creature wins the opposed check, it refuses service.<br/>New offers, bribes, and the like can be made or the old ones reoffered every 24 hours.<br/>This process can be repeated until the creature promises to serve, until it breaks free, or until you decide to get rid of it by means of some other spell.<br/>Impossible demands or unreasonable commands are never agreed to.<br/>If you roll a 1 on the Charisma check, the creature breaks free of the binding and can escape or attack you.<br/>Once the requested service is completed, the creature need only so inform you to be instantly sent back whence it came.<br/>The creature might later seek revenge.<br/>If you assign some open-ended task that the creature cannot complete though its own actions (such as \"Wait here\" or \"Defend this area against attack\"), the spell remains in effect for a maximum of one day per caster level, and the creature gains an immediate chance to break free.<br/>Note that a clever recipient can subvert some instructions.<br/>When you use a calling spell to call an air, chaotic, earth, evil, fire, good, lawful, or water creature, it is a spell of that type.<br/>For example, lesser planar binding is a water spell when you cast it to call a water elemental.</p>"
}