{
"Level": "Cleric 7,Wizard 9",
"Title": "Refuge",
"Casting": "1 standard action",
"Range": "Touch",
"Duration": "Permanent until discharged",
"Saving": "None",
"Words": "<p>You create powerful magic in some specially prepared object\u2014a statuette, a jeweled rod, a gem, or the like.<br/>This object contains the power to instantly transport its possessor across any distance within the same plane to your abode.<br/>Once the item is transmuted, you must give it willingly to a creature and at the same time inform it of a command word to be spoken when the item is used.<br/>To make use of the item, the subject speaks the command word at the same time that it rends or breaks the item (a standard action).<br/>When this is done, the individual and all objects it is wearing and carrying (to a maximum of the character's heavy load) are instantly transported to your abode.<br/>No other creatures are affected (aside from a familiar that is touching the subject).<br/>You can alter the spell when casting it so that it transports you to within 10 feet of the possessor of the item when it is broken and the command word spoken.<br/>You will have a general idea of the location and situation of the item possessor at the time the refuge spell is discharged, but once you decide to alter the spell in this fashion, you have no choice whether or not to be transported.<br/>Material Component: The specially prepared object, whose construction requires gems worth 1,500 gp.</p>"
}