{
"Level": "Cleric 3,Paladin 3",
"Title": "Remove Blindness/deafness",
"Casting": "1 standard action",
"Range": "Touch",
"Duration": "Instantaneous",
"Saving": "Fortitude negates (harmless)",
"Words": "<p>Remove blindness/deafness cures blindness or deafness (your choice), whether the effect is normal or magical in nature.<br/>The spell does not restore ears or eyes that have been lost, but it repairs them if they are damaged.<br/>Remove blindness/deafness counters and dispels blindness/deafness.</p>"
}