{
"Level": "Wizard 3",
"Title": "Stinking Cloud",
"Casting": "1 standard action",
"Range": "Medium (100 ft. + 10 ft./level)",
"Effect": "Cloud spreads in 20-ft. radius, 20 ft. high",
"Duration": "1 round/level",
"Saving": "Fortitude negates; see text",
"Words": "<p>Stinking cloud creates a bank of fog like that created by fog cloud, except that the vapors are nauseating.<br/>Living creatures in the cloud become nauseated.<br/>This condition lasts as long as the creature is in the cloud and for 1d4+1 rounds after it leaves.<br/>(Roll separately for each nauseated character).<br/>Any creature that succeeds on its save but remains in the cloud must continue to save each round on your turn.<br/>Stinking cloud can be made permanent with a permanency spell.<br/>A permanent stinking cloud dispersed by wind reforms in 10 minutes.<br/>Material Component: A rotten egg or several skunk cabbage leaves.</p>"
}