{
"Level": "Bard 0",
"Title": "Summon Instrument",
"Casting": "1 round",
"Range": "0 ft.",
"Effect": "One summoned handheld musical instrument",
"Duration": "1 min./level (D)",
"Saving": "None",
"Words": "<p>This spell summons one handheld musical instrument of your choice.<br/>This instrument appears in your hands or at your feet (your choice).<br/>The instrument is typical for its type.<br/>Only one instrument appears per casting, and it will play only for you.<br/>You can't summon an instrument too large to be held in two hands (such as a harp, piano, harpsichord, alphorn, or pipe organ).</p>"
}