{
"Level": "Druid 5",
"Title": "Summon Nature's Ally V",
"Casting": "1 round",
"Range": "Close (25 ft. + 5 ft./2 levels)",
"Effect": "One or more creatures, no two of which can be more than 30 ft. apart",
"Duration": "1 round/level (D)",
"Saving": "None",
"Words": "<p>This spell functions like <a href=\"/spells/players-handbook-v35--6/summon-natures-ally-i--2450/\"><em>summon nature's ally I</em></a>, except that you can summon one 5th-level creature, 1d3 4th-level creatures of the same kind, or 1d4+1 lower-level creatures of the same kind.</p>\n<p>When you use a summoning spell to summon an air, chaotic, earth, evil, fire, good, lawful, or water creature, it is a spell of that type.</p>"
}