{
"Level": "Wizard 7",
"Title": "Teleport, Greater",
"Words": "<p>This spell functions like <a href=\"/spells/players-handbook-v35--6/teleport--2461/\">teleport</a>, except that there is no range limit and there is no chance you arrive off target.<br/>In addition, you need not have seen the destination, but in that case you must have at least a reliable description of the place to which you are teleporting (such as a detailed description from someone else or a particularly precise map).<br/>If you attempt to teleport with insufficient information (or with misleading information), you disappear and simply reappear in your original location.<br/>Interplanar travel is not possible.</p>"
}