{
"Level": "Druid 6",
"Title": "Transport Via Plants",
"Casting": "1 standard action",
"Range": "Unlimited",
"Duration": "1 round",
"Saving": "None",
"Words": "<p>You can enter any normal plant (Medium or larger) and pass any distance to a plant of the same kind in a single round, regardless of the distance separating the two.<br/>The entry plant must be alive.<br/>The destination plant need not be familiar to you, but it also must be alive.<br/>If you are uncertain of the location of a particular kind of destination plant, you need merely designate direction and distance (\"an oak tree one hundred miles due north of here\"), and the transport via plants spell moves you as close as possible to the desired location.<br/>If a particular destination plant is desired (the oak tree outside your druid grove, for instance), but the plant is not living, the spell fails and you are ejected from the entry plant.<br/>You can bring along objects as long as their weight doesn't exceed your maximum load.<br/>You may also bring one additional willing Medium or smaller creature (carrying gear or objects up to its maximum load) or its equivalent per three caster levels.<br/>Use the following equivalents to determine the maximum number of larger creatures you can bring along: A Large creature counts as two Medium creatures, a Huge creature counts as two Large creatures, and so forth.<br/>All creatures to be transported must be in contact with one another, and at least one of those creatures must be in contact with you.<br/>You can't use this spell to travel through plant creatures such as shambling mounds and treants.<br/>The destruction of an occupied plant slays you and any creatures you have brought along, and ejects the bodies and all carried objects from the tree.</p>"
}