{
"Level": "Cleric 9",
"Title": "True Resurrection",
"Casting": "10 minutes",
"Range": "Touch",
"Duration": "Instantaneous",
"Saving": "None; see text",
"Words": "<p>This spell functions like raise dead, except that you can resurrect a creature that has been dead for as long as 10 years per caster level.<br/>This spell can even bring back creatures whose bodies have been destroyed, provided that you unambiguously identify the deceased in some fashion (reciting the deceased's time and place of birth or death is the most common method).<br/>Upon completion of the spell, the creature is immediately restored to full hit points, vigor, and health, with no loss of level (or Constitution points) or prepared spells.<br/>You can revive someone killed by a death effect or someone who has been turned into an undead creature and then destroyed.<br/>This spell can also resurrect elementals or outsiders, but it can't resurrect constructs or undead creatures.<br/>Even true resurrection can't restore to life a creature who has died of old age.<br/>Material Component: A sprinkle of holy water and diamonds worth a total of at least 25,000 gp.</p>"
}