{
"Level": "Cleric 5,Wizard 5,Druid 6",
"Title": "Wall of Stone",
"Casting": "1 standard action",
"Range": "Medium (100 ft. + 10 ft./level)",
"Effect": "Stone wall whose area is up to one 5-ft. square/level (S)",
"Duration": "Instantaneous",
"Saving": "See text",
"Words": "<p>This spell creates a wall of rock that merges into adjoining rock surfaces.<br/>It is typically employed to close passages, portals, and breaches against opponents.<br/>A wall of stone is 1 inch thick per four caster levels and composed of up to one 5-foot square per level.<br/>You can double the wall's area by halving its thickness.<br/>The wall cannot be conjured so that it occupies the same space as a creature or another object.<br/>Unlike a wall of iron, you can create a wall of stone in almost any shape you desire.<br/>The wall created need not be vertical, nor rest upon any firm foundation; however, it must merge with and be solidly supported by existing stone.<br/>It can be used to bridge a chasm, for instance, or as a ramp.<br/>For this use, if the span is more than 20 feet, the wall must be arched and buttressed.<br/>This requirement reduces the spell's area by half.<br/>Thus, a 20th-level caster can create span with a surface area of ten 5-foot squares.<br/>The wall can be crudely shaped to allow crenellations, battlements, and so forth by likewise reducing the area.<br/>Like any other stone wall, this one can be destroyed by a disintegrate spell or by normal means such as breaking and chipping.<br/>Each 5-foot square of the wall has 15 hit points per inch of thickness and hardness 8.<br/>A section of wall whose hit points drop to 0 is breached.<br/>If a creature tries to break through the wall with a single attack, the DC for the Strength check is 20 + 2 per inch of thickness.<br/>It is possible, but difficult, to trap mobile opponents within or under a wall of stone, provided the wall is shaped so it can hold the creatures.<br/>Creatures can avoid entrapment with successful Reflex saves.<br/>Arcane Material Component: A small block of granite.</p>"
}