{
"Level": "Bard 3,Wizard 3",
"Title": "Clairaudience/clairvoyance",
"Casting": "10 minutes",
"Range": "Long (400 ft. + 40 ft./level)",
"Effect": "Magical sensor",
"Duration": "1 min./level (D)",
"Saving": "None",
"Words": "<p><em>Clairaudience/clairvoyance</em> creates an invisible magical sensor at a specific location that enables you to hear or see (your choice) almost as if you were there. You don't need line of sight or line of effect, but the locale must be known\u2014a place familiar to you or an obvious one, such as behind a door, around a corner, or in a grove of trees. Once you have selected the locale, the sensor doesn't move, but you can rotate it in all directions to view the area as desired. Unlike other <a href=\"/spells/sub-schools/scrying/\">scrying</a> spells, this spell does not allow magically or supernaturally enhanced senses to work through it. If the chosen locale is magically dark, you see nothing. If it is naturally pitch black, you can see in a 10- foot radius around the center of the spell's effect. <em>Clairaudience/clairvoyance</em> functions only on the plane of existence you are currently occupying.</p>\n<p><em>Arcane Focus:</em> A small horn (for hearing) or a glass eye (for seeing).</p>"
}