{
"Level": "Druid 1,Ranger 1",
"Title": "Detect Animals Or Plants",
"Casting": "1 standard action",
"Range": "Long (400 ft. + 40 ft./level)",
"Area": "Cone-shaped emanation",
"Duration": "Concentration, up to 10 min./level (D)",
"Saving": "None",
"Words": "<p>You can detect a particular kind of animal or plant in a cone emanating out from you in whatever direction you face.<br/>You must think of a kind of animal or plant when using the spell, but you can change the animal or plant kind each round.<br/>The amount of information revealed depends on how long you search a particular area or focus on a specific kind of animal or plant.<br/>1st Round: Presence or absence of that kind of animal or plant in the area.<br/>2nd Round:Number of individuals of the specified kind in the area, and the condition of the healthiest specimen.<br/>3rd Round: The condition (see below) and location of each individual present.<br/>If an animal or plant is outside your line of sight, then you discern its direction but not its exact location.<br/>Conditions: For purposes of this spell, the categories of condition are as follows:Normal: Has at least 90% of full normal hit points, free of disease.<br/>Fair: 30% to 90% of full normal hit points remaining.<br/>Poor: Less than 30% of full normal hit points remaining, afflicted with a disease, or suffering from a debilitating injury.<br/>Weak: 0 or fewer hit points remaining, afflicted with a disease in the terminal stage, or crippled.<br/>If a creature falls into more than one category, the spell indicates the weaker of the two.<br/>Each round you can turn to detect a kind of animal or plant in a new area.<br/>The spell can penetrate barriers, but 1 foot of stone, 1 inch of common metal, a thin sheet of lead, or 3 feet of wood or dirt blocks it.<br/>The DM decides if a specific kind of animal or plant is present.</p>"
}