{
"Level": "Cleric 1,Wizard 1,Paladin 1",
"Title": "Detect Undead",
"Casting": "1 standard action",
"Range": "60 ft.",
"Area": "Cone-shaped emanation",
"Duration": "Concentration, up to 1 minute/level (D)",
"Saving": "None",
"Words": "<p>You can detect the aura that surrounds undead creatures.<br/>The amount of information revealed depends on how long you study a particular area.<br/>1st Round: Presence or absence of undead auras.<br/>2nd Round:Number of undead auras in the area and the strength of the strongest undead aura present.<br/>If you are of good alignment, and the strongest undead aura's strength is overwhelming (see below), and the creature has HD of at least twice your character level, you are stunned for 1 round and the spell ends.<br/>3rd Round: The strength and location of each undead aura.<br/>If an aura is outside your line of sight, then you discern its direction but not its exact location.<br/>Aura Strength: The strength of an undead aura is determined by the HD of the undead creature, as given on the following table:<br/>Lingering Aura: An undead aura lingers after its original source is destroyed.<br/>If detect undead is cast and directed at such a location, the spell indicates an aura strength of dim (even weaker than a faint aura).<br/>How long the aura lingers at this dim level depends on its original power:<br/>Each round, you can turn to detect undead in a new area.<br/>The spell can penetrate barriers, but 1 foot of stone, 1 inch of common metal, a thin sheet of lead, or 3 feet of wood or dirt blocks it.<br/>Arcane Material Component: A bit of earth from a grave.</p>"
}