{
"Level": "Bard 2,Wizard 2,Cleric 3",
"Title": "Locate Object",
"Casting": "1 standard action",
"Range": "Long (400 ft. + 40 ft./level)",
"Area": "Circle, centered on you, with a radius of 400 ft. + 40 ft./level",
"Duration": "1 min./level",
"Saving": "None",
"Words": "<p>You sense the direction of a well-known or clearly visualized object.<br/>The spell locates such objects as apparel, jewelry, furniture, tools, weapons, or even a ladder.<br/>You can search for general items such as a stairway, a sword, or a jewel, in which case you locate the nearest one of its kind if more than one is within range.<br/>Attempting to find a certain item, such as a particular piece of jewelry, requires a specific and accurate mental image; if the image is not close enough to the actual object, the spell fails.<br/>You cannot specify a unique item (such as \"Baron Vulden's signet ring\") unless you have observed that particular item firsthand (not through divination).<br/>The spell is blocked by even a thin sheet of lead.<br/>Creatures cannot be found by this spell.<br/>Polymorph any object fools it.<br/>Arcane Focus: A forked twig.</p>"
}