{
"Level": "Bard 6,Cleric 7,Druid 7,Wizard 7",
"Title": "Scrying, Greater",
"Casting": "1 standard action",
"Range": "See text",
"Effect": "Magical sensor",
"Duration": "1 hour/level",
"Saving": "Will negates",
"Words": "<p>This spell functions like <a href=\"/spells/players-handbook-v35--6/scrying--2512/\"><em>scrying</em></a>, except as noted above. Additionally, all of the following spells function reliably through the sensor: <a href=\"/spells/players-handbook-v35--6/detect-chaos--2485/\"><em>detect chaos</em></a>, <a href=\"/spells/players-handbook-v35--6/detect-evil--2486/\"><em>detect evil</em></a>, <a href=\"/spells/players-handbook-v35--6/detect-good--2487/\"><em>detect good</em></a>, <a href=\"/spells/players-handbook-v35--6/detect-law--2488/\"><em>detect law</em></a>, <a href=\"/spells/players-handbook-v35--6/detect-magic--2489/\"><em>detect magic</em></a>, <a href=\"/spells/players-handbook-v35--6/message--2843/\"><em>message</em></a>, <a href=\"/spells/players-handbook-v35--6/read-magic--2511/\"><em>read magic</em></a>, and <a href=\"/spells/players-handbook-v35--6/tongues--2519/\"><em>tongues</em></a>.</p>"
}