{
"Level": "Wizard 8",
"Title": "Binding",
"Casting": "One minute",
"Range": "Close (25 ft. + 5 ft./2 levels)",
"Duration": "See text (D)",
"Saving": "Will negates; see text",
"Words": "<p>A binding spell creates a magical restraint to hold a creature.<br/>The target gets an initial saving throw only if its Hit Dice equal at least one-half your caster level.<br/>You may have as many as six assistants help you with the spell.<br/>For each assistant who casts suggestion, your caster level for this casting of binding increases by 1.<br/>For each assistant who casts dominate animal, dominate person, or dominate monster, your caster level for this casting of binding increases by a number equal to one-third of that assistant's level, provided that the spell's target is appropriate for a binding spell.<br/>Since the assistants' spells are cast simply to improve your caster level for the purpose of the binding spell, saving throws and spell resistance against the assistants' spells are irrelevant.<br/>Your caster level determines whether the target gets an initial Will saving throw and how long the binding lasts.<br/>All binding spells are dismissible.<br/>Regardless of the version of binding you cast, you can specify triggering conditions that end the spell and release the creature whenever they occur.<br/>These triggers can be as simple or elaborate as you desire, but the DM must agree that the condition is reasonable and has a likelihood of coming to pass.<br/>The conditions can be based on a creature's name, identity, or alignment but otherwise must be based on observable actions or qualities.<br/>Intangibles such as level, class, Hit Dice, or hit points don't qualify.<br/>For example, a bound creature can be released when a lawful good creature approaches, but not when a paladin approaches.<br/>Once the spell is cast, its triggering conditions cannot be changed.<br/>Setting a release condition increases the save DC (assuming a saving throw is allowed) by 2.<br/>If you are casting any of the first three versions of binding (those with limited durations), you may cast additional binding spells to prolong the effect, since the durations overlap.<br/>If you do so, the target gets a saving throw at the end of the first spell's duration, even if your caster level was high enough to disallow an initial saving throw.<br/>If the creature succeeds on this save, all the binding spells it has received are broken.<br/>The binding spell has six versions.<br/>Choose one of the following versions when you cast the spell.<br/>Chaining: The subject is confined by restraints that generate an antipathy spell affecting all creatures who approach the subject, except you.<br/>The duration is one year per caster level.<br/>The subject of this form of binding is confined to the spot it occupied when it received the spell.<br/>Slumber: This version causes the subject to become comatose for as long as one year per caster level.<br/>The subject does not need to eat or drink while slumbering, nor does it age.<br/>This form of binding is more difficult to cast than chaining, making it slightly easier to resist.<br/>Reduce the spell's save DC by 1.<br/>Bound Slumber: This combination of chaining and slumber lasts for as long as one month per caster level.<br/>Reduce the save DC by 2.<br/>Hedged Prison: The subject is transported to or otherwise brought within a confined area (such as a labyrinth) from which it cannot wander by any means.<br/>The effect is permanent.<br/>Reduce the save DC by 3.<br/>Metamorphosis: The subject assumes gaseous form, except for its head or face.<br/>It is held harmless in a jar or other container, which may be transparent if you so choose.<br/>The creature remains aware of its surroundings and can speak, but it cannot leave the container, attack, or use any of its powers or abilities.<br/>The binding is permanent.<br/>The subject does not need to breathe, eat, or drink while metamorphosed, nor does it age.<br/>Reduce the save DC by 4.<br/>Minimus Containment: The subject is shrunk to a height of 1 inch or even less and held within some gem, jar, or similar object.<br/>The binding is permanent.<br/>The subject does not need to breathe, eat, or drink while contained, nor does it age.<br/>Reduce the save DC by 4.<br/>You can't dispel a binding spell with dispel magic or a similar effect, though an antimagic field or Mordenkainen's disjunction affects it normally.<br/>A bound extraplanar creature cannot be sent back to its home plane due to dismissal, banishment, or a similar effect.<br/>Components: The components for a binding spell vary according to the version of the spell, but they always include a continuous chanting utterance read from the scroll or spellbook page containing the spell, somatic gestures, and materials appropriate to the form of binding used.<br/>These components can include such items as miniature chains of special metals (silver for lycanthropes, cold iron for demons, and so forth), soporific herbs of the rarest sort (for slumber bindings), a bell jar of the finest crystal, and the like.<br/>In addition to the specially made props suited to the specific type of binding (cost 500 gp), the spell requires opals worth at least 500 gp for each HD of the target and a vellum depiction or carved statuette of the subject to be captured.</p>"
}