{
"Level": "Druid 1,Ranger 1",
"Title": "Calm Animals",
"Casting": "1 standard action",
"Range": "Close (25 ft. + 5 ft./2 levels)",
"Duration": "1 min./level",
"Saving": "Will negates; see text",
"Words": "<p>This spell soothes and quiets animals, rendering them docile and harmless.<br/>Only ordinary animals (those with Intelligence scores of 1 or 2) can be affected by this spell.<br/>All the subjects must be of the same kind, and no two may be more than 30 feet apart.<br/>The maximum number of Hit Dice of animals you can affect is equal to 2d4 + caster level.<br/>A dire animal or an animal trained to attack or guard is allowed a saving throw; other animals are not.<br/>(A druid could calm a normal bear or wolf with little trouble, but it's more difficult to affect a trained guard dog).<br/>The affected creatures remain where they are and do not attack or flee.<br/>They are not helpless and defend themselves normally if attacked.<br/>Any threat (such as fire, a hungry predator, or an imminent attack) breaks the spell on the threatened creatures.</p>"
}