{
"Level": "Bard 2,Cleric 2",
"Title": "Calm Emotions",
"Casting": "1 standard action",
"Range": "Medium (100 ft. + 10 ft./level)",
"Area": "Creatures in a 20-ft.-radius spread",
"Duration": "Concentration, up to 1 round/level (D)",
"Saving": "Will negates",
"Words": "<p>This spell calms agitated creatures.<br/>You have no control over the affected creatures, but calm emotions can stop raging creatures from fighting or joyous ones from reveling.<br/>Creatures so affected cannot take violent actions (although they can defend themselves) or do anything destructive.<br/>Any aggressive action against or damage dealt to a calmed creature immediately breaks the spell on all calmed creatures.<br/>This spell automatically suppresses (but does not dispel) any morale bonuses granted by spells such as bless, good hope, and rage, as well as negating a bard's ability to inspire courage or a barbarian's rage ability.<br/>It also suppresses any fear effects and removes the confused condition from all targets.<br/>While the spell lasts, a suppressed spell or effect has no effect.<br/>When the calm emotions spell ends, the original spell or<br/>effect takes hold of the creature again, provided that its duration has not expired in the meantime.</p>"
}