{
"Level": "Bard 3,Wizard 4",
"Title": "Charm Monster",
"Casting": "1 standard action",
"Range": "Close (25 ft. + 5 ft./2 levels)",
"Duration": "One day/level",
"Saving": "Will negates",
"Words": "<p>This spell functions like <a href=\"/spells/players-handbook-v35--6/charm-person--2535/\"><em>charm person</em></a>, except that the effect is not restricted by creature type or size.</p>"
}