{
"Level": "Bard 6,Cleric 6,Wizard 6",
"Title": "Geas/quest",
"Casting": "10 minutes",
"Saving": "None",
"Words": "<p>This spell functions similarly to lesser geas, except that it affects a creature of any HD and allows no saving throw.<br/>Instead of taking penalties to ability scores (as with lesser geas), the subject takes 3d6 points of damage each day it does not attempt to follow the geas/quest.<br/>Additionally, each day it must make a Fortitude saving throw or become sickened.<br/>These effects end 24 hours after the creature attempts to resume the geas/quest.<br/>A remove curse spell ends a geas/quest spell only if its caster level is at least two higher than your caster level.<br/>Break enchantment does not end a geas/quest, but limited wish, miracle, and wish do.<br/>Bards, sorcerers, and wizards usually refer to this spell as geas, while clerics call the same spell quest.</p>"
}