{
"Level": "Bard 5,Wizard 6",
"Title": "Heroism, Greater",
"Casting": "1 standard action",
"Range": "Touch",
"Duration": "1 min./level",
"Saving": "Will negates (harmless)",
"Words": "<p>This spell functions like <a href=\"/spells/players-handbook-v35--6/heroism--2553/\"><em>heroism</em></a>, except the creature gains a +4 morale bonus on attack rolls, saves, and skill checks, immunity to fear effects, and temporary hit points equal to your caster level (maximum 20).</p>"
}