{
"Level": "Bard 2,Cleric 2,Wizard 3",
"Title": "Hold Person",
"Casting": "1 standard action",
"Range": "Medium (100 ft. + 10 ft./level)",
"Duration": "1 round/level (D); see text",
"Saving": "Will negates; see text",
"Words": "<p>The subject becomes paralyzed and freezes in place.<br/>It is aware and breathes normally but cannot take any actions, even speech.<br/>Each round on its turn, the subject may attempt a new saving throw to end the effect.<br/>(This is a full-round action that does not provoke attacks of opportunity).<br/>A winged creature who is paralyzed cannot flap its wings and falls.<br/>A swimmer can't swim and may drown.<br/>Arcane Focus: A small, straight piece of iron.</p>"
}