{
"Level": "Bard 6,Wizard 8",
"Title": "Otto's Irresistible Dance",
"Casting": "1 standard action",
"Range": "Touch",
"Duration": "1d4+1 rounds",
"Saving": "None",
"Words": "<p>The subject feels an undeniable urge to dance and begins doing so, complete with foot shuffling and tapping.<br/>The spell effect makes it impossible for the subject to do anything other than caper and prance in place.<br/>The effect imposes a -4 penalty to Armor Class and a -10 penalty on Reflex saves, and it negates any AC bonus granted by a shield the target holds.<br/>The dancing subject provokes attacks of opportunity each round on its turn.</p>"
}