{
"Level": "Bard 1,Wizard 1",
"Title": "Sleep",
"Casting": "1 round",
"Range": "Medium (100 ft. + 10 ft./level)",
"Area": "One or more living creatures within a 10-ft.-radius burst",
"Duration": "1 min./level",
"Saving": "Will negates",
"Words": "<p>A sleep spell causes a magical slumber to come upon 4 Hit Dice of creatures.<br/>Creatures with the fewest HD are affected first.<br/>Among creatures with equal HD, those who are closest to the spell's point of origin are affected first.<br/>Hit Dice that are not sufficient to affect a creature are wasted.<br/>For example, Mialee casts sleep at one rat (1/4 HD), one kobold (1 HD), two gnolls (2 HD), and an ogre (4 HD).<br/>The rat, the kobold, and one gnoll are affected (1/4 + 1 + 2 = 3-1/4 HD).<br/>The remaining 3/4 HD is not enough to affect the last gnoll or the ogre.<br/>Mialee can't choose to have sleep affect the ogre or the two gnolls.<br/>Sleeping creatures are helpless.<br/>Slapping or wounding awakens an affected creature, but normal noise does not.<br/>Awakening a creature is a standard action (an application of the aid another action).<br/>Sleep does not target unconscious creatures, constructs, or undead creatures.<br/>Material Component: A pinch of fine sand, rose petals, or a live cricket.</p>"
}