{
"Level": "Cleric 7,Wizard 7",
"Title": "Symbol of Stunning",
"Saving": "Will negates",
"Words": "<p>This spell functions like symbol of death, except that all creatures within 60 feet of a symbol of stunning instead become stunned for 1d6 rounds.<br/>Note:Magic traps such as symbol of stunning are hard to detect and disable.<br/>A rogue (only) can use the Search skill to find a symbol of stunning and Disable Device to thwart it.<br/>The DC in each case is 25 + spell level, or 32 for symbol of stunning.<br/>Material Component:Mercury and phosphorus, plus powdered diamond and opal with a total value of at least 5,000 gp.</p>"
}