{
"Level": "Wizard 8,Druid 9",
"Title": "Sympathy",
"Casting": "1 hour",
"Range": "Close (25 ft. + 5 ft./2 levels)",
"Duration": "2 hours/level (D)",
"Saving": "Will negates; see text",
"Words": "<p>You cause an object or location to emanate magical vibrations that attract either a specific kind of intelligent creature or creatures of a particular alignment, as defined by you.<br/>The particular kind of creature to be affected must be named specifically\u2014for example, red dragons, hill giants, wererats, lammasus, or vampires.<br/>A creature subtype (such as goblinoid) is not specific enough.<br/>Likewise, the specific alignment must be named\u2014for example, chaotic evil, chaotic good, lawful neutral, or neutral.<br/>Creatures of the specified kind or alignment feel elated and pleased to be in the area or desire to touch or to possess the object.<br/>The compulsion to stay in the area or touch the object is overpowering.<br/>If the save is successful, the creature is released from the enchantment, but a subsequent save must be made 1d6\u00d710 minutes later.<br/>If this save fails, the affected creature attempts to return to the area or object.<br/>Sympathy counters and dispels antipathy.<br/>Material Component: 1,500 gp worth of crushed pearls and a drop of honey.</p>"
}