{
"Level": "Cleric 2,Paladin 2",
"Title": "Zone of Truth",
"Casting": "1 standard action",
"Range": "Close (25 ft. + 5 ft./2 levels)",
"Area": "20-ft.-radius emanation",
"Duration": "1 min./level",
"Saving": "Will negates",
"Words": "<p>Creatures within the emanation area (or those who enter it) can't speak any deliberate and intentional lies.<br/>Each potentially affected creature is allowed a save to avoid the effects when the spell is cast or when the creature first enters the emanation area.<br/>Affected creatures are aware of this enchantment.<br/>Therefore, they may avoid answering questions to which they would normally respond with a lie, or they may be evasive as long as they remain within the boundaries of the truth.<br/>Creatures who leave the area are free to speak as they choose.</p>"
}