{
"Level": "Wizard 5",
"Title": "Bigby's Interposing Hand",
"Casting": "1 standard action",
"Range": "Medium (100 ft. + 10 ft./level)",
"Effect": "10-ft. hand",
"Duration": "1 round/level (D)",
"Saving": "None",
"Words": "<p>Bigby's Interposing hand creates a Large magic hand that appears between you and one opponent.<br/>This floating, disembodied hand then moves to remain between the two of you, regardless of where you move or how the opponent tries to get around it, providing cover (+4 AC) for you against that opponent.<br/>Nothing can fool the hand\u2014it sticks with the selected opponent in spite of darkness, invisibility, polymorphing, or any other attempt at hiding or disguise.<br/>The hand does not pursue an opponent, however.<br/>A Bigby's hand is 10 feet long and about that wide with its fingers outstretched.<br/>It has as many hit points as you do when you're undamaged, and its AC is 20 (-1 size, +11 natural).<br/>It takes damage as a normal creature, but most magical effects that don't cause damage do not affect it.<br/>The hand never provokes attacks of opportunity from opponents.<br/>It cannot push through a wall of force or enter an antimagic field, but it suffers the full effect of a prismatic wall or prismatic sphere.<br/>The hand makes saving throws as its caster.<br/>Disintegrate or a successful dispel magic destroys it.<br/>Any creature weighing 2,000 pounds or less that tries to push past the hand is slowed to half its normal speed.<br/>The hand cannot reduce the speed of a creature weighing more than 2,000 pounds, but it still affects the creature's attacks.<br/>Directing the spell to a new target is a move action.<br/>Focus: A soft glove.</p>"
}