{
"Level": "Wizard 6",
"Title": "Chain Lightning",
"Casting": "1 standard action",
"Range": "Long (400 ft. + 40 ft./level)",
"Duration": "Instantaneous",
"Saving": "Reflex half",
"Words": "<p>This spell creates an electrical discharge that begins as a single stroke commencing from your fingertips.<br/>Unlike lightning bolt, chain lightning strikes one object or creature initially, then arcs to other targets.<br/>The bolt deals 1d6 points of electricity damage per caster level (maximum 20d6) to the primary target.<br/>After it strikes, lightning can arc to a number of secondary targets equal to your caster level (maximum 20).<br/>The secondary bolts each strike one target and deal half as much damage as the primary one did (rounded down).<br/>For example, a 19th-level sorcerer generates a primary bolt (19d6 points of damage) and as many as nineteen secondary bolts (each of which deals half as much as the primary bolt dealt).<br/>Each target can attempt a Reflex saving throw for half damage.<br/>You choose secondary targets as you like, but they must all be within 30 feet of the primary target, and no target can be struck more than once.<br/>You can choose to affect fewer secondary targets than the maximum (to avoid allies in the area, for example).<br/>Focus: A bit of fur; a piece of amber, glass, or a crystal rod; plus one silver pin for each of your caster levels.</p>"
}