{
"Level": "Cleric 3",
"Title": "Deeper Darkness",
"Duration": "One day/level (D)",
"Words": "<p>This spell functions like <a href=\"/spells/players-handbook-v35--6/darkness--2600/\"><em>darkness</em></a>, except that the object radiates shadowy illumination in a 60-foot radius and the darkness lasts longer.<br/>Daylight brought into an area of deeper darkness (or vice versa) is temporarily negated, so that the otherwise prevailing light conditions exist in the overlapping areas of effect.<br/>Deeper darkness counters and dispels any light spell of equal or lower level, including daylight and light.</p>"
}