{
"Level": "Druid 2,Wizard 2",
"Title": "Flaming Sphere",
"Casting": "1 standard action",
"Range": "Medium (100 ft. + 10 ft./level)",
"Effect": "5-ft.-diameter sphere",
"Duration": "1 round/level",
"Saving": "Reflex negates",
"Words": "<p>A burning globe of fire rolls in whichever direction you point and burns those it strikes.<br/>It moves 30 feet per round.<br/>As part of thismovement, it can ascend or jump up to 30 feet to strike a target.<br/>If it enters a space with a creature, it stops moving for the round and deals 2d6 points of fire damage to that creature, though a successful Reflex save negates that damage.<br/>A flaming sphere rolls over barriers less than 4 feet tall, such as furniture and low walls.<br/>It ignites flammable substances it touches and illuminates the same area as a torch would.<br/>The sphere moves as long as you actively direct it (a move action for you); otherwise, it merely stays at rest and burns.<br/>It can be extinguished by any means that would put out a normal fire of its size.<br/>The surface of the sphere has a spongy, yielding consistency and so does not cause damage except by its flame.<br/>It cannot push aside unwilling creatures or batter down large obstacles.<br/>A flaming sphere winks out if it exceeds the spell's range.<br/>Arcane Material Component: A bit of tallow, a pinch of brimstone, and a dusting of powdered iron.</p>"
}