{
"Level": "Druid 2,Wizard 2",
"Title": "Gust of Wind",
"Casting": "1 standard action",
"Range": "60 ft.",
"Effect": "Line-shaped gust of severe wind emanating out from you to the extreme of the range",
"Duration": "1 round",
"Saving": "Fortitude negates",
"Words": "<p>This spell creates a severe blast of air (approximately 50 mph) that originates from you, affecting all creatures in its path.<br/>A Tiny or smaller creature on the ground is knocked down and rolled 1d4\u00d710 feet, taking 1d4 points of nonlethal damage per 10 feet.<br/>If flying, a Tiny or smaller creature is blown back 2d6\u00d710 feet and takes 2d6 points of nonlethal damage due to battering and buffeting.<br/>Small creatures are knocked prone by the force of the wind, or if flying are blown back 1d6\u00d710 feet.<br/>Medium creatures are unable to move forward against the force of the wind, or if flying are blown back 1d6\u00d75 feet.<br/>Large or larger creatures may move normally within a gust of wind effect.<br/>A gust of wind can't move a creature beyond the limit of its range.<br/>Any creature, regardless of size, takes a -4 penalty on ranged attacks and Listen checks in the area of a gust of wind.<br/>The force of the gust automatically extinguishes candles, torches, and similar unprotected flames.<br/>It causes protected flames, such as those of lanterns, to dance wildly and has a 50% chance to extinguish those lights.<br/>In addition to the effects noted, a gust of wind can do anything that a sudden blast of wind would be expected to do.<br/>It can create a stinging spray of sand or dust, fan a large fire, overturn delicate awnings or hangings, heel over a small boat, and blow gases or vapors to the edge of its range.<br/>Gust of wind can be made permanent with a permanency spell.</p>"
}