{
"Level": "Druid 4,Wizard 4",
"Title": "Ice Storm",
"Casting": "1 standard action",
"Range": "Long (400 ft. + 40 ft./level)",
"Area": "Cylinder (20-ft. radius, 40 ft. high)",
"Duration": "1 full round",
"Saving": "None",
"Words": "<p>Great magical hailstones pound down for 1 full round, dealing 3d6 points of bludgeoning damage and 2d6 points of cold damage to every creature in the area. A -4 penalty applies to each Listen check made within the ice storm's effect, and all land movement within its area is at half speed. At the end of the duration, the hail disappears, leaving no aftereffects (other than the damage dealt).</p>\n<p><em>Arcane Material Component</em>: A pinch of dust and a few drops of water.</p>"
}