{
"Level": "Wizard 0",
"Title": "Ray of Frost",
"Casting": "1 standard action",
"Range": "Close (25 ft. + 5 ft./2 levels)",
"Effect": "Ray",
"Duration": "Instantaneous",
"Saving": "None",
"Words": "<p>A ray of freezing air and ice projects from your pointing finger.<br/>You must succeed on a ranged touch attack with the ray to deal damage to a target.<br/>The ray deals 1d3 points of cold damage.</p>"
}