{
"Level": "Bard 2,Cleric 2,Wizard 2",
"Title": "Shatter",
"Casting": "1 standard action",
"Range": "Close (25 ft. + 5 ft./2 levels)",
"Area": "5-ft.-radius spread; or one solid object or one crystalline creature",
"Duration": "Instantaneous",
"Saving": "Will negates (object); Will negates (object) or Fortitude half; see text",
"Words": "<p>Shatter creates a loud, ringing noise that breaks brittle, nonmagical objects; sunders a single solid, nonmagical object; or damages a crystalline creature.<br/>Used as an area attack, shatter destroys nonmagical objects of crystal, glass, ceramic, or porcelain, such as vials, bottles, flasks, jugs, windows, mirrors, and so forth.<br/>All such objects within a 5-foot radius of the point of origin are smashed into dozens of pieces by the spell.<br/>Objects weighing more than 1 pound per your level are not affected, but all other objects of the appropriate composition are shattered.<br/>Alternatively, you can target shatter against a single solid object, regardless of composition, weighing up to 10 pounds per caster level.<br/>Targeted against a crystalline creature (of any weight), shatter deals 1d6 points of sonic damage per caster level (maximum 10d6), with a Fortitude save for half damage.<br/>Arcane Material Component: A chip of mica.</p>"
}