{
"Level": "Wizard 1",
"Title": "Shocking Grasp",
"Casting": "1 standard action",
"Range": "Touch",
"Duration": "Instantaneous",
"Saving": "None",
"Words": "<p>Your successful melee touch attack deals 1d6 points of electricity damage per caster level (maximum 5d6).<br/>When delivering the jolt, you gain a +3 bonus on attack rolls if the opponent is wearing metal armor (or made out of metal, carrying a lot of metal, or the like).</p>"
}