{
"Level": "Bard 4,Wizard 4",
"Title": "Shout",
"Casting": "1 standard action",
"Range": "30 ft.",
"Area": "Cone-shaped burst",
"Duration": "Instantaneous",
"Saving": "Fortitude partial or Reflex negates (object); see text",
"Words": "<p>You emit an ear-splitting yell that deafens and damages creatures in its path.<br/>Any creature within the area is deafened for 2d6 rounds and takes 5d6 points of sonic damage.<br/>A successful save negates the deafness and reduces the damage by half.<br/>Any exposed brittle or crystalline object or crystalline creature takes 1d6 points of sonic damage per caster level (maximum 15d6).<br/>An affected creature is allowed a Fortitude save to reduce the damage by half, and a creature holding fragile objects can negate damage to them with a successful Reflex save.<br/>A shout spell cannot penetrate a silence spell.</p>"
}