{
"Level": "Bard 6,Wizard 8",
"Title": "Shout, Greater",
"Range": "60 ft.",
"Saving": "Fortitude partial or Reflex negates (object); see text",
"Words": "<p>This spell functions like shout, except that the cone deals 10d6 points of sonic damage (or 1d6 points of sonic damage per caster level, maximum 20d6, against exposed brittle or crystalline objects or crystalline creatures).<br/>It also causes creatures to be stunned for 1 round and deafened for 4d6 rounds.<br/>A creature in the area of the cone can negate the stunning and halve both the damage and the duration of the deafness with a successful Fortitude save.<br/>A creature holding vulnerable objects can attempt a Reflex save to negate the damage to those objects.<br/>Arcane Focus: A small metal or ivory horn.</p>"
}