{
"Level": "Wizard 1",
"Title": "Tenser's Floating Disk",
"Casting": "1 standard action",
"Range": "Close (25 ft. + 5 ft./2 levels)",
"Effect": "3-ft.-diameter disk of force",
"Duration": "1 hour/level",
"Saving": "None",
"Words": "<p>You create a slightly concave, circular plane of force that follows you about and carries loads for you.<br/>The disk is 3 feet in diameter and 1 inch deep at its center.<br/>It can hold 100 pounds of weight per caster level.<br/>(If used to transport a liquid, its capacity is 2 gallons).<br/>The disk floats approximately 3 feet above the ground at all times and remains level.<br/>It floats along horizontally within spell range and will accompany you at a rate of no more than your normal speed each round.<br/>If not otherwise directed, it maintains a constant interval of 5 feet between itself and you.<br/>The disk winks out of existence when the spell duration expires.<br/>The disk also winks out if you move beyond range (by moving too fast or by such means as a teleport spell) or try to take the disk more than 3 feet away from the surface beneath it.<br/>When the disk winks out, whatever it was supporting falls to the surface beneath it.<br/>Material Component: A drop of mercury.</p>"
}