{
"Level": "Bard 2,Wizard 2",
"Title": "Blur",
"Casting": "1 standard action",
"Range": "Touch",
"Duration": "1 min./level (D)",
"Saving": "Will negates (harmless)",
"Words": "<p>The subject's outline appears blurred, shifting and wavering.<br/>This distortion grants the subject concealment (20% miss chance).<br/>A see invisibility spell does not counteract the blur effect, but a true seeing spell does.<br/>Opponents that cannot see the subject ignore the spell's effect (though fighting an unseen opponent carries penalties of its own; see page 151).</p>"
}