{
"Level": "Bard 3,Wizard 3",
"Title": "Displacement",
"Casting": "1 standard action",
"Range": "Touch",
"Duration": "1 round/level (D)",
"Saving": "Will negates (harmless)",
"Words": "<p>Emulating the natural ability of the displacer beast (see the Monster Manual), the subject of this spell appears to be about 2 feet away from its true location.<br/>The creature benefits from a 50% miss chance as if it had total concealment.<br/>However, unlike actual total concealment, displacement does not prevent enemies from targeting the creature normally.<br/>True seeing reveals its true location.<br/>Material Component: A small strip of leather made from displacer beast hide, twisted into a loop.</p>"
}