{
"Level": "Bard 5,Wizard 5",
"Title": "False Vision",
"Casting": "1 standard action",
"Range": "Touch",
"Area": "40-ft.-radius emanation",
"Duration": "1 hour/level (D)",
"Saving": "None",
"Words": "<p>Any divination (scrying) spell used to view anything within the area of this spell instead receives a false image (as the major image spell), as defined by you at the time of casting.<br/>As long as the duration lasts, you can concentrate to change the image as desired.<br/>While you aren't concentrating, the image remains static.<br/>Arcane Material Component: The ground dust of a piece of jade worth at least 250 gp, which is sprinkled into the air when the spell is cast.</p>"
}