{
"Level": "Bard 1,Wizard 2",
"Title": "Magic Mouth",
"Casting": "1 standard action",
"Range": "Close (25 ft. + 5 ft./2 levels)",
"Duration": "Permanent until discharged",
"Saving": "Will negates (object)",
"Words": "<p>This spell imbues the chosen object or creature with an enchanted mouth that suddenly appears and speaks its message the next time a specified event occurs.<br/>The message, which must be twenty-five or fewer words long, can be in any language known by you and can be delivered over a period of 10 minutes.<br/>The mouth cannot utter verbal components, use command words, or activate magical effects.<br/>It does, however, move according to the words articulated; if it were placed upon a statue, the mouth of the statue would move and appear to speak.<br/>Of course, magic mouth can be placed upon a tree, rock, or any other object or creature.<br/>The spell functions when specific conditions are fulfilled according to your command as set in the spell.<br/>Commands can be as general or as detailed as desired, although only visual and audible triggers can be used, such as the following: \"Speak only when a venerable female human carrying a sack sits cross-legged within a distance of one foot\".<br/>Triggers react to what appears to be the case.<br/>Disguises and illusions can fool them.<br/>Normal darkness does not defeat a visual trigger, but magical darkness or invisibility does.<br/>Silent movement or magical silence defeats audible triggers.<br/>Audible triggers can be keyed to general types of noises (footsteps, metal clanking) or to a specific noise or spoken word (when a pin drops, or when anyone says \"Boo\").<br/>Actions can serve as triggers if they are visible or audible.<br/>For example, \"Speak when any creature touches the statue\"<br/>is an acceptable command if the creature is visible.<br/>A magic mouth cannot distinguish alignment, level, Hit Dice, or class except by external garb.<br/>The range limit of a trigger is 15 feet per caster level, so a 6th-level caster can command a magic mouth to respond to triggers as far as 90 feet away.<br/>Regardless of range, the mouth can respond only to visible or audible triggers and actions in line of sight or within hearing distance.<br/>Magic mouth can be made permanent with a permanency spell.<br/>Material Component: A small bit of honeycomb and jade dust worth 10 gp.</p>"
}