{
"Level": "Bard 2,Wizard 2",
"Title": "Minor Image",
"Duration": "Concentration +2 rounds",
"Words": "<p>This spell functions like silent image, except that minor image includes some minor sounds but not understandable speech.</p>"
}