{
"Level": "Bard 1,Wizard 1",
"Title": "Nystul's Magic Aura",
"Casting": "1 standard action",
"Range": "Touch",
"Duration": "One day/level (D)",
"Saving": "None; see text",
"Words": "<p>You alter an item's aura so that it registers to detect spells (and spells with similar capabilities) as though it were nonmagical, or a magic item of a kind you specify, or the subject of a spell you specify.<br/>You could make an ordinary sword register as a +2 vorpal sword as far as magical detection is concerned or make a +2 vorpal sword register as if it were a +1 sword or even a nonmagical sword.<br/>If the object bearing Nystul's magic aura has identify cast on it or is similarly examined, the examiner recognizes that the aura is false and detects the object's actual qualities if he succeeds on a Will save.<br/>Otherwise, he believes the aura and no amount of testing reveals what the true magic is.<br/>If the targeted item's own aura is exceptionally powerful (if it is an artifact, for instance), Nystul's magic aura doesn't work.<br/>Note: A magic weapon, shield, or suit of armor must be a masterwork item, so a sword of average make, for example, looks suspicious if it has a magical aura.<br/>Focus: A small square of silk that must be passed over the object that receives the aura.</p>"
}