{
"Level": "Bard 6,Wizard 6",
"Title": "Programmed Image",
"Effect": "Visual figment that cannot extend beyond a 20-ft. cube + one 10-ft. cube/level (S)",
"Duration": "Permanent until triggered, then 1 round/level",
"Words": "<p>This spell functions like silent image, except that this spell's figment activates when a specific condition occurs.<br/>The figment includes visual, auditory, olfactory, and thermal elements, including intelligible speech.<br/>You set the triggering condition (which may be a special word) when casting the spell.<br/>The event that triggers the illusion can be as general or as specific and detailed as desired but must be based on an audible, tactile, olfactory, or visual trigger.<br/>The trigger cannot be based on some quality not normally obvious to the senses, such as alignment.<br/>(See magic mouth for more details about such triggers).<br/>Material Component: A bit of fleece and jade dust worth 25 gp.</p>"
}