{
"Level": "Bard 2,Wizard 2,Cleric 3",
"Title": "Blindness/Deafness",
"Casting": "1 standard action",
"Range": "Medium (100 ft. + 10 ft./level)",
"Duration": "Permanent (D)",
"Saving": "Fortitude negates",
"Words": "<p>You call upon the powers of unlife to render the subject blinded or deafened, as you choose.</p>"
}