{
"Level": "Wizard 6",
"Title": "Circle of Death",
"Casting": "1 standard action",
"Range": "Medium (100 ft. + 10 ft./level)",
"Area": "Several living creatures within a 40-ft.-radius burst",
"Duration": "Instantaneous",
"Saving": "Fortitude negates",
"Words": "<p>A circle of death snuffs out the life force of living creatures, killing them instantly.<br/>The spell slays 1d4 HD worth of living creatures per caster level (maximum 20d4).<br/>Creatures with the fewest HD are affected first; among creatures with equal HD, those who are closest to the burst's point of origin are affected first.<br/>No creature of 9 or more HD can be affected, and Hit Dice that are not sufficient to affect a creature are wasted.<br/>Material Component: The powder of a crushed black pearl with a minimum value of 500 gp.</p>"
}