{
"Level": "Cleric 4,Paladin 4,Druid 5",
"Title": "Death Ward",
"Casting": "1 standard action",
"Range": "Touch",
"Duration": "1 min./level",
"Saving": "Will negates (harmless)",
"Words": "<p>The subject is immune to all death spells, magical death effects, energy drain, and any negative energy effects (such as from inflict spells or chill touch).</p>\n<p>This spell doesn't remove negative levels that the subject has already gained, nor does it affect the saving throw necessary 24 hours after gaining a negative level.</p>\n<p>Death ward does not protect against other sorts of attacks, such as hit point loss, poison, or petrification, even if those attacks might be lethal.</p>\n<p>(note: Heroes of Horror lists this spell as both a 3rd and 4th level spell for the Dread Necromancer).</p>"
}