{
"Level": "Wizard 0",
"Title": "Disrupt Undead",
"Casting": "1 standard action",
"Range": "Close (25 ft. + 5 ft./2 levels)",
"Effect": "Ray",
"Duration": "Instantaneous",
"Saving": "None",
"Words": "<p>You direct a ray of positive energy.<br/>You must make a ranged touch attack to hit, and if the ray hits an undead creature, it deals 1d6 points of damage to it.</p>"
}