{
"Level": "Cleric 9,Wizard 9",
"Title": "Energy Drain",
"Saving": "Fortitude partial; see text for enervation",
"Words": "<p>This spell functions like <a href=\"/spells/players-handbook-v35--6/enervation--2733/\"><em>enervation</em></a>, except that the creature struck gains 2d4 negative levels, and the negative levels last longer.</p>\n<p>There is no saving throw to avoid gaining the negative levels, but 24 hours after gaining them, the subject  must make a Fortitude saving throw (DC = energy drain spell's save DC) for each negative level. If the save succeeds, that negative level is removed. If it fails, the negative level also goes away, but one of the subject's character levels is permanently drained.</p>\n<p>An undead creature struck by the ray gains 2d4\u00d75 temporary hit points for 1 hour.</p>"
}