{
"Level": "Bard 6,Wizard 6",
"Title": "Eyebite",
"Casting": "1 standard action",
"Range": "Close (25 ft. + 5 ft./2 levels)",
"Duration": "1 round per three levels; see text",
"Saving": "Fortitude negates",
"Words": "<p>Each round, you may target a single living creature, striking it with waves of evil power. Depending on the target's HD, this attack has as many as three effects.</p>\n<p>The effects are cumulative and concurrent.</p>\n<p><em>Sickened:</em> Sudden pain and fever sweeps over the subject's body. A sickened creature takes a -2 penalty on attack rolls, weapon damage rolls, saving throws, skill checks, and ability checks. A creature affected by this spell remains sickened for 10 minutes per caster level. The effects cannot be negated by a remove disease or heal spell, but a remove curse is effective.</p>\n<p><em>Panicked:</em> The subject becomes panicked for 1d4 rounds. Even after the panic ends, the creature remains shaken for 10 minutes per caster level, and it automatically becomes panicked again if it comes within sight of you during that time. This is a fear effect.</p>\n<p><em>Comatose:</em> The subject falls into a catatonic coma for 10 minutes per caster level. During this time, it cannot be awakened by any means short of dispelling the effect. This is not a sleep effect, and thus elves are not immune to it.</p>\n<p>The spell lasts for 1 round per three caster levels. You must spend a move action each round after the first to target a foe.</p>"
}