{
"Level": "Cleric 2,Wizard 3",
"Title": "Gentle Repose",
"Casting": "1 standard action",
"Range": "Touch",
"Duration": "One day/level",
"Saving": "Will negates (object)",
"Words": "<p>You preserve the remains of a dead creature so that they do not decay.<br/>Doing so effectively extends the time limit on raising that creature from the dead (see raise dead).<br/>Days spent under the influence of this spell don't count against the time limit.<br/>Additionally, this spell makes transporting a fallen comrade more pleasant.<br/>The spell also works on severed body parts and the like.<br/>Arcane Material Component: A pinch of salt, and a copper piece for each eye the corpse has (or had).</p>"
}