{
"Level": "Wizard 3",
"Title": "Halt Undead",
"Casting": "1 standard action",
"Range": "Medium (100 ft. + 10 ft./level)",
"Duration": "1 round/level",
"Saving": "Will negates (see text)",
"Words": "<p>This spell renders as many as three undead creatures immobile. A nonintelligent undead creature (such as a skeleton or zombie) gets no saving throw; an intelligent undead creature does. If the spell is successful, it renders the undead creature immobile for the duration of the spell (similar to the effect of hold person on a living creature). The effect is broken if the halted creatures are attacked or take damage.</p>\n<p>Material Component: A pinch of sulfur and powdered garlic.</p>"
}