{
"Level": "Cleric 6",
"Title": "Harm",
"Casting": "1 standard action",
"Range": "Touch",
"Duration": "Instantaneous",
"Saving": "Will half; see text",
"Words": "<p>Harm charges a subject with negative energy that deals 10 points of damage per caster level (to a maximum of 150 points at 15th level).<br/>If the creature successfully saves, harm deals half this amount, but it cannot reduce the target's hit points to less than 1.<br/>If used on an undead creature, harm acts like heal.</p>"
}