{
"Level": "Cleric 2",
"Title": "Inflict Moderate Wounds",
"Words": "<p>This spell functions like inflict light wounds, except that you deal 2d8 points of damage +1 point per caster level (maximum +10).</p>"
}