{
"Level": "Cleric 3",
"Title": "Inflict Serious Wounds",
"Words": "<p>This spell functions like inflict light wounds, except that you deal 3d8 points of damage +1 point per caster level (maximum +15).</p>"
}