{
"Level": "Wizard 1",
"Title": "Ray of Enfeeblement",
"Casting": "1 standard action",
"Range": "Close (25 ft. + 5 ft./2 levels)",
"Effect": "Ray",
"Duration": "1 min./level",
"Saving": "None",
"Words": "<p>A coruscating ray springs from your hand.<br/>You must succeed on a ranged touch attack to strike a target.<br/>The subject takes a penalty to Strength equal to 1d6+1 per two caster levels (maximum 1d6+5).<br/>The subject's Strength score cannot drop below 1.</p>"
}