{
"Level": "Cleric 6,Wizard 6",
"Title": "Symbol of Fear",
"Saving": "Will negates",
"Words": "<p>This spell functions like symbol of death, except that all creatures within 60 feet of the symbol of fear instead become panicked for 1 round per caster level.<br/>Note:Magic traps such as symbol of fear are hard to detect and disable.<br/>A rogue (only) can use the Search skill to find a symbol of fear and Disable Device to thwart it.<br/>The DC in each case is 25 + spell level, or 31 for symbol of fear.<br/>Material Component:Mercury and phosphorus, plus powdered diamond and opal with a total value of at least 1,000 gp.</p>"
}