{
"Level": "Wizard 7",
"Title": "Waves of Exhaustion",
"Casting": "1 standard action",
"Range": "60 ft.",
"Area": "Cone-shaped burst",
"Duration": "Instantaneous",
"Saving": "No",
"Words": "<p>Waves of negative energy cause all living creatures in the spell's area to become exhausted.<br/>This spell has no effect on a creature that is already exhausted.</p>"
}