{
"Level": "Druid 7",
"Title": "Animate Plants",
"Casting": "1 standard action",
"Range": "Close (25 ft. + 5 ft./2 levels)",
"Duration": "1 round/level or 1 hour/level; see text",
"Saving": "None",
"Words": "<p>You imbue inanimate plants with mobility and a semblance of life.  Each animated plant then immediately attacks whomever or whatever you initially designate as though it were an animated object of the appropriate size category. You may animate one Large or smaller plant (such as a tree), or an equivalent number of larger plants, per three caster levels.  A Huge plant counts as two Large or smaller plants, a Gargantuan plant as four, and a Colossal plant as eight.  You can change the designated target or targets as a move action, as if directing an active spell. </p>\n<p>Use the statistics for animated objects found in the Monster Manual, except that plants smaller than Large don't have hardness unless the DM rules otherwise for a given case.</p>\n<p><em>Animate plants</em> cannot affect plant creatures (such as treants), nor does it affect nonliving vegetable material (such as a cotton tunic or hempen rope).</p>\n<p><em>Entangle:</em> Alternatively, you may imbue all plants within range with a degree of mobility, which allows them to entwine around creatures in the area.  This usage of the spell duplicates the effect of an <a href=\"/spells/players-handbook-v35--6/entangle--2807/\">entangle</a> spell.  Spell resistance does not keep creatures from being entangled.  This effect lasts 1 hour per caster level.</p>"
}