{
"Level": "Druid 5,Wizard 5",
"Title": "Baleful Polymorph",
"Casting": "1 standard action",
"Range": "Close (25 ft. + 5 ft./2 levels)",
"Duration": "Permanent",
"Saving": "Fortitude negates, Will partial; see text",
"Words": "<p>You change the subject into a Small or smaller animal of no more than 1 HD (such as a dog, lizard, monkey, or toad). The subject takes on all the statistics and special abilities of an average member of the new form in place of its own except as follows:</p>\n<p>With those exceptions, the target's normal game statistics are replaced by those of the new form. The target loses all the special abilities it has in its normal form, including its class features.</p>\n<p>All items worn or carried by the subject fall to the ground at its feet, even if they could be worn or carried by the new form.</p>\n<p>If the new form would prove fatal to the creature (for example, if you polymorphed a landbound target into a fish, or an airborne target into a toad), the subject gets a +4 bonus on the save.</p>\n<p>If the subject remains in the new form for 24 consecutive hours, it must attempt a Will save. If this save fails, it loses its ability to understand language, as well as all other memories of its previous form,  and its Hit Dice and hit points change to match an average creature of its new form. These abilities and  statistics return to normal if the effect is later ended.</p>\n<p>Incorporeal or gaseous creatures are immune to baleful polymorph, and a creature with the shapechanger subtype (such as a lycanthrope or a doppelganger) can revert to its natural form as a standard action (which ends the spell's effect).</p>"
}