{
"Level": "Cleric 2,Wizard 2,Ranger 2,Druid 2",
"Title": "Bear's Endurance",
"Casting": "1 standard action",
"Range": "Touch",
"Duration": "1 min./level",
"Saving": "Will negates (harmless)",
"Words": "<p>The affected creature gains greater vitality and stamina. The spell grants the subject a +4 enhancement bonus to Constitution, which adds the usual benefits to hit points, Fortitude saves, Constitution checks, and so forth. </p>\n<p>Hit points gained by a temporary increase in Constitution score are not temporary hit points. They go away when the subject's Constitution drops back to normal. They are not lost first as temporary hit points are (see page 146).</p>"
}