{
"Level": "Cleric 6,Druid 6,Wizard 6",
"Title": "Bear's Endurance, Mass",
"Range": "Close (25 ft. + 5 ft./2 levels)",
"Words": "<p>Mass bear's endurance works like <a href=\"/spells/players-handbook-v35--6/bears-endurance--2783/\"><em>bear's endurance</em></a>, except that it affects multiple creatures.</p>"
}