{
"Level": "Bard 3,Wizard 3",
"Title": "Blink",
"Casting": "1 standard action",
"Range": "Personal",
"Duration": "1 round/level (D)",
"Words": "<p>Like a blink dog (see the Monster Manual), you \"blink\" back and forth between the Material Plane and the Ethereal Plane.<br/>You look as though you're winking in and out of reality very quickly and at random.<br/>Blinking has several effects, as follows.<br/>Physical attacks against you have a 50% miss chance, and the Blind-Fight feat doesn't help opponents, since you're ethereal and not merely invisible.<br/>If the attack is capable of striking ethereal creatures, the miss chance is only 20% (for concealment).<br/>If the attacker can see invisible creatures, the miss chance is also only 20%.<br/>(For an attacker who can both see and strike ethereal creatures, there is no miss chance).<br/>Likewise, your own attacks have a 20% miss chance, since you sometimes go ethereal just as you are about to strike.<br/>Any individually targeted spell has a 50% chance to fail against you while you're blinking unless your attacker can target invisible, ethereal creatures.<br/>Your own spells have a 20% chance to activate just as you go ethereal, in which case they typically do not affect the Material Plane.<br/>While blinking, you take only half damage from area attacks (but full damage from those that extend onto the Ethereal Plane).<br/>You strike as an invisible creature (with a +2 bonus on attack rolls), denying your target any Dexterity bonus to AC.<br/>You take only half damage from falling, since you fall only while you are material.<br/>While blinking, you can step through (but not see through) solid objects.<br/>For each 5 feet of solid material you walk through, there is a 50% chance that you become material.<br/>If this occurs, you are shunted off to the nearest open space and take 1d6 points of damage per 5 feet so traveled.<br/>You can move at only three-quarters speed (because movement on the Ethereal Plane is at half speed, and you spend about half your time there and half your time material).<br/>Since you spend about half your time on the Ethereal Plane, you can see and even attack ethereal creatures.<br/>You interact with ethereal creatures roughly the same way you interact with material ones.<br/>For instance, your spells against ethereal creatures are 20% likely to activate just as you go material and be lost.<br/>An ethereal creature is invisible, incorporeal, and capable of moving in any direction, even up or down.<br/>As an incorporeal creature, you can move through solid objects, including living creatures.<br/>An ethereal creature can see and hear the Material Plane, but everything looks gray and insubstantial.<br/>Sight and hearing on the Material Plane are limited to 60 feet.<br/>Force effects (such as magic missile and wall of force) and abjurations affect you normally.<br/>Their effects extend onto the Ethereal Plane from the Material Plane, but not vice versa.<br/>An ethereal creature can't attack material creatures, and spells you cast while ethereal affect only other ethereal things.<br/>Certain material creatures or objects have attacks or effects that work on the Ethereal Plane (such as the basilisk and its gaze attack.<br/>Treat other ethereal creatures and objects as material.</p>"
}