{
"Level": "Cleric 6,Druid 6,Wizard 6",
"Title": "Bull's Strength, Mass",
"Range": "Close (25 ft. + 5 ft./2 levels)",
"Words": "<p>This spell functions like bull's strength, except that it affects multiple creatures.</p>"
}