{
"Level": "Wizard 2,Ranger 3",
"Title": "Darkvision",
"Casting": "1 standard action",
"Range": "Touch",
"Duration": "1 hour/level",
"Saving": "Will negates (harmless)",
"Words": "<p>The subject gains the ability to see 60 feet even in total darkness. Darkvision is black and white only but otherwise like normal sight. Darkvision does not grant one the ability to see in magical darkness.</p>\n<p>Darkvision can be made permanent with a permanency spell.</p>\n<p>Material Component: Either a pinch of dried carrot or an agate.</p>"
}