{
"Level": "Druid 3,Ranger 3",
"Title": "Diminish Plants",
"Casting": "1 standard action",
"Range": "See text",
"Duration": "Instantaneous",
"Saving": "None",
"Words": "<p>This spell has two versions.<br/>Prune Growth: This version causes normal vegetation (grasses, briars, bushes, creepers, hedges, thistles, trees, vines, and so forth) within long range (400 feet + 40 feet per level) to shrink to about one-third of their normal size, becoming untangled and less bushy.<br/>The affected vegetation appears to have been carefully pruned and trimmed.<br/>At your option, the area can be a 100-foot-radius circle, a 150-foot-radius semicircle, or a 200-foot-radius quarter-circle.<br/>You may also designate portions of the area that are not affected.<br/>Stunt Growth: This version targets normal plants within a range of 1/2 mile, reducing their potential productivity over the course of the following year to one-third below normal.<br/>Diminish plants counters plant growth.<br/>This spell has no effect on plant creatures.</p>"
}