{
"Level": "Bard 2,Wizard 2,Paladin 2,Cleric 2",
"Title": "Eagle's Splendor",
"Casting": "1 standard action",
"Range": "Touch",
"Duration": "1 min./level",
"Saving": "Will negates (harmless)",
"Words": "<p>The transmuted creature becomes more poised, articulate, and personally forceful. The spell grants a +4 enhancement bonus to Charisma, adding the usual benefits to Charisma-based skill checks and other uses of the Charisma modifier. <a href=\"/classes/sorcerer/\">Sorcerers</a> and <a href=\"/classes/bard/\">bards</a> (and other spellcasters who rely on Charisma) affected by this spell do not gain any additional bonus spells for the increased Charisma, but the save DCs for spells they cast while under this spell's effect do increase.</p>\n<p><em>Arcane Material Component:</em> A few feathers or a pinch of droppings from an eagle.</p>"
}