{
"Level": "Bard 3",
"Title": "Glibness",
"Casting": "1 standard action",
"Range": "Personal",
"Duration": "10 min./level (D)",
"Words": "<p>Your speech becomes fluent and more believable.<br/>You gain a +30 bonus on Bluff checks made to convince another of the truth of your words.<br/>(This bonus doesn't apply to other uses of the Bluff skill, such as feinting in combat, creating a diversion to hide, or communicating a hidden message via innuendo).<br/>If a magical effect is used against you that would detect your lies or force you to speak the truth (such as discern lies or zone of truth), the user of the effect must succeed on a caster level check (1d20 + caster level) against a DC of 15 + your caster level to succeed.<br/>Failure means the effect does not detect your lies or force you to speak only the truth.</p>"
}