{
"Level": "Druid 1,Wizard 1,Ranger 1",
"Title": "Jump",
"Casting": "1 standard action",
"Range": "Touch",
"Duration": "1 min./level (D)",
"Saving": "Will negates (harmless)",
"Words": "<p>The subject gets a +10 enhancement bonus on Jump checks.<br/>The enhancement bonus increases to +20 at caster level 5th, and to +30 (the maximum) at caster level 9th.<br/>Material Component: A grasshopper's hind leg, which you break when the spell is cast.</p>"
}