{
"Level": "Druid 1,Ranger 1",
"Title": "Magic Fang",
"Casting": "1 standard action",
"Range": "Touch",
"Duration": "1 min./level",
"Saving": "Will negates (harmless)",
"Words": "<p>Magic fang gives one natural weapon of the subject a +1 enhancement bonus on attack and damage rolls.<br/>The spell can affect a slam attack, fist, bite, or other natural weapon.<br/>(The spell does not change an unarmed strike's damage from nonlethal damage to lethal damage).<br/>Magic fang can be made permanent with a permanency spell.</p>"
}