{
"Level": "Cleric 2,Wizard 2,Ranger 2,Paladin 2,Druid 2",
"Title": "Owl's Wisdom",
"Casting": "1 standard action",
"Range": "Touch",
"Duration": "1 min./level",
"Saving": "Will negates (harmless)",
"Words": "<p>The transmuted creature becomes wiser.<br/>The spell grants a +4 enhancement bonus to Wisdom, adding the usual benefit to Wisdom-related skills.<br/>Clerics, druids, paladins, and rangers (and other Wisdom-based spellcasters) who receive owl's wisdom do not gain any additional bonus spells for the increased Wisdom, but the save DCs for their spells increase.<br/>Arcane Material Component: A few feathers, or a pinch of droppings, from an owl.</p>"
}