{
"Level": "Cleric 6,Druid 6,Wizard 6",
"Title": "Owl's Wisdom, Mass",
"Range": "Close (25 ft. + 5 ft./2 levels)",
"Words": "<p>This spell functions like owl's wisdom, except that it affects multiple creatures.</p>"
}