{
"Level": "Druid 3,Ranger 3",
"Title": "Plant Growth",
"Casting": "1 standard action",
"Range": "See text",
"Duration": "Instantaneous",
"Saving": "None",
"Words": "<p>Plant growth has different effects depending on the version chosen.<br/>Overgrowth: This effect causes normal vegetation (grasses, briars, bushes, creepers, thistles, trees, vines) within long range (400 feet + 40 feet per caster level) to become thick and overgrown.<br/>The plants entwine to form a thicket or jungle that creatures must hack or force a way through.<br/>Speed drops to 5 feet, or 10 feet for Large or larger creatures.<br/>(The DM may allow faster movement for very small or very large creatures).<br/>The area must have brush and trees in it for this spell to take effect.<br/>At your option, the area can be a 100-foot-radius circle, a 150-foot-radius semicircle, or a 200-foot-radius quarter circle.<br/>You may designate places within the area that are not affected.<br/>Enrichment: This effect targets plants within a range of one-half mile, raising their potential productivity over the course of the next year to one-third above normal.<br/>Plant growth counters diminish plants.<br/>This spell has no effect on plant creatures.</p>"
}