{
"Level": "Bard 2,Wizard 2",
"Title": "Pyrotechnics",
"Casting": "1 standard action",
"Range": "Long (400 ft. + 40 ft./level)",
"Duration": "1d4+1 rounds, or 1d4+1 rounds after creatures leave the smoke cloud; see text",
"Saving": "Will negates or Fortitude negates; see text",
"Words": "<p>Pyrotechnics turns a fire into either a burst of blinding fireworks or a thick cloud of choking smoke, depending on the version you choose.<br/>Fireworks: The fireworks are a flashing, fiery, momentary burst of glowing, colored aerial lights.<br/>This effect causes creatures within 120 feet of the fire source to become blinded for 1d4+1 rounds (Will negates).<br/>These creatures must have line of sight to the fire to be affected.<br/>Spell resistance can prevent blindness.<br/>Smoke Cloud: A writhing stream of smoke billows out from the source, forming a choking cloud.<br/>The cloud spreads 20 feet in all directions and lasts for 1 round per caster level.<br/>All sight, even darkvision, is ineffective in or through the cloud.<br/>All within the cloud take -4 penalties to Strength and Dexterity (Fortitude negates).<br/>These effects last for 1d4+1 rounds after the cloud dissipates or after the creature leaves the area of the cloud.<br/>Spell resistance does not apply.<br/>Material Component: The spell uses one fire source, which is immediately extinguished.<br/>A fire so large that it exceeds a 20-foot cube is only partly extinguished.<br/>Magical fires are not extinguished, although a fire-based creature (such as a fire elemental) used as a source takes 1 point of damage per caster level.</p>"
}