{
"Level": "Wizard 4",
"Title": "Rary's Mnemonic Enhancer",
"Casting": "10 minutes",
"Range": "Personal",
"Duration": "Instantaneous",
"Words": "<p>Casting this spell allows you to prepare additional spells or retain spells recently cast.<br/>Pick one of these two versions when the spell is cast.<br/>Prepare: You prepare up to three additional levels of spells (such as three 1st-level spells, a 2nd- and a 1st-level spell, or a 3rd-level spell).<br/>A cantrip counts as 1/2 level for this purpose.<br/>You prepare and cast these spells normally.<br/>Retain: You retain any spell of 3rd level or lower that you had cast up to 1 round before you started casting the mnemonic enhancer.<br/>This restores the previously cast spell to your mind.<br/>In either event, the spell or spells prepared or retained fade after 24 hours (if not cast).<br/>Material Component: A piece of string, and ink consisting of squid secretion with black dragon's blood.<br/>Focus: An ivory plaque of at least 50 gp value.</p>"
}