{
"Level": "Wizard 1",
"Title": "Reduce Person",
"Casting": "1 round",
"Range": "Close (25 ft. + 5 ft./2 levels)",
"Duration": "1 min./level (D)",
"Saving": "Fortitude negates",
"Words": "<p>This spell causes instant diminution of a humanoid creature, halving its height, length, and width and dividing its weight by 8.<br/>This decrease changes the creature's size category to the next smaller one.<br/>The target gains a +2 size bonus to Dexterity, a -2 size penalty to Strength (to a minimum of 1), and a +1 bonus on attack rolls and AC due to its reduced size.<br/>A Small humanoid creature whose size decreases to Tiny has a space of 2-1/2 feet and a natural reach of 0 feet (meaning that it must enter an opponent's square to attack).<br/>A Large humanoid creature whose size decreases to Medium has a space of 5 feet and a natural reach of 5 feet.<br/>This spell doesn't change the target's speed.<br/>All equipment worn or carried by a creature is similarly reduced by the spell.<br/>Melee and projectile weapons deal less damage (see Table 2-3 in the Dungeon Master's Guide).<br/>Other magical properties are not affected by this spell.<br/>Any reduced item that leaves the reduced creature's possession (including a projectile or thrown weapon) instantly returns to its normal size.<br/>This means that thrown weapons deal their normal damage (projectiles deal damage based on the size of the weapon that fired them).<br/>Multiple magical effects that reduce size do not stack, which means (among other things) that you can't use a second casting of this spell to further reduce the size of as humanoid that's still under the effect of the first casting.<br/>Reduce person counters and dispels enlarge person.<br/>Reduce person can be made permanent with a permanency spell.<br/>Material Component: A pinch of powdered iron.</p>"
}