{
"Level": "Wizard 3",
"Title": "Shrink Item",
"Casting": "1 standard action",
"Range": "Touch",
"Duration": "One day/level; see text",
"Saving": "Will negates (object)",
"Words": "<p>You are able to shrink one nonmagical item (if it is within the size limit) to 1/16 of its normal size in each dimension (to about 1/4,000 the original volume and mass).<br/>This change effectively reduces the object's size by four categories (for instance, from Large to Diminutive).<br/>Optionally, you can also change its now-shrunken composition to a clothlike one.<br/>Objects changed by a shrink item spell can be returned to normal composition and size merely by tossing them onto any solid surface or by a word of command from the original caster.<br/>Even a burning fire and its fuel can be shrunk by this spell.<br/>Restoring the shrunken object to its normal size and composition ends the spell.<br/>Shrink item can be made permanent with a permanency spell, in which case the affected object can be shrunk and expanded an indefinite number of times, but only by the original caster.</p>"
}