{
"Level": "Wizard 7",
"Title": "Statue",
"Casting": "1 round",
"Range": "Touch",
"Duration": "1 hour/level (D)",
"Saving": "Will negates (harmless)",
"Words": "<p>A statue spell turns the subject to solid stone, along with any garments and equipment worn or carried.<br/>In statue form, the subject gains hardness 8.<br/>The subject retains its own hit points.<br/>The subject can see, hear, and smell normally, but it does not need to eat or breathe.<br/>Feeling is limited to those sensations that can affect the granite-hard substance of the individual's body.<br/>Chipping is equal to a mere scratch, but breaking off one of the statue's arms constitutes serious damage.<br/>The subject of a statue spell can return to its normal state, act, and then return instantly to the statue state (a free action) if it so desires, as long as the spell duration is in effect.<br/>Material Component: Lime, sand, and a drop of water stirred by an iron bar, such as a nail or spike.</p>"
}