{
"Level": "Wizard 6",
"Title": "Tenser's Transformation",
"Casting": "1 standard action",
"Range": "Personal",
"Duration": "1 round/level",
"Words": "<p>You become a virtual fighting machine\u2014stronger, tougher, faster, and more skilled in combat. Your mind-set changes so that you relish combat and you can't cast spells, even from magic items.</p>\n<p>You gain a +4 enhancement bonus to Strength, Dexterity, and Constitution, a +4 natural armor bonus to AC, a +5 competence bonus on Fortitude saves, and proficiency with all simple and martial weapons. Your base attack bonus equals your character level (which may give you multiple attacks).</p>\n<p>You lose your spellcasting ability, including your ability to use spell activation or spell completion magic  items, just as if the spells were no longer on your class list.</p>\n<p>Material Component: A potion of bull's strength, which you drink (and whose effects are subsumed by the spell effects).</p>"
}