{
"Level": "Wizard 0",
"Title": "Arcane Mark",
"Casting": "1 standard action",
"Range": "0 ft.",
"Effect": "One personal rune or mark, all of which must fit within 1 sq. ft.",
"Duration": "Permanent",
"Saving": "None",
"Words": "<p>This spell allows you to inscribe your personal rune or mark, which can consist of no more than six characters.<br/>The writing can be visible or invisible.<br/>An arcane mark spell enables you to etch the rune upon any substance (even stone or metal) without harm to the material upon which it is placed.<br/>If an invisible mark is made, a detect magic spell causes it to glow and be visible, though not necessarily understandable.<br/>See invisibility, true seeing, a gem of seeing, or a robe of eyes likewise allows the user to see an invisible arcane mark.<br/>A read magic spell reveals the words, if any.<br/>The mark cannot be dispelled, but it can be removed by the caster or by an erase spell.<br/>If an arcane mark is placed on a living being, normal wear gradually causes the effect to fade in about a month.<br/>Arcane mark must be cast on an object prior to casting Drawmij's instant summons on the same object (see that spell description for details).</p>"
}