{
"Level": "Wizard 5",
"Title": "Permanency",
"Casting": "2 rounds",
"Range": "See text",
"Effect": "See text",
"Area": "See text",
"Duration": "Permanent; see text",
"Saving": "None",
"Words": "<p>This spell makes certain other spells permanent. Depending on the spell, you must be of a minimum caster level and must expend a number of XP.</p>\n<p>You can make the following spells permanent in regard to yourself.</p>\n<p>You cast the desired spell and then follow it with the <em>permanency</em> spell. You cannot cast these spells on other creatures. This application of <em>permanency</em> can be dispelled only by a caster of higher level than you were when you cast the spell.</p>\n<p>In addition to personal use, <em>permanency</em> can be used to make the following spells permanent on yourself, another creature, or an object (as appropriate).</p>\n<p><sup>1</sup> Only bonds two creatures per casting of permanency.</p>\n<p>Additionally, the following spells can be cast upon objects or areas only and rendered permanent.</p>\n<p>Spells cast on other creatures, objects, or locations (not on you) are vulnerable to <em>dispel magic</em> as normal.</p>\n<p>The DM may allow other selected spells to be made permanent. Researching this possible application of a spell costs as much time and money as independently researching the selected spell (see the <em>Dungeon Master's Guide</em> for details). If the DM has already determined that the application is not possible, the research automatically fails. Note that you never learn what is possible except by the success or failure of your research.</p>\n<p><em>XP Cost</em>: See tables above.</p>"
}